2021-05-15 12:22:19,057 : INFO : loading gigaword model
2021-05-15 12:22:19,278 : INFO : loading projection weights from C:\Users\Charles/gensim-data\glove-wiki-gigaword-300\glove-wiki-gigaword-300.gz
2021-05-15 12:22:19,278 : DEBUG : {'uri': 'C:\\Users\\Charles/gensim-data\\glove-wiki-gigaword-300\\glove-wiki-gigaword-300.gz', 'mode': 'rb', 'buffering': -1, 'encoding': None, 'errors': None, 'newline': None, 'closefd': True, 'opener': None, 'ignore_ext': False, 'transport_params': None}
2021-05-15 12:23:14,645 : DEBUG : starting a new internal lifecycle event log for KeyedVectors
2021-05-15 12:23:14,645 : INFO : KeyedVectors lifecycle event {'msg': 'loaded (400000, 300) matrix of type float32 from C:\\Users\\Charles/gensim-data\\glove-wiki-gigaword-300\\glove-wiki-gigaword-300.gz', 'binary': False, 'encoding': 'utf8', 'datetime': '2021-05-15T12:23:14.629181', 'gensim': '4.0.1', 'python': '3.9.5 (tags/v3.9.5:0a7dcbd, May  3 2021, 17:27:52) [MSC v.1928 64 bit (AMD64)]', 'platform': 'Windows-10-10.0.19042-SP0', 'event': 'load_word2vec_format'}
