2021-05-16 12:17:03,212 : INFO : adding document #0 to Dictionary(0 unique tokens: [])
2021-05-16 12:17:03,242 : INFO : built Dictionary(6685 unique tokens: ['8&9/1977', 'abir', 'aim', 'allocation', 'anomaly']...) from 197 documents (total 41557 corpus positions)
2021-05-16 12:17:03,251 : DEBUG : starting a new internal lifecycle event log for Dictionary
2021-05-16 12:17:03,251 : INFO : Dictionary lifecycle event {'msg': "built Dictionary(6685 unique tokens: ['8&9/1977', 'abir', 'aim', 'allocation', 'anomaly']...) from 197 documents (total 41557 corpus positions)", 'datetime': '2021-05-16T12:17:03.242247', 'gensim': '4.0.1', 'python': '3.9.4 (default, Apr 20 2021, 15:51:38) \n[GCC 10.2.0]', 'platform': 'Linux-5.11.16-arch1-1-x86_64-with-glibc2.33', 'event': 'created'}
2021-05-16 12:17:03,273 : INFO : using symmetric alpha at 0.025
2021-05-16 12:17:03,273 : INFO : using symmetric eta at 0.025
2021-05-16 12:17:03,274 : INFO : using serial LDA version on this node
2021-05-16 12:17:03,296 : INFO : running online (multi-pass) LDA training, 40 topics, 25 passes over the supplied corpus of 197 documents, updating model once every 197 documents, evaluating perplexity every 197 documents, iterating 50x with a convergence threshold of 0.001000
2021-05-16 12:17:03,305 : DEBUG : bound: at document #0
2021-05-16 12:17:03,632 : INFO : -23.964 per-word bound, 16360300.5 perplexity estimate based on a held-out corpus of 197 documents with 41557 words
2021-05-16 12:17:03,634 : INFO : PROGRESS: pass 0, at document #197/197
2021-05-16 12:17:03,635 : DEBUG : performing inference on a chunk of 197 documents
2021-05-16 12:17:03,887 : DEBUG : 1/197 documents converged within 50 iterations
2021-05-16 12:17:03,889 : DEBUG : updating topics
2021-05-16 12:17:03,920 : INFO : topic #4 (0.025): 0.008*"selection" + 0.007*"evolutionary" + 0.005*"evolution" + 0.005*"darwin" + 0.005*"new" + 0.005*"theory" + 0.005*"argument" + 0.004*"process" + 0.004*"life" + 0.004*"natural"
2021-05-16 12:17:03,921 : INFO : topic #32 (0.025): 0.007*"research" + 0.005*"hypothesis" + 0.005*"science" + 0.005*"endocrine" + 0.004*"data" + 0.004*"colborn" + 0.004*"chemical" + 0.004*"new" + 0.003*"lake" + 0.003*"scientific"
2021-05-16 12:17:03,922 : INFO : topic #22 (0.025): 0.006*"pleasure" + 0.006*"genetics" + 0.005*"approach" + 0.005*"research" + 0.004*"laboratory" + 0.004*"science" + 0.003*"biology" + 0.003*"practice" + 0.003*"delbrück" + 0.003*"knowledge"
2021-05-16 12:17:03,922 : INFO : topic #12 (0.025): 0.006*"selection" + 0.006*"cause" + 0.006*"argue" + 0.006*"different" + 0.005*"reference" + 0.005*"homology" + 0.005*"species" + 0.004*"biological" + 0.004*"natural" + 0.004*"evolutionary"
2021-05-16 12:17:03,923 : INFO : topic #35 (0.025): 0.014*"system" + 0.013*"emotion" + 0.009*"cognitive" + 0.009*"living" + 0.008*"organism" + 0.007*"higher" + 0.006*"regeneration" + 0.006*"character" + 0.006*"process" + 0.006*"model"
2021-05-16 12:17:03,924 : INFO : topic diff=23.560027, rho=1.000000
2021-05-16 12:17:03,939 : DEBUG : bound: at document #0
2021-05-16 12:17:04,287 : INFO : -11.005 per-word bound, 2055.5 perplexity estimate based on a held-out corpus of 197 documents with 41557 words
2021-05-16 12:17:04,287 : INFO : PROGRESS: pass 1, at document #197/197
2021-05-16 12:17:04,289 : DEBUG : performing inference on a chunk of 197 documents
2021-05-16 12:17:04,507 : DEBUG : 148/197 documents converged within 50 iterations
2021-05-16 12:17:04,512 : DEBUG : updating topics
2021-05-16 12:17:04,543 : INFO : topic #31 (0.025): 0.019*"model" + 0.014*"concept" + 0.013*"organism" + 0.010*"use" + 0.008*"example" + 0.007*"concrete" + 0.007*"epistemic" + 0.007*"goal" + 0.006*"development" + 0.006*"conceptual"
2021-05-16 12:17:04,546 : INFO : topic #28 (0.025): 0.010*"mutation" + 0.010*"population" + 0.009*"bias" + 0.008*"selection" + 0.007*"evolutionary" + 0.007*"theory" + 0.006*"trait" + 0.006*"adaptive" + 0.006*"system" + 0.006*"allele"
2021-05-16 12:17:04,547 : INFO : topic #34 (0.025): 0.004*"darwin" + 0.004*"evolutionary" + 0.003*"intelligence" + 0.003*"selection" + 0.003*"e.g." + 0.003*"natural" + 0.003*"understanding" + 0.003*"well" + 0.003*"boundary" + 0.003*"theory"
2021-05-16 12:17:04,547 : INFO : topic #20 (0.025): 0.010*"idealization" + 0.010*"immune" + 0.009*"science" + 0.007*"organism" + 0.007*"system" + 0.007*"stress" + 0.007*"potochnik" + 0.006*"study" + 0.006*"mind" + 0.006*"research"
2021-05-16 12:17:04,548 : INFO : topic #32 (0.025): 0.011*"endocrine" + 0.009*"hypothesis" + 0.008*"colborn" + 0.008*"chemical" + 0.008*"lake" + 0.008*"research" + 0.006*"great" + 0.006*"scientific" + 0.006*"guillette" + 0.006*"environmental"
2021-05-16 12:17:04,549 : INFO : topic diff=2.695739, rho=0.577350
2021-05-16 12:17:04,566 : DEBUG : bound: at document #0
2021-05-16 12:17:04,799 : INFO : -9.669 per-word bound, 813.8 perplexity estimate based on a held-out corpus of 197 documents with 41557 words
2021-05-16 12:17:04,800 : INFO : PROGRESS: pass 2, at document #197/197
2021-05-16 12:17:04,800 : DEBUG : performing inference on a chunk of 197 documents
2021-05-16 12:17:04,955 : DEBUG : 192/197 documents converged within 50 iterations
2021-05-16 12:17:04,957 : DEBUG : updating topics
2021-05-16 12:17:05,001 : INFO : topic #25 (0.025): 0.008*"argument" + 0.007*"science" + 0.007*"biology" + 0.006*"research" + 0.006*"plant" + 0.006*"use" + 0.006*"different" + 0.006*"life" + 0.006*"understanding" + 0.005*"system"
2021-05-16 12:17:05,002 : INFO : topic #22 (0.025): 0.025*"pleasure" + 0.013*"super" + 0.010*"laboratory" + 0.008*"new" + 0.008*"supramaximal" + 0.008*"enactment" + 0.006*"make" + 0.005*"decade" + 0.005*"discover" + 0.005*"discovery"
2021-05-16 12:17:05,002 : INFO : topic #16 (0.025): 0.011*"values" + 0.011*"zoo" + 0.011*"scientific" + 0.011*"science" + 0.010*"research" + 0.009*"knowledge" + 0.007*"study" + 0.007*"fisher" + 0.006*"epistemic" + 0.005*"social"
2021-05-16 12:17:05,002 : INFO : topic #6 (0.025): 0.015*"cancer" + 0.008*"history" + 0.008*"account" + 0.008*"argue" + 0.007*"stochasticity" + 0.007*"model" + 0.007*"multicellularity" + 0.007*"entity" + 0.007*"learning" + 0.006*"natural"
2021-05-16 12:17:05,002 : INFO : topic #5 (0.025): 0.025*"data" + 0.012*"darwin" + 0.012*"sequence" + 0.012*"metabarcoding" + 0.009*"race" + 0.007*"scientific" + 0.007*"thus" + 0.007*"biological" + 0.007*"argue" + 0.007*"social"
2021-05-16 12:17:05,003 : INFO : topic diff=2.199472, rho=0.500000
2021-05-16 12:17:05,016 : DEBUG : bound: at document #0
2021-05-16 12:17:05,253 : INFO : -9.057 per-word bound, 532.8 perplexity estimate based on a held-out corpus of 197 documents with 41557 words
2021-05-16 12:17:05,253 : INFO : PROGRESS: pass 3, at document #197/197
2021-05-16 12:17:05,253 : DEBUG : performing inference on a chunk of 197 documents
2021-05-16 12:17:05,385 : DEBUG : 196/197 documents converged within 50 iterations
2021-05-16 12:17:05,389 : DEBUG : updating topics
2021-05-16 12:17:05,424 : INFO : topic #19 (0.025): 0.014*"altruism" + 0.009*"psychological" + 0.008*"care" + 0.007*"case" + 0.007*"collection" + 0.007*"one" + 0.007*"eugenics" + 0.007*"group" + 0.007*"kind" + 0.007*"evolutionary"
2021-05-16 12:17:05,426 : INFO : topic #3 (0.025): 0.016*"account" + 0.012*"monod" + 0.010*"inhibition" + 0.010*"argue" + 0.009*"species" + 0.009*"ethics" + 0.007*"concept" + 0.007*"function" + 0.007*"life" + 0.007*"phenomenon"
2021-05-16 12:17:05,427 : INFO : topic #23 (0.025): 0.014*"work" + 0.013*"cultural" + 0.011*"genetic" + 0.010*"progress" + 0.009*"evolutionary" + 0.008*"causation" + 0.008*"fever" + 0.007*"human" + 0.007*"different" + 0.007*"cognitive"
2021-05-16 12:17:05,427 : INFO : topic #4 (0.025): 0.013*"adaptation" + 0.012*"selection" + 0.012*"darwin" + 0.011*"evolutionary" + 0.008*"natural" + 0.008*"evolution" + 0.007*"argument" + 0.007*"progress" + 0.007*"lineage" + 0.007*"system"
2021-05-16 12:17:05,427 : INFO : topic #38 (0.025): 0.002*"research" + 0.002*"system" + 0.002*"teleology" + 0.001*"process" + 0.001*"biological" + 0.001*"model" + 0.001*"new" + 0.001*"data" + 0.001*"environment" + 0.001*"phenomenon"
2021-05-16 12:17:05,428 : INFO : topic diff=1.738162, rho=0.447214
2021-05-16 12:17:05,446 : DEBUG : bound: at document #0
2021-05-16 12:17:05,666 : INFO : -8.725 per-word bound, 423.3 perplexity estimate based on a held-out corpus of 197 documents with 41557 words
2021-05-16 12:17:05,666 : INFO : PROGRESS: pass 4, at document #197/197
2021-05-16 12:17:05,666 : DEBUG : performing inference on a chunk of 197 documents
2021-05-16 12:17:05,793 : DEBUG : 195/197 documents converged within 50 iterations
2021-05-16 12:17:05,802 : DEBUG : updating topics
2021-05-16 12:17:05,833 : INFO : topic #0 (0.025): 0.027*"evolutionary" + 0.011*"evolvability" + 0.009*"organism" + 0.008*"biology" + 0.007*"account" + 0.006*"function" + 0.006*"research" + 0.006*"biologist" + 0.006*"argue" + 0.006*"disposition"
2021-05-16 12:17:05,836 : INFO : topic #20 (0.025): 0.015*"immune" + 0.013*"idealization" + 0.012*"system" + 0.011*"science" + 0.010*"organism" + 0.010*"mind" + 0.009*"potochnik" + 0.007*"complexity" + 0.007*"often" + 0.007*"stress"
2021-05-16 12:17:05,836 : INFO : topic #4 (0.025): 0.014*"adaptation" + 0.013*"selection" + 0.013*"darwin" + 0.012*"evolutionary" + 0.008*"natural" + 0.008*"evolution" + 0.008*"progress" + 0.007*"lineage" + 0.007*"argument" + 0.007*"system"
2021-05-16 12:17:05,837 : INFO : topic #12 (0.025): 0.022*"homology" + 0.018*"selection" + 0.015*"cause" + 0.014*"natural" + 0.013*"owen" + 0.011*"proximate" + 0.010*"ultimate" + 0.010*"different" + 0.009*"reference" + 0.009*"evolutionary"
2021-05-16 12:17:05,837 : INFO : topic #9 (0.025): 0.025*"boundary" + 0.009*"environment" + 0.009*"darwin" + 0.008*"cultural" + 0.008*"individual" + 0.007*"organism" + 0.006*"social" + 0.006*"e.g." + 0.006*"death" + 0.006*"intelligence"
2021-05-16 12:17:05,838 : INFO : topic diff=1.339849, rho=0.408248
2021-05-16 12:17:05,856 : DEBUG : bound: at document #0
2021-05-16 12:17:06,153 : INFO : -8.535 per-word bound, 370.8 perplexity estimate based on a held-out corpus of 197 documents with 41557 words
2021-05-16 12:17:06,153 : INFO : PROGRESS: pass 5, at document #197/197
2021-05-16 12:17:06,155 : DEBUG : performing inference on a chunk of 197 documents
2021-05-16 12:17:06,282 : DEBUG : 196/197 documents converged within 50 iterations
2021-05-16 12:17:06,286 : DEBUG : updating topics
2021-05-16 12:17:06,317 : INFO : topic #23 (0.025): 0.014*"work" + 0.014*"cultural" + 0.012*"genetic" + 0.011*"progress" + 0.010*"evolutionary" + 0.009*"causation" + 0.008*"fever" + 0.008*"human" + 0.008*"cognitive" + 0.008*"different"
2021-05-16 12:17:06,320 : INFO : topic #14 (0.025): 0.015*"university" + 0.013*"case" + 0.012*"knowledge" + 0.012*"study" + 0.011*"hpssb" + 0.011*"biology" + 0.010*"perspective" + 0.009*"candidate" + 0.009*"biological" + 0.008*"immune"
2021-05-16 12:17:06,320 : INFO : topic #34 (0.025): 0.001*"darwin" + 0.001*"evolutionary" + 0.001*"intelligence" + 0.001*"selection" + 0.001*"e.g." + 0.001*"natural" + 0.001*"understanding" + 0.001*"well" + 0.001*"boundary" + 0.001*"theory"
2021-05-16 12:17:06,321 : INFO : topic #38 (0.025): 0.001*"research" + 0.001*"system" + 0.001*"teleology" + 0.001*"process" + 0.001*"biological" + 0.001*"model" + 0.001*"new" + 0.001*"data" + 0.001*"environment" + 0.001*"phenomenon"
2021-05-16 12:17:06,321 : INFO : topic #24 (0.025): 0.031*"neutrality" + 0.015*"neutral" + 0.015*"species" + 0.014*"abundance" + 0.014*"niche" + 0.005*"theory" + 0.005*"shake" + 0.005*"overall" + 0.005*"approximately" + 0.005*"biodiversity"
2021-05-16 12:17:06,322 : INFO : topic diff=1.016072, rho=0.377964
2021-05-16 12:17:06,339 : DEBUG : bound: at document #0
2021-05-16 12:17:06,559 : INFO : -8.421 per-word bound, 342.7 perplexity estimate based on a held-out corpus of 197 documents with 41557 words
2021-05-16 12:17:06,559 : INFO : PROGRESS: pass 6, at document #197/197
2021-05-16 12:17:06,559 : DEBUG : performing inference on a chunk of 197 documents
2021-05-16 12:17:06,686 : DEBUG : 197/197 documents converged within 50 iterations
2021-05-16 12:17:06,687 : DEBUG : updating topics
2021-05-16 12:17:06,718 : INFO : topic #34 (0.025): 0.001*"darwin" + 0.001*"evolutionary" + 0.001*"intelligence" + 0.001*"selection" + 0.001*"e.g." + 0.000*"natural" + 0.000*"understanding" + 0.000*"well" + 0.000*"boundary" + 0.000*"theory"
2021-05-16 12:17:06,718 : INFO : topic #32 (0.025): 0.016*"endocrine" + 0.012*"colborn" + 0.012*"chemical" + 0.012*"lake" + 0.009*"research" + 0.009*"hypothesis" + 0.009*"great" + 0.009*"scientific" + 0.009*"guillette" + 0.009*"environmental"
2021-05-16 12:17:06,718 : INFO : topic #3 (0.025): 0.016*"account" + 0.012*"monod" + 0.011*"inhibition" + 0.010*"argue" + 0.009*"phenomenon" + 0.009*"species" + 0.009*"ethics" + 0.008*"research" + 0.007*"concept" + 0.007*"function"
2021-05-16 12:17:06,719 : INFO : topic #38 (0.025): 0.001*"research" + 0.001*"system" + 0.001*"teleology" + 0.001*"process" + 0.001*"biological" + 0.000*"model" + 0.000*"new" + 0.000*"data" + 0.000*"environment" + 0.000*"phenomenon"
2021-05-16 12:17:06,719 : INFO : topic #7 (0.025): 0.014*"research" + 0.011*"species" + 0.011*"approach" + 0.010*"delbrück" + 0.008*"e.g." + 0.008*"paper" + 0.008*"well" + 0.008*"tissue" + 0.007*"culture" + 0.007*"theory"
2021-05-16 12:17:06,720 : INFO : topic diff=0.763718, rho=0.353553
2021-05-16 12:17:06,735 : DEBUG : bound: at document #0
2021-05-16 12:17:06,969 : INFO : -8.351 per-word bound, 326.5 perplexity estimate based on a held-out corpus of 197 documents with 41557 words
2021-05-16 12:17:06,970 : INFO : PROGRESS: pass 7, at document #197/197
2021-05-16 12:17:06,971 : DEBUG : performing inference on a chunk of 197 documents
2021-05-16 12:17:07,161 : DEBUG : 197/197 documents converged within 50 iterations
2021-05-16 12:17:07,165 : DEBUG : updating topics
2021-05-16 12:17:07,194 : INFO : topic #29 (0.025): 0.014*"malfunction" + 0.012*"normative" + 0.012*"field" + 0.011*"order" + 0.009*"species" + 0.007*"trait" + 0.007*"biological" + 0.007*"first" + 0.007*"subject" + 0.007*"operate"
2021-05-16 12:17:07,195 : INFO : topic #6 (0.025): 0.019*"cancer" + 0.009*"account" + 0.009*"history" + 0.009*"argue" + 0.008*"multicellularity" + 0.008*"model" + 0.008*"stochasticity" + 0.008*"entity" + 0.008*"machine" + 0.007*"natural"
2021-05-16 12:17:07,195 : INFO : topic #28 (0.025): 0.014*"mutation" + 0.013*"bias" + 0.013*"population" + 0.010*"selection" + 0.009*"trait" + 0.009*"adaptive" + 0.008*"allele" + 0.008*"property" + 0.008*"theory" + 0.008*"evolutionary"
2021-05-16 12:17:07,195 : INFO : topic #14 (0.025): 0.015*"university" + 0.013*"case" + 0.013*"knowledge" + 0.012*"study" + 0.011*"hpssb" + 0.011*"biology" + 0.010*"perspective" + 0.009*"candidate" + 0.009*"biological" + 0.008*"immune"
2021-05-16 12:17:07,196 : INFO : topic #12 (0.025): 0.022*"homology" + 0.019*"selection" + 0.015*"cause" + 0.014*"natural" + 0.013*"owen" + 0.011*"proximate" + 0.011*"ultimate" + 0.010*"different" + 0.009*"reference" + 0.009*"evolutionary"
2021-05-16 12:17:07,196 : INFO : topic diff=0.571976, rho=0.333333
2021-05-16 12:17:07,212 : DEBUG : bound: at document #0
2021-05-16 12:17:07,486 : INFO : -8.307 per-word bound, 316.7 perplexity estimate based on a held-out corpus of 197 documents with 41557 words
2021-05-16 12:17:07,486 : INFO : PROGRESS: pass 8, at document #197/197
2021-05-16 12:17:07,486 : DEBUG : performing inference on a chunk of 197 documents
2021-05-16 12:17:07,655 : DEBUG : 197/197 documents converged within 50 iterations
2021-05-16 12:17:07,661 : DEBUG : updating topics
2021-05-16 12:17:07,693 : INFO : topic #15 (0.025): 0.013*"approach" + 0.010*"science" + 0.010*"biology" + 0.009*"species" + 0.008*"phage" + 0.006*"study" + 0.006*"history" + 0.006*"gradualism" + 0.006*"therapy" + 0.005*"show"
2021-05-16 12:17:07,695 : INFO : topic #2 (0.025): 0.014*"research" + 0.011*"kinship" + 0.010*"scientific" + 0.009*"system" + 0.009*"science" + 0.008*"biological" + 0.007*"knowledge" + 0.007*"generalization" + 0.006*"role" + 0.006*"health"
2021-05-16 12:17:07,696 : INFO : topic #16 (0.025): 0.014*"zoo" + 0.013*"values" + 0.012*"scientific" + 0.010*"science" + 0.010*"knowledge" + 0.009*"research" + 0.008*"study" + 0.007*"fisher" + 0.006*"epistemic" + 0.006*"barcelona"
2021-05-16 12:17:07,696 : INFO : topic #10 (0.025): 0.012*"biology" + 0.008*"practice" + 0.007*"explanation" + 0.007*"research" + 0.007*"biological" + 0.006*"process" + 0.006*"cancer" + 0.006*"developmental" + 0.006*"science" + 0.006*"use"
2021-05-16 12:17:07,697 : INFO : topic #9 (0.025): 0.026*"boundary" + 0.010*"environment" + 0.009*"darwin" + 0.008*"cultural" + 0.008*"individual" + 0.007*"organism" + 0.007*"social" + 0.007*"e.g." + 0.006*"death" + 0.006*"gould"
2021-05-16 12:17:07,698 : INFO : topic diff=0.428549, rho=0.316228
2021-05-16 12:17:07,715 : DEBUG : bound: at document #0
2021-05-16 12:17:07,976 : INFO : -8.278 per-word bound, 310.4 perplexity estimate based on a held-out corpus of 197 documents with 41557 words
2021-05-16 12:17:07,976 : INFO : PROGRESS: pass 9, at document #197/197
2021-05-16 12:17:07,976 : DEBUG : performing inference on a chunk of 197 documents
2021-05-16 12:17:08,160 : DEBUG : 197/197 documents converged within 50 iterations
2021-05-16 12:17:08,164 : DEBUG : updating topics
2021-05-16 12:17:08,195 : INFO : topic #28 (0.025): 0.014*"mutation" + 0.014*"bias" + 0.013*"population" + 0.010*"selection" + 0.009*"trait" + 0.009*"adaptive" + 0.008*"allele" + 0.008*"property" + 0.008*"theory" + 0.008*"evolutionary"
2021-05-16 12:17:08,196 : INFO : topic #31 (0.025): 0.031*"model" + 0.019*"concept" + 0.019*"organism" + 0.016*"use" + 0.014*"concrete" + 0.013*"example" + 0.009*"conceptual" + 0.009*"development" + 0.009*"epistemic" + 0.009*"goal"
2021-05-16 12:17:08,196 : INFO : topic #30 (0.025): 0.017*"moral" + 0.017*"activity" + 0.014*"scientific" + 0.014*"integrative" + 0.014*"aim" + 0.013*"primatology" + 0.009*"claim" + 0.008*"support" + 0.008*"judgement" + 0.008*"scientist"
2021-05-16 12:17:08,197 : INFO : topic #35 (0.025): 0.021*"regeneration" + 0.017*"emotion" + 0.017*"system" + 0.015*"model" + 0.014*"organism" + 0.013*"living" + 0.011*"cognitive" + 0.010*"experimental" + 0.009*"higher" + 0.009*"character"
2021-05-16 12:17:08,197 : INFO : topic #27 (0.025): 0.018*"kind" + 0.016*"epistemic" + 0.011*"practice" + 0.010*"consciousness" + 0.010*"central" + 0.010*"molecular" + 0.010*"dogma" + 0.009*"research" + 0.008*"rna" + 0.008*"cluster"
2021-05-16 12:17:08,198 : INFO : topic diff=0.321905, rho=0.301511
2021-05-16 12:17:08,215 : DEBUG : bound: at document #0
2021-05-16 12:17:08,434 : INFO : -8.259 per-word bound, 306.4 perplexity estimate based on a held-out corpus of 197 documents with 41557 words
2021-05-16 12:17:08,434 : INFO : PROGRESS: pass 10, at document #197/197
2021-05-16 12:17:08,434 : DEBUG : performing inference on a chunk of 197 documents
2021-05-16 12:17:08,562 : DEBUG : 197/197 documents converged within 50 iterations
2021-05-16 12:17:08,563 : DEBUG : updating topics
2021-05-16 12:17:08,594 : INFO : topic #10 (0.025): 0.012*"biology" + 0.008*"practice" + 0.007*"explanation" + 0.007*"research" + 0.007*"biological" + 0.006*"process" + 0.006*"cancer" + 0.006*"developmental" + 0.006*"science" + 0.006*"use"
2021-05-16 12:17:08,595 : INFO : topic #37 (0.025): 0.011*"history" + 0.010*"biological" + 0.008*"stress" + 0.008*"study" + 0.007*"sex" + 0.006*"century" + 0.006*"scientific" + 0.005*"research" + 0.005*"biology" + 0.005*"role"
2021-05-16 12:17:08,595 : INFO : topic #16 (0.025): 0.014*"zoo" + 0.013*"values" + 0.012*"scientific" + 0.010*"science" + 0.010*"knowledge" + 0.009*"research" + 0.008*"study" + 0.007*"fisher" + 0.006*"epistemic" + 0.006*"barcelona"
2021-05-16 12:17:08,595 : INFO : topic #36 (0.025): 0.019*"species" + 0.013*"free" + 0.012*"data" + 0.010*"invasive" + 0.009*"new" + 0.007*"function" + 0.007*"forward" + 0.007*"natural" + 0.007*"conservation" + 0.006*"principle"
2021-05-16 12:17:08,596 : INFO : topic #35 (0.025): 0.021*"regeneration" + 0.017*"emotion" + 0.017*"system" + 0.015*"model" + 0.014*"organism" + 0.013*"living" + 0.011*"cognitive" + 0.010*"experimental" + 0.009*"higher" + 0.009*"character"
2021-05-16 12:17:08,597 : INFO : topic diff=0.242865, rho=0.288675
2021-05-16 12:17:08,612 : DEBUG : bound: at document #0
2021-05-16 12:17:08,833 : INFO : -8.246 per-word bound, 303.6 perplexity estimate based on a held-out corpus of 197 documents with 41557 words
2021-05-16 12:17:08,833 : INFO : PROGRESS: pass 11, at document #197/197
2021-05-16 12:17:08,833 : DEBUG : performing inference on a chunk of 197 documents
2021-05-16 12:17:08,954 : DEBUG : 197/197 documents converged within 50 iterations
2021-05-16 12:17:08,956 : DEBUG : updating topics
2021-05-16 12:17:08,986 : INFO : topic #29 (0.025): 0.014*"malfunction" + 0.012*"normative" + 0.012*"field" + 0.011*"order" + 0.009*"species" + 0.007*"trait" + 0.007*"biological" + 0.007*"first" + 0.007*"subject" + 0.007*"operate"
2021-05-16 12:17:08,987 : INFO : topic #20 (0.025): 0.016*"immune" + 0.014*"idealization" + 0.014*"system" + 0.011*"science" + 0.011*"organism" + 0.011*"mind" + 0.010*"potochnik" + 0.008*"complexity" + 0.007*"often" + 0.007*"project"
2021-05-16 12:17:08,987 : INFO : topic #14 (0.025): 0.015*"university" + 0.013*"case" + 0.013*"knowledge" + 0.013*"study" + 0.011*"hpssb" + 0.011*"biology" + 0.011*"perspective" + 0.010*"candidate" + 0.009*"biological" + 0.009*"immune"
2021-05-16 12:17:08,987 : INFO : topic #3 (0.025): 0.016*"account" + 0.012*"monod" + 0.011*"inhibition" + 0.010*"argue" + 0.010*"phenomenon" + 0.009*"species" + 0.009*"ethics" + 0.008*"research" + 0.007*"concept" + 0.007*"function"
2021-05-16 12:17:08,988 : INFO : topic #9 (0.025): 0.026*"boundary" + 0.009*"environment" + 0.009*"darwin" + 0.008*"cultural" + 0.008*"individual" + 0.007*"organism" + 0.007*"social" + 0.007*"gould" + 0.007*"death" + 0.007*"e.g."
2021-05-16 12:17:08,989 : INFO : topic diff=0.184269, rho=0.277350
2021-05-16 12:17:09,008 : DEBUG : bound: at document #0
2021-05-16 12:17:09,343 : INFO : -8.237 per-word bound, 301.7 perplexity estimate based on a held-out corpus of 197 documents with 41557 words
2021-05-16 12:17:09,343 : INFO : PROGRESS: pass 12, at document #197/197
2021-05-16 12:17:09,343 : DEBUG : performing inference on a chunk of 197 documents
2021-05-16 12:17:09,475 : DEBUG : 197/197 documents converged within 50 iterations
2021-05-16 12:17:09,479 : DEBUG : updating topics
2021-05-16 12:17:09,512 : INFO : topic #27 (0.025): 0.019*"kind" + 0.016*"epistemic" + 0.011*"practice" + 0.011*"consciousness" + 0.011*"central" + 0.011*"molecular" + 0.011*"dogma" + 0.009*"research" + 0.008*"rna" + 0.008*"cluster"
2021-05-16 12:17:09,512 : INFO : topic #22 (0.025): 0.036*"pleasure" + 0.018*"super" + 0.018*"laboratory" + 0.011*"new" + 0.011*"supramaximal" + 0.011*"enactment" + 0.011*"return" + 0.008*"brain" + 0.008*"make" + 0.007*"discovery"
2021-05-16 12:17:09,513 : INFO : topic #1 (0.025): 0.015*"muller" + 0.010*"knowledge" + 0.009*"enzyme" + 0.009*"vavilov" + 0.008*"work" + 0.008*"genetics" + 0.007*"research" + 0.006*"russian" + 0.005*"practice" + 0.004*"kammerer"
2021-05-16 12:17:09,513 : INFO : topic #37 (0.025): 0.011*"history" + 0.010*"biological" + 0.008*"stress" + 0.008*"study" + 0.007*"sex" + 0.006*"century" + 0.006*"scientific" + 0.005*"research" + 0.005*"role" + 0.005*"biology"
2021-05-16 12:17:09,513 : INFO : topic #12 (0.025): 0.022*"homology" + 0.019*"selection" + 0.015*"cause" + 0.014*"natural" + 0.013*"owen" + 0.011*"proximate" + 0.011*"ultimate" + 0.010*"different" + 0.009*"reference" + 0.009*"evolutionary"
2021-05-16 12:17:09,516 : INFO : topic diff=0.140713, rho=0.267261
2021-05-16 12:17:09,536 : DEBUG : bound: at document #0
2021-05-16 12:17:09,762 : INFO : -8.230 per-word bound, 300.3 perplexity estimate based on a held-out corpus of 197 documents with 41557 words
2021-05-16 12:17:09,762 : INFO : PROGRESS: pass 13, at document #197/197
2021-05-16 12:17:09,762 : DEBUG : performing inference on a chunk of 197 documents
2021-05-16 12:17:09,941 : DEBUG : 197/197 documents converged within 50 iterations
2021-05-16 12:17:09,942 : DEBUG : updating topics
2021-05-16 12:17:09,974 : INFO : topic #35 (0.025): 0.021*"regeneration" + 0.017*"emotion" + 0.017*"system" + 0.015*"model" + 0.015*"organism" + 0.013*"living" + 0.011*"cognitive" + 0.010*"experimental" + 0.009*"higher" + 0.009*"character"
2021-05-16 12:17:09,974 : INFO : topic #8 (0.025): 0.036*"information" + 0.014*"species" + 0.013*"metaphor" + 0.012*"propose" + 0.012*"theory" + 0.011*"concept" + 0.011*"race" + 0.011*"essentialism" + 0.011*"sharing" + 0.009*"mind"
2021-05-16 12:17:09,974 : INFO : topic #14 (0.025): 0.015*"university" + 0.013*"case" + 0.013*"knowledge" + 0.013*"study" + 0.011*"hpssb" + 0.011*"biology" + 0.011*"perspective" + 0.010*"candidate" + 0.009*"biological" + 0.009*"immune"
2021-05-16 12:17:09,975 : INFO : topic #2 (0.025): 0.014*"research" + 0.011*"kinship" + 0.010*"scientific" + 0.009*"system" + 0.009*"science" + 0.008*"knowledge" + 0.008*"biological" + 0.007*"generalization" + 0.006*"role" + 0.006*"health"
2021-05-16 12:17:09,975 : INFO : topic #20 (0.025): 0.016*"immune" + 0.014*"idealization" + 0.014*"system" + 0.011*"science" + 0.011*"organism" + 0.011*"mind" + 0.010*"potochnik" + 0.008*"complexity" + 0.007*"often" + 0.007*"project"
2021-05-16 12:17:09,976 : INFO : topic diff=0.108204, rho=0.258199
2021-05-16 12:17:09,991 : DEBUG : bound: at document #0
2021-05-16 12:17:10,243 : INFO : -8.225 per-word bound, 299.2 perplexity estimate based on a held-out corpus of 197 documents with 41557 words
2021-05-16 12:17:10,243 : INFO : PROGRESS: pass 14, at document #197/197
2021-05-16 12:17:10,245 : DEBUG : performing inference on a chunk of 197 documents
2021-05-16 12:17:10,371 : DEBUG : 197/197 documents converged within 50 iterations
2021-05-16 12:17:10,375 : DEBUG : updating topics
2021-05-16 12:17:10,407 : INFO : topic #0 (0.025): 0.030*"evolutionary" + 0.013*"evolvability" + 0.009*"organism" + 0.009*"biology" + 0.007*"account" + 0.007*"hypothesis" + 0.007*"gaia" + 0.007*"research" + 0.007*"argue" + 0.006*"biologist"
2021-05-16 12:17:10,409 : INFO : topic #8 (0.025): 0.036*"information" + 0.014*"species" + 0.013*"metaphor" + 0.012*"propose" + 0.011*"theory" + 0.011*"concept" + 0.011*"race" + 0.011*"essentialism" + 0.011*"sharing" + 0.009*"mind"
2021-05-16 12:17:10,410 : INFO : topic #28 (0.025): 0.014*"mutation" + 0.014*"bias" + 0.013*"population" + 0.010*"selection" + 0.009*"trait" + 0.009*"adaptive" + 0.008*"allele" + 0.008*"property" + 0.008*"theory" + 0.008*"fitness"
2021-05-16 12:17:10,410 : INFO : topic #26 (0.025): 0.013*"intelligence" + 0.011*"depression" + 0.010*"animal" + 0.010*"human" + 0.010*"sperm" + 0.009*"model" + 0.009*"scientific" + 0.009*"practice" + 0.008*"science" + 0.007*"research"
2021-05-16 12:17:10,411 : INFO : topic #19 (0.025): 0.015*"altruism" + 0.011*"brazil" + 0.010*"psychological" + 0.009*"group" + 0.008*"case" + 0.008*"one" + 0.008*"collection" + 0.008*"care" + 0.007*"eugenics" + 0.007*"kind"
2021-05-16 12:17:10,412 : INFO : topic diff=0.083817, rho=0.250000
2021-05-16 12:17:10,429 : DEBUG : bound: at document #0
2021-05-16 12:17:10,657 : INFO : -8.221 per-word bound, 298.4 perplexity estimate based on a held-out corpus of 197 documents with 41557 words
2021-05-16 12:17:10,658 : INFO : PROGRESS: pass 15, at document #197/197
2021-05-16 12:17:10,660 : DEBUG : performing inference on a chunk of 197 documents
2021-05-16 12:17:10,786 : DEBUG : 197/197 documents converged within 50 iterations
2021-05-16 12:17:10,790 : DEBUG : updating topics
2021-05-16 12:17:10,823 : INFO : topic #19 (0.025): 0.015*"altruism" + 0.011*"brazil" + 0.010*"psychological" + 0.009*"group" + 0.008*"one" + 0.008*"case" + 0.008*"collection" + 0.008*"care" + 0.007*"eugenics" + 0.007*"kind"
2021-05-16 12:17:10,829 : INFO : topic #25 (0.025): 0.009*"argument" + 0.008*"plant" + 0.008*"science" + 0.007*"biology" + 0.007*"research" + 0.006*"life" + 0.006*"use" + 0.006*"understanding" + 0.006*"different" + 0.006*"biodiversity"
2021-05-16 12:17:10,830 : INFO : topic #13 (0.025): 0.022*"social" + 0.016*"causal" + 0.016*"teleology" + 0.013*"biological" + 0.012*"individual" + 0.009*"trauma" + 0.008*"variable" + 0.008*"monad" + 0.008*"simple" + 0.008*"entity"
2021-05-16 12:17:10,831 : INFO : topic #1 (0.025): 0.015*"muller" + 0.010*"knowledge" + 0.009*"enzyme" + 0.009*"vavilov" + 0.008*"work" + 0.008*"genetics" + 0.007*"research" + 0.006*"russian" + 0.005*"practice" + 0.004*"kammerer"
2021-05-16 12:17:10,831 : INFO : topic #11 (0.025): 0.030*"genetics" + 0.019*"process" + 0.016*"student" + 0.013*"social" + 0.010*"question" + 0.010*"gene" + 0.009*"environment" + 0.008*"genetic" + 0.008*"biotic" + 0.008*"heuristic"
2021-05-16 12:17:10,838 : INFO : topic diff=0.065415, rho=0.242536
2021-05-16 12:17:10,857 : DEBUG : bound: at document #0
2021-05-16 12:17:11,130 : INFO : -8.218 per-word bound, 297.8 perplexity estimate based on a held-out corpus of 197 documents with 41557 words
2021-05-16 12:17:11,135 : INFO : PROGRESS: pass 16, at document #197/197
2021-05-16 12:17:11,135 : DEBUG : performing inference on a chunk of 197 documents
2021-05-16 12:17:11,260 : DEBUG : 197/197 documents converged within 50 iterations
2021-05-16 12:17:11,264 : DEBUG : updating topics
2021-05-16 12:17:11,295 : INFO : topic #11 (0.025): 0.030*"genetics" + 0.019*"process" + 0.016*"student" + 0.013*"social" + 0.010*"question" + 0.010*"gene" + 0.009*"environment" + 0.008*"genetic" + 0.008*"biotic" + 0.008*"heuristic"
2021-05-16 12:17:11,298 : INFO : topic #27 (0.025): 0.019*"kind" + 0.016*"epistemic" + 0.011*"practice" + 0.011*"consciousness" + 0.011*"central" + 0.011*"molecular" + 0.011*"dogma" + 0.009*"research" + 0.008*"rna" + 0.008*"cluster"
2021-05-16 12:17:11,298 : INFO : topic #23 (0.025): 0.015*"work" + 0.014*"cultural" + 0.012*"genetic" + 0.011*"progress" + 0.010*"evolutionary" + 0.010*"causation" + 0.009*"fever" + 0.009*"cognitive" + 0.009*"human" + 0.008*"different"
2021-05-16 12:17:11,299 : INFO : topic #8 (0.025): 0.037*"information" + 0.014*"species" + 0.013*"metaphor" + 0.012*"sharing" + 0.012*"propose" + 0.011*"theory" + 0.011*"concept" + 0.011*"race" + 0.011*"essentialism" + 0.009*"mind"
2021-05-16 12:17:11,299 : INFO : topic #38 (0.025): 0.000*"research" + 0.000*"system" + 0.000*"teleology" + 0.000*"process" + 0.000*"biological" + 0.000*"model" + 0.000*"new" + 0.000*"data" + 0.000*"environment" + 0.000*"phenomenon"
2021-05-16 12:17:11,300 : INFO : topic diff=0.051446, rho=0.235702
2021-05-16 12:17:11,318 : DEBUG : bound: at document #0
2021-05-16 12:17:11,537 : INFO : -8.216 per-word bound, 297.3 perplexity estimate based on a held-out corpus of 197 documents with 41557 words
2021-05-16 12:17:11,537 : INFO : PROGRESS: pass 17, at document #197/197
2021-05-16 12:17:11,539 : DEBUG : performing inference on a chunk of 197 documents
2021-05-16 12:17:11,665 : DEBUG : 197/197 documents converged within 50 iterations
2021-05-16 12:17:11,669 : DEBUG : updating topics
2021-05-16 12:17:11,703 : INFO : topic #32 (0.025): 0.016*"endocrine" + 0.012*"colborn" + 0.012*"chemical" + 0.012*"lake" + 0.009*"research" + 0.009*"data" + 0.009*"hypothesis" + 0.009*"great" + 0.009*"scientific" + 0.009*"guillette"
2021-05-16 12:17:11,705 : INFO : topic #5 (0.025): 0.031*"data" + 0.015*"sequence" + 0.015*"metabarcoding" + 0.011*"race" + 0.011*"darwin" + 0.009*"thus" + 0.008*"biological" + 0.008*"scientific" + 0.008*"new" + 0.008*"social"
2021-05-16 12:17:11,706 : INFO : topic #13 (0.025): 0.022*"social" + 0.016*"causal" + 0.016*"teleology" + 0.013*"biological" + 0.012*"individual" + 0.009*"trauma" + 0.008*"variable" + 0.008*"monad" + 0.008*"simple" + 0.008*"entity"
2021-05-16 12:17:11,707 : INFO : topic #29 (0.025): 0.014*"malfunction" + 0.013*"normative" + 0.013*"field" + 0.011*"order" + 0.009*"species" + 0.007*"trait" + 0.007*"biological" + 0.007*"first" + 0.007*"subject" + 0.007*"operate"
2021-05-16 12:17:11,707 : INFO : topic #25 (0.025): 0.009*"argument" + 0.008*"plant" + 0.008*"science" + 0.007*"biology" + 0.007*"research" + 0.006*"life" + 0.006*"use" + 0.006*"understanding" + 0.006*"different" + 0.006*"biodiversity"
2021-05-16 12:17:11,708 : INFO : topic diff=0.040778, rho=0.229416
2021-05-16 12:17:11,726 : DEBUG : bound: at document #0
2021-05-16 12:17:11,958 : INFO : -8.214 per-word bound, 296.9 perplexity estimate based on a held-out corpus of 197 documents with 41557 words
2021-05-16 12:17:11,960 : INFO : PROGRESS: pass 18, at document #197/197
2021-05-16 12:17:11,961 : DEBUG : performing inference on a chunk of 197 documents
2021-05-16 12:17:12,164 : DEBUG : 197/197 documents converged within 50 iterations
2021-05-16 12:17:12,168 : DEBUG : updating topics
2021-05-16 12:17:12,199 : INFO : topic #35 (0.025): 0.021*"regeneration" + 0.017*"emotion" + 0.017*"system" + 0.015*"model" + 0.015*"organism" + 0.013*"living" + 0.011*"cognitive" + 0.010*"experimental" + 0.009*"higher" + 0.009*"character"
2021-05-16 12:17:12,200 : INFO : topic #10 (0.025): 0.012*"biology" + 0.008*"practice" + 0.008*"research" + 0.007*"explanation" + 0.007*"biological" + 0.006*"process" + 0.006*"cancer" + 0.006*"developmental" + 0.006*"science" + 0.006*"use"
2021-05-16 12:17:12,200 : INFO : topic #21 (0.025): 0.015*"mobility" + 0.015*"endocrine" + 0.014*"disruption" + 0.013*"research" + 0.012*"discovery" + 0.008*"disruptors" + 0.007*"data" + 0.007*"disaster" + 0.007*"cshl" + 0.007*"development"
2021-05-16 12:17:12,200 : INFO : topic #2 (0.025): 0.014*"research" + 0.011*"kinship" + 0.010*"scientific" + 0.009*"system" + 0.009*"science" + 0.009*"knowledge" + 0.008*"biological" + 0.007*"generalization" + 0.006*"role" + 0.006*"health"
2021-05-16 12:17:12,201 : INFO : topic #14 (0.025): 0.015*"university" + 0.013*"knowledge" + 0.013*"case" + 0.013*"study" + 0.011*"hpssb" + 0.011*"perspective" + 0.011*"biology" + 0.010*"candidate" + 0.009*"biological" + 0.009*"immune"
2021-05-16 12:17:12,202 : INFO : topic diff=0.032579, rho=0.223607
2021-05-16 12:17:12,218 : DEBUG : bound: at document #0
2021-05-16 12:17:12,440 : INFO : -8.212 per-word bound, 296.5 perplexity estimate based on a held-out corpus of 197 documents with 41557 words
2021-05-16 12:17:12,441 : INFO : PROGRESS: pass 19, at document #197/197
2021-05-16 12:17:12,441 : DEBUG : performing inference on a chunk of 197 documents
2021-05-16 12:17:12,574 : DEBUG : 197/197 documents converged within 50 iterations
2021-05-16 12:17:12,576 : DEBUG : updating topics
2021-05-16 12:17:12,611 : INFO : topic #37 (0.025): 0.012*"history" + 0.010*"biological" + 0.009*"stress" + 0.008*"study" + 0.007*"sex" + 0.006*"century" + 0.006*"scientific" + 0.005*"role" + 0.005*"research" + 0.005*"biology"
2021-05-16 12:17:12,615 : INFO : topic #7 (0.025): 0.015*"research" + 0.011*"species" + 0.011*"approach" + 0.010*"delbrück" + 0.008*"paper" + 0.008*"culture" + 0.008*"e.g." + 0.008*"well" + 0.007*"tissue" + 0.007*"theory"
2021-05-16 12:17:12,615 : INFO : topic #28 (0.025): 0.014*"mutation" + 0.014*"bias" + 0.013*"population" + 0.010*"selection" + 0.009*"trait" + 0.009*"adaptive" + 0.008*"allele" + 0.008*"property" + 0.008*"theory" + 0.008*"fitness"
2021-05-16 12:17:12,616 : INFO : topic #10 (0.025): 0.012*"biology" + 0.008*"practice" + 0.008*"research" + 0.007*"explanation" + 0.007*"biological" + 0.006*"process" + 0.006*"cancer" + 0.006*"developmental" + 0.006*"science" + 0.006*"use"
2021-05-16 12:17:12,616 : INFO : topic #32 (0.025): 0.016*"endocrine" + 0.012*"colborn" + 0.012*"chemical" + 0.012*"lake" + 0.010*"data" + 0.009*"research" + 0.009*"hypothesis" + 0.009*"great" + 0.009*"scientific" + 0.009*"guillette"
2021-05-16 12:17:12,620 : INFO : topic diff=0.026237, rho=0.218218
2021-05-16 12:17:12,639 : DEBUG : bound: at document #0
2021-05-16 12:17:12,859 : INFO : -8.211 per-word bound, 296.2 perplexity estimate based on a held-out corpus of 197 documents with 41557 words
2021-05-16 12:17:12,862 : INFO : PROGRESS: pass 20, at document #197/197
2021-05-16 12:17:12,862 : DEBUG : performing inference on a chunk of 197 documents
2021-05-16 12:17:12,988 : DEBUG : 197/197 documents converged within 50 iterations
2021-05-16 12:17:12,993 : DEBUG : updating topics
2021-05-16 12:17:13,025 : INFO : topic #9 (0.025): 0.026*"boundary" + 0.009*"environment" + 0.009*"darwin" + 0.008*"cultural" + 0.008*"individual" + 0.007*"organism" + 0.007*"gould" + 0.007*"death" + 0.007*"social" + 0.007*"e.g."
2021-05-16 12:17:13,028 : INFO : topic #22 (0.025): 0.036*"pleasure" + 0.018*"super" + 0.018*"laboratory" + 0.011*"new" + 0.011*"supramaximal" + 0.011*"enactment" + 0.011*"return" + 0.008*"make" + 0.008*"brain" + 0.007*"discovery"
2021-05-16 12:17:13,028 : INFO : topic #31 (0.025): 0.031*"model" + 0.020*"concept" + 0.019*"organism" + 0.016*"use" + 0.015*"concrete" + 0.013*"example" + 0.009*"conceptual" + 0.009*"development" + 0.009*"epistemic" + 0.009*"goal"
2021-05-16 12:17:13,029 : INFO : topic #14 (0.025): 0.015*"university" + 0.013*"knowledge" + 0.013*"case" + 0.013*"study" + 0.011*"hpssb" + 0.011*"perspective" + 0.011*"biology" + 0.010*"candidate" + 0.009*"biological" + 0.009*"immune"
2021-05-16 12:17:13,029 : INFO : topic #25 (0.025): 0.009*"argument" + 0.008*"plant" + 0.008*"science" + 0.007*"biology" + 0.007*"research" + 0.006*"life" + 0.006*"use" + 0.006*"understanding" + 0.006*"different" + 0.006*"biodiversity"
2021-05-16 12:17:13,030 : INFO : topic diff=0.021299, rho=0.213201
2021-05-16 12:17:13,048 : DEBUG : bound: at document #0
2021-05-16 12:17:13,289 : INFO : -8.209 per-word bound, 296.0 perplexity estimate based on a held-out corpus of 197 documents with 41557 words
2021-05-16 12:17:13,289 : INFO : PROGRESS: pass 21, at document #197/197
2021-05-16 12:17:13,289 : DEBUG : performing inference on a chunk of 197 documents
2021-05-16 12:17:13,411 : DEBUG : 197/197 documents converged within 50 iterations
2021-05-16 12:17:13,413 : DEBUG : updating topics
2021-05-16 12:17:13,443 : INFO : topic #2 (0.025): 0.014*"research" + 0.011*"kinship" + 0.010*"scientific" + 0.009*"system" + 0.009*"science" + 0.009*"knowledge" + 0.008*"biological" + 0.007*"generalization" + 0.006*"role" + 0.006*"health"
2021-05-16 12:17:13,443 : INFO : topic #8 (0.025): 0.037*"information" + 0.014*"species" + 0.013*"metaphor" + 0.012*"sharing" + 0.012*"propose" + 0.011*"theory" + 0.011*"concept" + 0.011*"race" + 0.011*"essentialism" + 0.009*"mind"
2021-05-16 12:17:13,444 : INFO : topic #15 (0.025): 0.013*"approach" + 0.010*"science" + 0.010*"biology" + 0.009*"species" + 0.008*"phage" + 0.006*"study" + 0.006*"history" + 0.006*"gradualism" + 0.006*"therapy" + 0.005*"show"
2021-05-16 12:17:13,444 : INFO : topic #14 (0.025): 0.015*"university" + 0.013*"knowledge" + 0.013*"case" + 0.013*"study" + 0.011*"hpssb" + 0.011*"perspective" + 0.011*"biology" + 0.010*"candidate" + 0.009*"biological" + 0.009*"immune"
2021-05-16 12:17:13,444 : INFO : topic #16 (0.025): 0.014*"zoo" + 0.013*"values" + 0.012*"scientific" + 0.010*"science" + 0.010*"knowledge" + 0.009*"research" + 0.008*"study" + 0.007*"fisher" + 0.006*"barcelona" + 0.006*"anteater"
2021-05-16 12:17:13,445 : INFO : topic diff=0.017430, rho=0.208514
2021-05-16 12:17:13,460 : DEBUG : bound: at document #0
2021-05-16 12:17:13,691 : INFO : -8.208 per-word bound, 295.8 perplexity estimate based on a held-out corpus of 197 documents with 41557 words
2021-05-16 12:17:13,692 : INFO : PROGRESS: pass 22, at document #197/197
2021-05-16 12:17:13,693 : DEBUG : performing inference on a chunk of 197 documents
2021-05-16 12:17:13,821 : DEBUG : 197/197 documents converged within 50 iterations
2021-05-16 12:17:13,825 : DEBUG : updating topics
2021-05-16 12:17:13,858 : INFO : topic #7 (0.025): 0.015*"research" + 0.011*"species" + 0.011*"approach" + 0.010*"delbrück" + 0.008*"paper" + 0.008*"culture" + 0.008*"e.g." + 0.008*"well" + 0.007*"tissue" + 0.007*"theory"
2021-05-16 12:17:13,860 : INFO : topic #26 (0.025): 0.013*"intelligence" + 0.011*"depression" + 0.010*"animal" + 0.010*"sperm" + 0.010*"human" + 0.009*"model" + 0.009*"scientific" + 0.009*"practice" + 0.008*"science" + 0.007*"count"
2021-05-16 12:17:13,861 : INFO : topic #2 (0.025): 0.014*"research" + 0.011*"kinship" + 0.010*"scientific" + 0.009*"system" + 0.009*"science" + 0.009*"knowledge" + 0.008*"biological" + 0.007*"generalization" + 0.006*"role" + 0.006*"health"
2021-05-16 12:17:13,861 : INFO : topic #10 (0.025): 0.012*"biology" + 0.008*"research" + 0.008*"practice" + 0.007*"explanation" + 0.007*"biological" + 0.006*"process" + 0.006*"cancer" + 0.006*"developmental" + 0.006*"science" + 0.006*"use"
2021-05-16 12:17:13,862 : INFO : topic #0 (0.025): 0.030*"evolutionary" + 0.013*"evolvability" + 0.009*"organism" + 0.009*"biology" + 0.007*"hypothesis" + 0.007*"account" + 0.007*"gaia" + 0.007*"argue" + 0.007*"biologist" + 0.007*"function"
2021-05-16 12:17:13,862 : INFO : topic diff=0.014377, rho=0.204124
2021-05-16 12:17:13,880 : DEBUG : bound: at document #0
2021-05-16 12:17:14,096 : INFO : -8.207 per-word bound, 295.6 perplexity estimate based on a held-out corpus of 197 documents with 41557 words
2021-05-16 12:17:14,097 : INFO : PROGRESS: pass 23, at document #197/197
2021-05-16 12:17:14,097 : DEBUG : performing inference on a chunk of 197 documents
2021-05-16 12:17:14,238 : DEBUG : 197/197 documents converged within 50 iterations
2021-05-16 12:17:14,240 : DEBUG : updating topics
2021-05-16 12:17:14,271 : INFO : topic #19 (0.025): 0.015*"altruism" + 0.012*"brazil" + 0.009*"psychological" + 0.009*"group" + 0.008*"one" + 0.008*"collection" + 0.008*"case" + 0.007*"care" + 0.007*"eugenics" + 0.007*"kind"
2021-05-16 12:17:14,271 : INFO : topic #1 (0.025): 0.015*"muller" + 0.009*"enzyme" + 0.009*"knowledge" + 0.009*"vavilov" + 0.008*"work" + 0.008*"genetics" + 0.007*"research" + 0.006*"russian" + 0.005*"practice" + 0.004*"kammerer"
2021-05-16 12:17:14,272 : INFO : topic #12 (0.025): 0.022*"homology" + 0.019*"selection" + 0.015*"cause" + 0.014*"natural" + 0.013*"owen" + 0.011*"proximate" + 0.011*"ultimate" + 0.010*"different" + 0.009*"reference" + 0.009*"evolutionary"
2021-05-16 12:17:14,272 : INFO : topic #33 (0.025): 0.015*"ecological" + 0.010*"use" + 0.010*"prediction" + 0.009*"theory" + 0.009*"genome" + 0.007*"validity" + 0.007*"two" + 0.007*"context" + 0.007*"capacity" + 0.006*"base"
2021-05-16 12:17:14,272 : INFO : topic #15 (0.025): 0.013*"approach" + 0.010*"science" + 0.010*"biology" + 0.009*"species" + 0.008*"phage" + 0.006*"study" + 0.006*"history" + 0.006*"gradualism" + 0.006*"therapy" + 0.005*"show"
2021-05-16 12:17:14,273 : INFO : topic diff=0.011952, rho=0.200000
2021-05-16 12:17:14,289 : DEBUG : bound: at document #0
2021-05-16 12:17:14,511 : INFO : -8.207 per-word bound, 295.4 perplexity estimate based on a held-out corpus of 197 documents with 41557 words
2021-05-16 12:17:14,512 : INFO : PROGRESS: pass 24, at document #197/197
2021-05-16 12:17:14,512 : DEBUG : performing inference on a chunk of 197 documents
2021-05-16 12:17:14,645 : DEBUG : 197/197 documents converged within 50 iterations
2021-05-16 12:17:14,647 : DEBUG : updating topics
2021-05-16 12:17:14,678 : INFO : topic #7 (0.025): 0.015*"research" + 0.011*"species" + 0.011*"approach" + 0.010*"delbrück" + 0.008*"paper" + 0.008*"culture" + 0.008*"e.g." + 0.008*"well" + 0.007*"tissue" + 0.007*"theory"
2021-05-16 12:17:14,679 : INFO : topic #0 (0.025): 0.030*"evolutionary" + 0.013*"evolvability" + 0.009*"organism" + 0.009*"biology" + 0.008*"hypothesis" + 0.007*"account" + 0.007*"gaia" + 0.007*"argue" + 0.007*"biologist" + 0.007*"function"
2021-05-16 12:17:14,679 : INFO : topic #26 (0.025): 0.013*"intelligence" + 0.011*"depression" + 0.010*"animal" + 0.010*"sperm" + 0.010*"human" + 0.009*"model" + 0.009*"scientific" + 0.009*"practice" + 0.008*"science" + 0.007*"count"
2021-05-16 12:17:14,679 : INFO : topic #3 (0.025): 0.016*"account" + 0.012*"monod" + 0.011*"inhibition" + 0.010*"phenomenon" + 0.010*"argue" + 0.009*"research" + 0.009*"species" + 0.009*"ethics" + 0.007*"concept" + 0.007*"function"
2021-05-16 12:17:14,680 : INFO : topic #27 (0.025): 0.019*"kind" + 0.016*"epistemic" + 0.011*"practice" + 0.011*"consciousness" + 0.011*"central" + 0.011*"molecular" + 0.011*"dogma" + 0.009*"research" + 0.009*"rna" + 0.009*"cluster"
2021-05-16 12:17:14,681 : INFO : topic diff=0.010013, rho=0.196116
2021-05-16 12:17:14,681 : DEBUG : starting a new internal lifecycle event log for LdaModel
2021-05-16 12:17:14,681 : INFO : LdaModel lifecycle event {'msg': 'trained LdaModel(num_terms=6685, num_topics=40, decay=0.5, chunksize=2000) in 11.39s', 'datetime': '2021-05-16T12:17:14.681687', 'gensim': '4.0.1', 'python': '3.9.4 (default, Apr 20 2021, 15:51:38) \n[GCC 10.2.0]', 'platform': 'Linux-5.11.16-arch1-1-x86_64-with-glibc2.33', 'event': 'created'}
2021-05-16 12:17:14,697 : DEBUG : Setting topics to those of the model: LdaModel(num_terms=6685, num_topics=40, decay=0.5, chunksize=2000)
2021-05-16 12:17:14,703 : INFO : using ParallelWordOccurrenceAccumulator(processes=3, batch_size=64) to estimate probabilities from sliding windows
2021-05-16 12:17:14,730 : INFO : 1 batches submitted to accumulate stats from 64 documents (3461 virtual)
2021-05-16 12:17:14,736 : INFO : 2 batches submitted to accumulate stats from 128 documents (6339 virtual)
2021-05-16 12:17:14,745 : INFO : 3 batches submitted to accumulate stats from 192 documents (19461 virtual)
2021-05-16 12:17:14,747 : INFO : 4 batches submitted to accumulate stats from 256 documents (20084 virtual)
2021-05-16 12:17:15,450 : DEBUG : completed batch 0; 64 documents processed (3217 virtual)
2021-05-16 12:17:15,478 : DEBUG : completed batch 0; 64 documents processed (3654 virtual)
2021-05-16 12:17:15,478 : DEBUG : observed sentinel value; terminating
2021-05-16 12:17:15,478 : DEBUG : finished all batches; 64 documents processed (3654 virtual)
2021-05-16 12:17:15,478 : INFO : serializing accumulator to return to master...
2021-05-16 12:17:15,479 : INFO : accumulator serialized
2021-05-16 12:17:15,581 : DEBUG : completed batch 1; 69 documents processed (3874 virtual)
2021-05-16 12:17:15,581 : DEBUG : observed sentinel value; terminating
2021-05-16 12:17:15,581 : DEBUG : finished all batches; 69 documents processed (3874 virtual)
2021-05-16 12:17:15,581 : INFO : serializing accumulator to return to master...
2021-05-16 12:17:15,582 : INFO : accumulator serialized
2021-05-16 12:17:15,904 : DEBUG : completed batch 0; 64 documents processed (13214 virtual)
2021-05-16 12:17:15,904 : DEBUG : observed sentinel value; terminating
2021-05-16 12:17:15,908 : DEBUG : finished all batches; 64 documents processed (13214 virtual)
2021-05-16 12:17:15,908 : INFO : serializing accumulator to return to master...
2021-05-16 12:17:15,909 : INFO : accumulator serialized
2021-05-16 12:17:16,049 : INFO : 3 accumulators retrieved from output queue
2021-05-16 12:17:16,087 : INFO : accumulated word occurrence stats for 20742 virtual documents
2021-05-16 12:17:17,357 : INFO : COHERENCE: 0.33333405289140944
2021-05-16 12:17:17,476 : INFO : SELFSIMILARITY: 0.07691901458908564
2021-05-16 12:18:02,773 : INFO : MATCH PERCENT: 0.4078680203045686
