2021-05-16 12:13:19,960 : INFO : adding document #0 to Dictionary(0 unique tokens: [])
2021-05-16 12:13:20,001 : INFO : built Dictionary(6685 unique tokens: ['8&9/1977', 'abir', 'aim', 'allocation', 'anomaly']...) from 197 documents (total 41557 corpus positions)
2021-05-16 12:13:20,013 : DEBUG : starting a new internal lifecycle event log for Dictionary
2021-05-16 12:13:20,014 : INFO : Dictionary lifecycle event {'msg': "built Dictionary(6685 unique tokens: ['8&9/1977', 'abir', 'aim', 'allocation', 'anomaly']...) from 197 documents (total 41557 corpus positions)", 'datetime': '2021-05-16T12:13:20.001710', 'gensim': '4.0.1', 'python': '3.9.4 (default, Apr 20 2021, 15:51:38) \n[GCC 10.2.0]', 'platform': 'Linux-5.11.16-arch1-1-x86_64-with-glibc2.33', 'event': 'created'}
2021-05-16 12:13:20,049 : INFO : using symmetric alpha at 0.1
2021-05-16 12:13:20,049 : INFO : using symmetric eta at 0.1
2021-05-16 12:13:20,050 : INFO : using serial LDA version on this node
2021-05-16 12:13:20,056 : INFO : running online (multi-pass) LDA training, 10 topics, 25 passes over the supplied corpus of 197 documents, updating model once every 197 documents, evaluating perplexity every 197 documents, iterating 50x with a convergence threshold of 0.001000
2021-05-16 12:13:20,059 : DEBUG : bound: at document #0
2021-05-16 12:13:20,300 : INFO : -11.210 per-word bound, 2369.0 perplexity estimate based on a held-out corpus of 197 documents with 41557 words
2021-05-16 12:13:20,300 : INFO : PROGRESS: pass 0, at document #197/197
2021-05-16 12:13:20,300 : DEBUG : performing inference on a chunk of 197 documents
2021-05-16 12:13:20,462 : DEBUG : 0/197 documents converged within 50 iterations
2021-05-16 12:13:20,462 : DEBUG : updating topics
2021-05-16 12:13:20,469 : INFO : topic #3 (0.100): 0.005*"species" + 0.005*"biology" + 0.005*"biological" + 0.005*"science" + 0.005*"different" + 0.005*"evolutionary" + 0.004*"scientific" + 0.004*"research" + 0.004*"theory" + 0.004*"new"
2021-05-16 12:13:20,470 : INFO : topic #5 (0.100): 0.006*"research" + 0.005*"species" + 0.005*"biology" + 0.004*"science" + 0.004*"work" + 0.003*"different" + 0.003*"history" + 0.003*"argue" + 0.003*"approach" + 0.003*"study"
2021-05-16 12:13:20,470 : INFO : topic #1 (0.100): 0.005*"research" + 0.005*"biological" + 0.005*"science" + 0.005*"system" + 0.005*"evolutionary" + 0.004*"argue" + 0.004*"scientific" + 0.004*"one" + 0.004*"account" + 0.004*"biology"
2021-05-16 12:13:20,470 : INFO : topic #2 (0.100): 0.005*"use" + 0.005*"science" + 0.005*"genetics" + 0.005*"system" + 0.004*"biological" + 0.004*"research" + 0.004*"species" + 0.004*"individual" + 0.003*"new" + 0.003*"social"
2021-05-16 12:13:20,470 : INFO : topic #7 (0.100): 0.006*"evolutionary" + 0.006*"individual" + 0.005*"species" + 0.005*"science" + 0.004*"selection" + 0.004*"use" + 0.004*"biology" + 0.003*"research" + 0.003*"approach" + 0.003*"theory"
2021-05-16 12:13:20,471 : INFO : topic diff=3.867057, rho=1.000000
2021-05-16 12:13:20,475 : DEBUG : bound: at document #0
2021-05-16 12:13:20,650 : INFO : -8.821 per-word bound, 452.3 perplexity estimate based on a held-out corpus of 197 documents with 41557 words
2021-05-16 12:13:20,650 : INFO : PROGRESS: pass 1, at document #197/197
2021-05-16 12:13:20,650 : DEBUG : performing inference on a chunk of 197 documents
2021-05-16 12:13:20,745 : DEBUG : 113/197 documents converged within 50 iterations
2021-05-16 12:13:20,745 : DEBUG : updating topics
2021-05-16 12:13:20,751 : INFO : topic #5 (0.100): 0.006*"muller" + 0.006*"work" + 0.005*"species" + 0.005*"research" + 0.004*"teleology" + 0.004*"science" + 0.004*"biology" + 0.004*"argue" + 0.003*"new" + 0.003*"genetics"
2021-05-16 12:13:20,752 : INFO : topic #6 (0.100): 0.011*"model" + 0.008*"process" + 0.007*"science" + 0.006*"biology" + 0.005*"use" + 0.005*"social" + 0.005*"approach" + 0.005*"study" + 0.005*"argue" + 0.004*"biological"
2021-05-16 12:13:20,752 : INFO : topic #8 (0.100): 0.008*"research" + 0.007*"genetics" + 0.005*"social" + 0.005*"science" + 0.005*"study" + 0.004*"cancer" + 0.004*"theory" + 0.004*"evolutionary" + 0.004*"concept" + 0.004*"new"
2021-05-16 12:13:20,752 : INFO : topic #0 (0.100): 0.006*"practice" + 0.006*"organism" + 0.005*"biology" + 0.005*"scientific" + 0.005*"science" + 0.005*"use" + 0.005*"account" + 0.005*"research" + 0.004*"development" + 0.004*"biological"
2021-05-16 12:13:20,752 : INFO : topic #7 (0.100): 0.007*"individual" + 0.007*"species" + 0.006*"evolutionary" + 0.005*"cultural" + 0.005*"selection" + 0.005*"biology" + 0.004*"evolution" + 0.004*"use" + 0.004*"science" + 0.004*"level"
2021-05-16 12:13:20,753 : INFO : topic diff=1.232067, rho=0.577350
2021-05-16 12:13:20,758 : DEBUG : bound: at document #0
2021-05-16 12:13:20,891 : INFO : -8.376 per-word bound, 332.2 perplexity estimate based on a held-out corpus of 197 documents with 41557 words
2021-05-16 12:13:20,891 : INFO : PROGRESS: pass 2, at document #197/197
2021-05-16 12:13:20,891 : DEBUG : performing inference on a chunk of 197 documents
2021-05-16 12:13:20,957 : DEBUG : 171/197 documents converged within 50 iterations
2021-05-16 12:13:20,957 : DEBUG : updating topics
2021-05-16 12:13:20,963 : INFO : topic #8 (0.100): 0.008*"research" + 0.007*"genetics" + 0.005*"cancer" + 0.005*"social" + 0.005*"study" + 0.005*"science" + 0.004*"theory" + 0.004*"enzyme" + 0.004*"bias" + 0.004*"mutation"
2021-05-16 12:13:20,964 : INFO : topic #9 (0.100): 0.009*"research" + 0.008*"evolutionary" + 0.005*"biology" + 0.005*"theory" + 0.005*"altruism" + 0.005*"use" + 0.005*"aim" + 0.004*"phenomenon" + 0.004*"data" + 0.004*"activity"
2021-05-16 12:13:20,966 : INFO : topic #0 (0.100): 0.006*"practice" + 0.006*"organism" + 0.006*"science" + 0.005*"biology" + 0.005*"scientific" + 0.005*"use" + 0.005*"account" + 0.005*"development" + 0.005*"research" + 0.005*"theory"
2021-05-16 12:13:20,966 : INFO : topic #5 (0.100): 0.008*"muller" + 0.007*"work" + 0.005*"species" + 0.005*"vavilov" + 0.004*"research" + 0.004*"genetics" + 0.004*"teleology" + 0.004*"science" + 0.004*"argue" + 0.004*"new"
2021-05-16 12:13:20,966 : INFO : topic #7 (0.100): 0.008*"individual" + 0.007*"species" + 0.006*"cultural" + 0.005*"evolutionary" + 0.005*"selection" + 0.005*"biology" + 0.005*"evolution" + 0.004*"level" + 0.004*"use" + 0.004*"death"
2021-05-16 12:13:20,967 : INFO : topic diff=0.850823, rho=0.500000
2021-05-16 12:13:20,971 : DEBUG : bound: at document #0
2021-05-16 12:13:21,093 : INFO : -8.207 per-word bound, 295.5 perplexity estimate based on a held-out corpus of 197 documents with 41557 words
2021-05-16 12:13:21,093 : INFO : PROGRESS: pass 3, at document #197/197
2021-05-16 12:13:21,093 : DEBUG : performing inference on a chunk of 197 documents
2021-05-16 12:13:21,153 : DEBUG : 193/197 documents converged within 50 iterations
2021-05-16 12:13:21,153 : DEBUG : updating topics
2021-05-16 12:13:21,158 : INFO : topic #5 (0.100): 0.009*"muller" + 0.007*"work" + 0.005*"vavilov" + 0.005*"genetics" + 0.005*"species" + 0.004*"teleology" + 0.004*"research" + 0.004*"science" + 0.004*"argue" + 0.004*"russian"
2021-05-16 12:13:21,158 : INFO : topic #9 (0.100): 0.009*"research" + 0.008*"evolutionary" + 0.005*"theory" + 0.005*"altruism" + 0.005*"biology" + 0.005*"phenomenon" + 0.005*"use" + 0.005*"aim" + 0.005*"data" + 0.005*"homology"
2021-05-16 12:13:21,158 : INFO : topic #0 (0.100): 0.006*"practice" + 0.006*"science" + 0.006*"organism" + 0.005*"scientific" + 0.005*"biology" + 0.005*"use" + 0.005*"account" + 0.005*"development" + 0.005*"theory" + 0.005*"research"
2021-05-16 12:13:21,159 : INFO : topic #4 (0.100): 0.009*"darwin" + 0.007*"zoo" + 0.006*"information" + 0.006*"research" + 0.006*"paper" + 0.005*"first" + 0.005*"knowledge" + 0.005*"scientific" + 0.004*"animal" + 0.004*"science"
2021-05-16 12:13:21,159 : INFO : topic #3 (0.100): 0.007*"biology" + 0.007*"biological" + 0.007*"evolutionary" + 0.006*"knowledge" + 0.006*"argue" + 0.005*"species" + 0.005*"different" + 0.005*"science" + 0.004*"study" + 0.004*"question"
2021-05-16 12:13:21,159 : INFO : topic diff=0.583036, rho=0.447214
2021-05-16 12:13:21,163 : DEBUG : bound: at document #0
2021-05-16 12:13:21,313 : INFO : -8.132 per-word bound, 280.5 perplexity estimate based on a held-out corpus of 197 documents with 41557 words
2021-05-16 12:13:21,313 : INFO : PROGRESS: pass 4, at document #197/197
2021-05-16 12:13:21,313 : DEBUG : performing inference on a chunk of 197 documents
2021-05-16 12:13:21,406 : DEBUG : 191/197 documents converged within 50 iterations
2021-05-16 12:13:21,406 : DEBUG : updating topics
2021-05-16 12:13:21,411 : INFO : topic #2 (0.100): 0.009*"science" + 0.006*"argument" + 0.006*"use" + 0.005*"genetics" + 0.005*"system" + 0.005*"species" + 0.004*"biodiversity" + 0.004*"study" + 0.004*"social" + 0.004*"brazil"
2021-05-16 12:13:21,411 : INFO : topic #7 (0.100): 0.008*"individual" + 0.008*"species" + 0.007*"cultural" + 0.006*"biology" + 0.005*"selection" + 0.005*"evolutionary" + 0.005*"evolution" + 0.005*"death" + 0.004*"free" + 0.004*"level"
2021-05-16 12:13:21,411 : INFO : topic #8 (0.100): 0.008*"research" + 0.008*"genetics" + 0.006*"cancer" + 0.005*"social" + 0.005*"study" + 0.005*"enzyme" + 0.005*"science" + 0.004*"mutation" + 0.004*"bias" + 0.004*"theory"
2021-05-16 12:13:21,412 : INFO : topic #3 (0.100): 0.007*"evolutionary" + 0.007*"biological" + 0.007*"biology" + 0.006*"knowledge" + 0.006*"argue" + 0.005*"species" + 0.005*"different" + 0.004*"science" + 0.004*"question" + 0.004*"study"
2021-05-16 12:13:21,413 : INFO : topic #9 (0.100): 0.009*"research" + 0.009*"evolutionary" + 0.006*"altruism" + 0.006*"theory" + 0.005*"homology" + 0.005*"biology" + 0.005*"phenomenon" + 0.005*"use" + 0.005*"data" + 0.005*"aim"
2021-05-16 12:13:21,415 : INFO : topic diff=0.400108, rho=0.408248
2021-05-16 12:13:21,420 : DEBUG : bound: at document #0
2021-05-16 12:13:21,557 : INFO : -8.096 per-word bound, 273.6 perplexity estimate based on a held-out corpus of 197 documents with 41557 words
2021-05-16 12:13:21,557 : INFO : PROGRESS: pass 5, at document #197/197
2021-05-16 12:13:21,557 : DEBUG : performing inference on a chunk of 197 documents
2021-05-16 12:13:21,620 : DEBUG : 191/197 documents converged within 50 iterations
2021-05-16 12:13:21,620 : DEBUG : updating topics
2021-05-16 12:13:21,625 : INFO : topic #8 (0.100): 0.008*"research" + 0.008*"genetics" + 0.007*"cancer" + 0.006*"social" + 0.005*"study" + 0.005*"enzyme" + 0.005*"science" + 0.005*"mutation" + 0.004*"bias" + 0.004*"student"
2021-05-16 12:13:21,625 : INFO : topic #7 (0.100): 0.008*"individual" + 0.008*"species" + 0.007*"cultural" + 0.006*"biology" + 0.005*"selection" + 0.005*"evolutionary" + 0.005*"evolution" + 0.005*"death" + 0.004*"free" + 0.004*"level"
2021-05-16 12:13:21,626 : INFO : topic #2 (0.100): 0.009*"science" + 0.007*"argument" + 0.006*"use" + 0.005*"genetics" + 0.005*"system" + 0.005*"species" + 0.004*"biodiversity" + 0.004*"study" + 0.004*"brazil" + 0.004*"social"
2021-05-16 12:13:21,626 : INFO : topic #6 (0.100): 0.012*"model" + 0.010*"process" + 0.007*"science" + 0.007*"approach" + 0.007*"use" + 0.006*"social" + 0.005*"biology" + 0.005*"study" + 0.004*"biological" + 0.004*"practice"
2021-05-16 12:13:21,626 : INFO : topic #1 (0.100): 0.007*"evolutionary" + 0.007*"boundary" + 0.007*"research" + 0.007*"system" + 0.006*"environment" + 0.005*"different" + 0.005*"role" + 0.005*"scientific" + 0.005*"life" + 0.004*"biological"
2021-05-16 12:13:21,626 : INFO : topic diff=0.276999, rho=0.377964
2021-05-16 12:13:21,631 : DEBUG : bound: at document #0
2021-05-16 12:13:21,756 : INFO : -8.076 per-word bound, 269.9 perplexity estimate based on a held-out corpus of 197 documents with 41557 words
2021-05-16 12:13:21,756 : INFO : PROGRESS: pass 6, at document #197/197
2021-05-16 12:13:21,756 : DEBUG : performing inference on a chunk of 197 documents
2021-05-16 12:13:21,813 : DEBUG : 191/197 documents converged within 50 iterations
2021-05-16 12:13:21,813 : DEBUG : updating topics
2021-05-16 12:13:21,818 : INFO : topic #0 (0.100): 0.006*"practice" + 0.006*"science" + 0.005*"scientific" + 0.005*"biology" + 0.005*"organism" + 0.005*"development" + 0.005*"theory" + 0.005*"use" + 0.005*"account" + 0.005*"research"
2021-05-16 12:13:21,819 : INFO : topic #6 (0.100): 0.012*"model" + 0.010*"process" + 0.007*"science" + 0.007*"approach" + 0.007*"use" + 0.006*"social" + 0.005*"biology" + 0.005*"study" + 0.004*"biological" + 0.004*"practice"
2021-05-16 12:13:21,819 : INFO : topic #2 (0.100): 0.009*"science" + 0.007*"argument" + 0.006*"use" + 0.005*"system" + 0.005*"genetics" + 0.005*"species" + 0.004*"biodiversity" + 0.004*"study" + 0.004*"brazil" + 0.004*"social"
2021-05-16 12:13:21,819 : INFO : topic #3 (0.100): 0.008*"evolutionary" + 0.008*"biological" + 0.008*"biology" + 0.006*"knowledge" + 0.006*"argue" + 0.005*"species" + 0.005*"different" + 0.005*"question" + 0.005*"selection" + 0.004*"study"
2021-05-16 12:13:21,819 : INFO : topic #9 (0.100): 0.009*"research" + 0.009*"evolutionary" + 0.006*"altruism" + 0.006*"theory" + 0.006*"homology" + 0.005*"phenomenon" + 0.005*"data" + 0.005*"biology" + 0.005*"use" + 0.005*"aim"
2021-05-16 12:13:21,820 : INFO : topic diff=0.193245, rho=0.353553
2021-05-16 12:13:21,823 : DEBUG : bound: at document #0
2021-05-16 12:13:21,941 : INFO : -8.066 per-word bound, 267.9 perplexity estimate based on a held-out corpus of 197 documents with 41557 words
2021-05-16 12:13:21,941 : INFO : PROGRESS: pass 7, at document #197/197
2021-05-16 12:13:21,941 : DEBUG : performing inference on a chunk of 197 documents
2021-05-16 12:13:21,999 : DEBUG : 192/197 documents converged within 50 iterations
2021-05-16 12:13:21,999 : DEBUG : updating topics
2021-05-16 12:13:22,004 : INFO : topic #3 (0.100): 0.008*"evolutionary" + 0.008*"biological" + 0.008*"biology" + 0.006*"knowledge" + 0.006*"argue" + 0.005*"species" + 0.005*"different" + 0.005*"selection" + 0.005*"question" + 0.004*"study"
2021-05-16 12:13:22,005 : INFO : topic #4 (0.100): 0.009*"darwin" + 0.007*"zoo" + 0.007*"research" + 0.007*"paper" + 0.006*"information" + 0.005*"first" + 0.005*"knowledge" + 0.004*"animal" + 0.004*"scientific" + 0.004*"science"
2021-05-16 12:13:22,005 : INFO : topic #6 (0.100): 0.012*"model" + 0.010*"process" + 0.007*"science" + 0.007*"approach" + 0.007*"use" + 0.006*"social" + 0.005*"biology" + 0.005*"study" + 0.004*"biological" + 0.004*"practice"
2021-05-16 12:13:22,005 : INFO : topic #1 (0.100): 0.007*"evolutionary" + 0.007*"boundary" + 0.007*"system" + 0.007*"research" + 0.007*"environment" + 0.005*"different" + 0.005*"role" + 0.005*"life" + 0.005*"scientific" + 0.004*"biological"
2021-05-16 12:13:22,005 : INFO : topic #2 (0.100): 0.009*"science" + 0.007*"argument" + 0.006*"use" + 0.005*"system" + 0.005*"genetics" + 0.005*"species" + 0.004*"biodiversity" + 0.004*"study" + 0.004*"social" + 0.004*"brazil"
2021-05-16 12:13:22,005 : INFO : topic diff=0.136081, rho=0.333333
2021-05-16 12:13:22,009 : DEBUG : bound: at document #0
2021-05-16 12:13:22,130 : INFO : -8.059 per-word bound, 266.7 perplexity estimate based on a held-out corpus of 197 documents with 41557 words
2021-05-16 12:13:22,130 : INFO : PROGRESS: pass 8, at document #197/197
2021-05-16 12:13:22,130 : DEBUG : performing inference on a chunk of 197 documents
2021-05-16 12:13:22,196 : DEBUG : 190/197 documents converged within 50 iterations
2021-05-16 12:13:22,196 : DEBUG : updating topics
2021-05-16 12:13:22,201 : INFO : topic #7 (0.100): 0.009*"individual" + 0.008*"species" + 0.007*"cultural" + 0.006*"biology" + 0.005*"selection" + 0.005*"evolutionary" + 0.005*"death" + 0.005*"evolution" + 0.005*"free" + 0.004*"level"
2021-05-16 12:13:22,201 : INFO : topic #3 (0.100): 0.008*"evolutionary" + 0.008*"biological" + 0.008*"biology" + 0.006*"knowledge" + 0.006*"argue" + 0.005*"species" + 0.005*"different" + 0.005*"selection" + 0.005*"question" + 0.004*"study"
2021-05-16 12:13:22,201 : INFO : topic #8 (0.100): 0.008*"research" + 0.008*"genetics" + 0.007*"cancer" + 0.006*"social" + 0.005*"study" + 0.005*"enzyme" + 0.005*"mutation" + 0.005*"bias" + 0.004*"science" + 0.004*"student"
2021-05-16 12:13:22,202 : INFO : topic #5 (0.100): 0.011*"muller" + 0.007*"work" + 0.007*"vavilov" + 0.005*"genetics" + 0.005*"teleology" + 0.004*"species" + 0.004*"russian" + 0.004*"science" + 0.004*"research" + 0.004*"new"
2021-05-16 12:13:22,202 : INFO : topic #1 (0.100): 0.007*"evolutionary" + 0.007*"boundary" + 0.007*"system" + 0.007*"research" + 0.007*"environment" + 0.005*"different" + 0.005*"role" + 0.005*"life" + 0.005*"scientific" + 0.004*"biological"
2021-05-16 12:13:22,202 : INFO : topic diff=0.097030, rho=0.316228
2021-05-16 12:13:22,205 : DEBUG : bound: at document #0
2021-05-16 12:13:22,332 : INFO : -8.055 per-word bound, 266.0 perplexity estimate based on a held-out corpus of 197 documents with 41557 words
2021-05-16 12:13:22,332 : INFO : PROGRESS: pass 9, at document #197/197
2021-05-16 12:13:22,333 : DEBUG : performing inference on a chunk of 197 documents
2021-05-16 12:13:22,408 : DEBUG : 193/197 documents converged within 50 iterations
2021-05-16 12:13:22,409 : DEBUG : updating topics
2021-05-16 12:13:22,415 : INFO : topic #3 (0.100): 0.008*"evolutionary" + 0.008*"biological" + 0.008*"biology" + 0.006*"knowledge" + 0.006*"argue" + 0.005*"species" + 0.005*"different" + 0.005*"selection" + 0.005*"question" + 0.004*"study"
2021-05-16 12:13:22,416 : INFO : topic #1 (0.100): 0.007*"evolutionary" + 0.007*"boundary" + 0.007*"system" + 0.007*"research" + 0.007*"environment" + 0.005*"different" + 0.005*"role" + 0.005*"life" + 0.005*"scientific" + 0.004*"biological"
2021-05-16 12:13:22,417 : INFO : topic #4 (0.100): 0.009*"darwin" + 0.007*"zoo" + 0.007*"research" + 0.007*"paper" + 0.006*"information" + 0.005*"first" + 0.005*"knowledge" + 0.004*"animal" + 0.004*"scientific" + 0.004*"species"
2021-05-16 12:13:22,418 : INFO : topic #5 (0.100): 0.011*"muller" + 0.007*"work" + 0.007*"vavilov" + 0.005*"genetics" + 0.005*"teleology" + 0.004*"species" + 0.004*"russian" + 0.004*"science" + 0.004*"research" + 0.004*"new"
2021-05-16 12:13:22,418 : INFO : topic #6 (0.100): 0.012*"model" + 0.010*"process" + 0.007*"science" + 0.007*"approach" + 0.007*"use" + 0.006*"social" + 0.005*"biology" + 0.005*"study" + 0.004*"biological" + 0.004*"practice"
2021-05-16 12:13:22,418 : INFO : topic diff=0.070077, rho=0.301511
2021-05-16 12:13:22,422 : DEBUG : bound: at document #0
2021-05-16 12:13:22,549 : INFO : -8.052 per-word bound, 265.5 perplexity estimate based on a held-out corpus of 197 documents with 41557 words
2021-05-16 12:13:22,549 : INFO : PROGRESS: pass 10, at document #197/197
2021-05-16 12:13:22,549 : DEBUG : performing inference on a chunk of 197 documents
2021-05-16 12:13:22,611 : DEBUG : 194/197 documents converged within 50 iterations
2021-05-16 12:13:22,611 : DEBUG : updating topics
2021-05-16 12:13:22,618 : INFO : topic #8 (0.100): 0.008*"research" + 0.008*"genetics" + 0.007*"cancer" + 0.005*"social" + 0.005*"study" + 0.005*"enzyme" + 0.005*"mutation" + 0.005*"bias" + 0.004*"science" + 0.004*"student"
2021-05-16 12:13:22,618 : INFO : topic #5 (0.100): 0.011*"muller" + 0.007*"work" + 0.007*"vavilov" + 0.005*"genetics" + 0.005*"teleology" + 0.004*"species" + 0.004*"russian" + 0.004*"science" + 0.004*"research" + 0.004*"new"
2021-05-16 12:13:22,618 : INFO : topic #2 (0.100): 0.009*"science" + 0.007*"argument" + 0.006*"use" + 0.005*"system" + 0.005*"species" + 0.005*"genetics" + 0.005*"biodiversity" + 0.004*"study" + 0.004*"scientific" + 0.004*"social"
2021-05-16 12:13:22,618 : INFO : topic #7 (0.100): 0.009*"individual" + 0.008*"species" + 0.007*"cultural" + 0.006*"biology" + 0.005*"selection" + 0.005*"death" + 0.005*"evolutionary" + 0.005*"evolution" + 0.005*"free" + 0.004*"level"
2021-05-16 12:13:22,619 : INFO : topic #0 (0.100): 0.006*"practice" + 0.006*"science" + 0.005*"scientific" + 0.005*"biology" + 0.005*"development" + 0.005*"theory" + 0.005*"organism" + 0.005*"account" + 0.005*"use" + 0.005*"research"
2021-05-16 12:13:22,619 : INFO : topic diff=0.051300, rho=0.288675
2021-05-16 12:13:22,624 : DEBUG : bound: at document #0
2021-05-16 12:13:22,740 : INFO : -8.050 per-word bound, 265.1 perplexity estimate based on a held-out corpus of 197 documents with 41557 words
2021-05-16 12:13:22,740 : INFO : PROGRESS: pass 11, at document #197/197
2021-05-16 12:13:22,740 : DEBUG : performing inference on a chunk of 197 documents
2021-05-16 12:13:22,797 : DEBUG : 196/197 documents converged within 50 iterations
2021-05-16 12:13:22,798 : DEBUG : updating topics
2021-05-16 12:13:22,803 : INFO : topic #4 (0.100): 0.009*"darwin" + 0.007*"zoo" + 0.007*"research" + 0.007*"paper" + 0.006*"information" + 0.005*"first" + 0.005*"knowledge" + 0.004*"animal" + 0.004*"scientific" + 0.004*"species"
2021-05-16 12:13:22,804 : INFO : topic #1 (0.100): 0.007*"evolutionary" + 0.007*"boundary" + 0.007*"system" + 0.007*"environment" + 0.007*"research" + 0.005*"different" + 0.005*"role" + 0.005*"scientific" + 0.005*"life" + 0.004*"biological"
2021-05-16 12:13:22,804 : INFO : topic #5 (0.100): 0.011*"muller" + 0.007*"work" + 0.007*"vavilov" + 0.006*"genetics" + 0.005*"teleology" + 0.004*"russian" + 0.004*"species" + 0.004*"science" + 0.004*"research" + 0.004*"new"
2021-05-16 12:13:22,804 : INFO : topic #2 (0.100): 0.009*"science" + 0.007*"argument" + 0.006*"use" + 0.005*"system" + 0.005*"species" + 0.005*"genetics" + 0.005*"biodiversity" + 0.004*"study" + 0.004*"scientific" + 0.004*"social"
2021-05-16 12:13:22,804 : INFO : topic #8 (0.100): 0.008*"research" + 0.008*"genetics" + 0.007*"cancer" + 0.005*"social" + 0.005*"study" + 0.005*"enzyme" + 0.005*"mutation" + 0.005*"bias" + 0.004*"science" + 0.004*"student"
2021-05-16 12:13:22,805 : INFO : topic diff=0.038107, rho=0.277350
2021-05-16 12:13:22,808 : DEBUG : bound: at document #0
2021-05-16 12:13:22,930 : INFO : -8.049 per-word bound, 264.8 perplexity estimate based on a held-out corpus of 197 documents with 41557 words
2021-05-16 12:13:22,930 : INFO : PROGRESS: pass 12, at document #197/197
2021-05-16 12:13:22,930 : DEBUG : performing inference on a chunk of 197 documents
2021-05-16 12:13:22,990 : DEBUG : 196/197 documents converged within 50 iterations
2021-05-16 12:13:22,990 : DEBUG : updating topics
2021-05-16 12:13:22,996 : INFO : topic #9 (0.100): 0.009*"research" + 0.009*"evolutionary" + 0.006*"homology" + 0.006*"altruism" + 0.006*"theory" + 0.005*"phenomenon" + 0.005*"data" + 0.005*"biology" + 0.005*"use" + 0.005*"aim"
2021-05-16 12:13:22,998 : INFO : topic #2 (0.100): 0.009*"science" + 0.007*"argument" + 0.006*"use" + 0.006*"system" + 0.005*"species" + 0.005*"genetics" + 0.005*"biodiversity" + 0.004*"study" + 0.004*"scientific" + 0.004*"social"
2021-05-16 12:13:22,999 : INFO : topic #5 (0.100): 0.011*"muller" + 0.007*"work" + 0.007*"vavilov" + 0.006*"genetics" + 0.005*"teleology" + 0.004*"russian" + 0.004*"species" + 0.004*"science" + 0.004*"research" + 0.004*"new"
2021-05-16 12:13:23,000 : INFO : topic #8 (0.100): 0.008*"research" + 0.008*"genetics" + 0.007*"cancer" + 0.005*"study" + 0.005*"social" + 0.005*"enzyme" + 0.005*"mutation" + 0.005*"bias" + 0.004*"science" + 0.004*"student"
2021-05-16 12:13:23,000 : INFO : topic #3 (0.100): 0.008*"evolutionary" + 0.008*"biological" + 0.008*"biology" + 0.006*"knowledge" + 0.006*"argue" + 0.005*"species" + 0.005*"different" + 0.005*"selection" + 0.005*"question" + 0.004*"study"
2021-05-16 12:13:23,000 : INFO : topic diff=0.028724, rho=0.267261
2021-05-16 12:13:23,004 : DEBUG : bound: at document #0
2021-05-16 12:13:23,139 : INFO : -8.048 per-word bound, 264.6 perplexity estimate based on a held-out corpus of 197 documents with 41557 words
2021-05-16 12:13:23,139 : INFO : PROGRESS: pass 13, at document #197/197
2021-05-16 12:13:23,139 : DEBUG : performing inference on a chunk of 197 documents
2021-05-16 12:13:23,202 : DEBUG : 197/197 documents converged within 50 iterations
2021-05-16 12:13:23,203 : DEBUG : updating topics
2021-05-16 12:13:23,208 : INFO : topic #0 (0.100): 0.006*"practice" + 0.006*"science" + 0.005*"scientific" + 0.005*"biology" + 0.005*"development" + 0.005*"theory" + 0.005*"organism" + 0.005*"account" + 0.005*"use" + 0.005*"research"
2021-05-16 12:13:23,208 : INFO : topic #4 (0.100): 0.009*"darwin" + 0.007*"zoo" + 0.007*"research" + 0.007*"paper" + 0.006*"information" + 0.005*"first" + 0.005*"knowledge" + 0.004*"animal" + 0.004*"scientific" + 0.004*"species"
2021-05-16 12:13:23,208 : INFO : topic #7 (0.100): 0.009*"individual" + 0.008*"species" + 0.007*"cultural" + 0.006*"biology" + 0.005*"selection" + 0.005*"death" + 0.005*"evolutionary" + 0.005*"evolution" + 0.005*"free" + 0.004*"process"
2021-05-16 12:13:23,208 : INFO : topic #5 (0.100): 0.011*"muller" + 0.007*"work" + 0.007*"vavilov" + 0.006*"genetics" + 0.005*"teleology" + 0.004*"russian" + 0.004*"species" + 0.004*"science" + 0.004*"research" + 0.004*"new"
2021-05-16 12:13:23,209 : INFO : topic #9 (0.100): 0.009*"research" + 0.009*"evolutionary" + 0.006*"homology" + 0.006*"altruism" + 0.006*"theory" + 0.005*"phenomenon" + 0.005*"data" + 0.005*"biology" + 0.005*"use" + 0.005*"aim"
2021-05-16 12:13:23,209 : INFO : topic diff=0.021968, rho=0.258199
2021-05-16 12:13:23,215 : DEBUG : bound: at document #0
2021-05-16 12:13:23,359 : INFO : -8.047 per-word bound, 264.5 perplexity estimate based on a held-out corpus of 197 documents with 41557 words
2021-05-16 12:13:23,359 : INFO : PROGRESS: pass 14, at document #197/197
2021-05-16 12:13:23,359 : DEBUG : performing inference on a chunk of 197 documents
2021-05-16 12:13:23,422 : DEBUG : 197/197 documents converged within 50 iterations
2021-05-16 12:13:23,423 : DEBUG : updating topics
2021-05-16 12:13:23,428 : INFO : topic #3 (0.100): 0.008*"evolutionary" + 0.008*"biological" + 0.008*"biology" + 0.006*"knowledge" + 0.006*"argue" + 0.005*"species" + 0.005*"different" + 0.005*"selection" + 0.005*"question" + 0.004*"study"
2021-05-16 12:13:23,430 : INFO : topic #8 (0.100): 0.008*"research" + 0.008*"genetics" + 0.007*"cancer" + 0.005*"study" + 0.005*"social" + 0.005*"enzyme" + 0.005*"mutation" + 0.005*"bias" + 0.004*"science" + 0.004*"student"
2021-05-16 12:13:23,431 : INFO : topic #7 (0.100): 0.009*"individual" + 0.008*"species" + 0.007*"cultural" + 0.006*"biology" + 0.005*"selection" + 0.005*"death" + 0.005*"evolutionary" + 0.005*"evolution" + 0.005*"free" + 0.004*"process"
2021-05-16 12:13:23,432 : INFO : topic #6 (0.100): 0.012*"model" + 0.010*"process" + 0.008*"science" + 0.007*"approach" + 0.007*"use" + 0.006*"social" + 0.005*"biology" + 0.005*"study" + 0.004*"biological" + 0.004*"practice"
2021-05-16 12:13:23,432 : INFO : topic #1 (0.100): 0.007*"evolutionary" + 0.007*"boundary" + 0.007*"system" + 0.007*"environment" + 0.007*"research" + 0.005*"different" + 0.005*"role" + 0.005*"scientific" + 0.005*"life" + 0.005*"organism"
2021-05-16 12:13:23,432 : INFO : topic diff=0.017040, rho=0.250000
2021-05-16 12:13:23,438 : DEBUG : bound: at document #0
2021-05-16 12:13:23,599 : INFO : -8.046 per-word bound, 264.3 perplexity estimate based on a held-out corpus of 197 documents with 41557 words
2021-05-16 12:13:23,599 : INFO : PROGRESS: pass 15, at document #197/197
2021-05-16 12:13:23,599 : DEBUG : performing inference on a chunk of 197 documents
2021-05-16 12:13:23,677 : DEBUG : 196/197 documents converged within 50 iterations
2021-05-16 12:13:23,678 : DEBUG : updating topics
2021-05-16 12:13:23,683 : INFO : topic #3 (0.100): 0.008*"evolutionary" + 0.008*"biological" + 0.008*"biology" + 0.006*"knowledge" + 0.006*"argue" + 0.005*"species" + 0.005*"different" + 0.005*"selection" + 0.005*"question" + 0.004*"study"
2021-05-16 12:13:23,685 : INFO : topic #2 (0.100): 0.009*"science" + 0.007*"argument" + 0.006*"use" + 0.006*"system" + 0.005*"species" + 0.005*"genetics" + 0.005*"biodiversity" + 0.004*"study" + 0.004*"scientific" + 0.004*"social"
2021-05-16 12:13:23,686 : INFO : topic #7 (0.100): 0.009*"individual" + 0.008*"species" + 0.007*"cultural" + 0.006*"biology" + 0.005*"selection" + 0.005*"death" + 0.005*"evolutionary" + 0.005*"evolution" + 0.005*"free" + 0.004*"process"
2021-05-16 12:13:23,686 : INFO : topic #4 (0.100): 0.009*"darwin" + 0.007*"zoo" + 0.007*"research" + 0.007*"paper" + 0.006*"information" + 0.005*"first" + 0.005*"knowledge" + 0.004*"animal" + 0.004*"scientific" + 0.004*"species"
2021-05-16 12:13:23,686 : INFO : topic #9 (0.100): 0.009*"research" + 0.009*"evolutionary" + 0.006*"homology" + 0.006*"altruism" + 0.006*"theory" + 0.005*"phenomenon" + 0.005*"data" + 0.005*"biology" + 0.005*"use" + 0.005*"aim"
2021-05-16 12:13:23,686 : INFO : topic diff=0.013402, rho=0.242536
2021-05-16 12:13:23,690 : DEBUG : bound: at document #0
2021-05-16 12:13:23,809 : INFO : -8.046 per-word bound, 264.2 perplexity estimate based on a held-out corpus of 197 documents with 41557 words
2021-05-16 12:13:23,809 : INFO : PROGRESS: pass 16, at document #197/197
2021-05-16 12:13:23,809 : DEBUG : performing inference on a chunk of 197 documents
2021-05-16 12:13:23,871 : DEBUG : 196/197 documents converged within 50 iterations
2021-05-16 12:13:23,871 : DEBUG : updating topics
2021-05-16 12:13:23,876 : INFO : topic #5 (0.100): 0.011*"muller" + 0.007*"work" + 0.007*"vavilov" + 0.006*"genetics" + 0.005*"teleology" + 0.004*"russian" + 0.004*"science" + 0.004*"species" + 0.004*"research" + 0.004*"new"
2021-05-16 12:13:23,876 : INFO : topic #3 (0.100): 0.008*"evolutionary" + 0.008*"biological" + 0.008*"biology" + 0.006*"knowledge" + 0.006*"argue" + 0.005*"species" + 0.005*"different" + 0.005*"selection" + 0.005*"question" + 0.004*"study"
2021-05-16 12:13:23,876 : INFO : topic #8 (0.100): 0.008*"research" + 0.008*"genetics" + 0.007*"cancer" + 0.005*"study" + 0.005*"social" + 0.005*"enzyme" + 0.005*"mutation" + 0.005*"bias" + 0.004*"science" + 0.004*"student"
2021-05-16 12:13:23,876 : INFO : topic #0 (0.100): 0.006*"practice" + 0.006*"science" + 0.005*"scientific" + 0.005*"biology" + 0.005*"development" + 0.005*"theory" + 0.005*"account" + 0.005*"organism" + 0.005*"use" + 0.005*"research"
2021-05-16 12:13:23,876 : INFO : topic #6 (0.100): 0.012*"model" + 0.010*"process" + 0.008*"science" + 0.007*"approach" + 0.007*"use" + 0.006*"social" + 0.005*"biology" + 0.005*"study" + 0.004*"biological" + 0.004*"practice"
2021-05-16 12:13:23,877 : INFO : topic diff=0.010683, rho=0.235702
2021-05-16 12:13:23,880 : DEBUG : bound: at document #0
2021-05-16 12:13:24,010 : INFO : -8.045 per-word bound, 264.1 perplexity estimate based on a held-out corpus of 197 documents with 41557 words
2021-05-16 12:13:24,010 : INFO : PROGRESS: pass 17, at document #197/197
2021-05-16 12:13:24,010 : DEBUG : performing inference on a chunk of 197 documents
2021-05-16 12:13:24,083 : DEBUG : 196/197 documents converged within 50 iterations
2021-05-16 12:13:24,084 : DEBUG : updating topics
2021-05-16 12:13:24,090 : INFO : topic #9 (0.100): 0.009*"research" + 0.009*"evolutionary" + 0.006*"homology" + 0.006*"altruism" + 0.006*"theory" + 0.005*"phenomenon" + 0.005*"data" + 0.005*"biology" + 0.005*"use" + 0.005*"aim"
2021-05-16 12:13:24,090 : INFO : topic #4 (0.100): 0.009*"darwin" + 0.007*"zoo" + 0.007*"research" + 0.007*"paper" + 0.006*"information" + 0.005*"first" + 0.005*"knowledge" + 0.004*"animal" + 0.004*"scientific" + 0.004*"species"
2021-05-16 12:13:24,090 : INFO : topic #1 (0.100): 0.007*"evolutionary" + 0.007*"boundary" + 0.007*"system" + 0.007*"environment" + 0.007*"research" + 0.005*"different" + 0.005*"role" + 0.005*"scientific" + 0.005*"life" + 0.005*"individual"
2021-05-16 12:13:24,091 : INFO : topic #7 (0.100): 0.009*"individual" + 0.008*"species" + 0.007*"cultural" + 0.006*"biology" + 0.005*"death" + 0.005*"selection" + 0.005*"evolutionary" + 0.005*"evolution" + 0.005*"free" + 0.004*"process"
2021-05-16 12:13:24,091 : INFO : topic #6 (0.100): 0.012*"model" + 0.010*"process" + 0.008*"science" + 0.007*"approach" + 0.007*"use" + 0.006*"social" + 0.005*"biology" + 0.005*"study" + 0.004*"biological" + 0.004*"practice"
2021-05-16 12:13:24,091 : INFO : topic diff=0.008627, rho=0.229416
2021-05-16 12:13:24,095 : DEBUG : bound: at document #0
2021-05-16 12:13:24,251 : INFO : -8.045 per-word bound, 264.1 perplexity estimate based on a held-out corpus of 197 documents with 41557 words
2021-05-16 12:13:24,252 : INFO : PROGRESS: pass 18, at document #197/197
2021-05-16 12:13:24,252 : DEBUG : performing inference on a chunk of 197 documents
2021-05-16 12:13:24,329 : DEBUG : 196/197 documents converged within 50 iterations
2021-05-16 12:13:24,330 : DEBUG : updating topics
2021-05-16 12:13:24,337 : INFO : topic #5 (0.100): 0.011*"muller" + 0.007*"work" + 0.007*"vavilov" + 0.006*"genetics" + 0.005*"teleology" + 0.004*"russian" + 0.004*"science" + 0.004*"species" + 0.004*"research" + 0.004*"new"
2021-05-16 12:13:24,337 : INFO : topic #1 (0.100): 0.007*"evolutionary" + 0.007*"boundary" + 0.007*"system" + 0.007*"environment" + 0.007*"research" + 0.005*"different" + 0.005*"role" + 0.005*"scientific" + 0.005*"life" + 0.005*"individual"
2021-05-16 12:13:24,338 : INFO : topic #4 (0.100): 0.009*"darwin" + 0.007*"zoo" + 0.007*"research" + 0.007*"paper" + 0.006*"information" + 0.005*"first" + 0.005*"knowledge" + 0.004*"animal" + 0.004*"scientific" + 0.004*"species"
2021-05-16 12:13:24,338 : INFO : topic #7 (0.100): 0.009*"individual" + 0.008*"species" + 0.007*"cultural" + 0.006*"biology" + 0.005*"death" + 0.005*"selection" + 0.005*"evolutionary" + 0.005*"evolution" + 0.005*"free" + 0.005*"process"
2021-05-16 12:13:24,339 : INFO : topic #8 (0.100): 0.008*"research" + 0.008*"genetics" + 0.007*"cancer" + 0.005*"study" + 0.005*"enzyme" + 0.005*"social" + 0.005*"mutation" + 0.005*"bias" + 0.004*"science" + 0.004*"student"
2021-05-16 12:13:24,340 : INFO : topic diff=0.007054, rho=0.223607
2021-05-16 12:13:24,348 : DEBUG : bound: at document #0
2021-05-16 12:13:24,490 : INFO : -8.044 per-word bound, 264.0 perplexity estimate based on a held-out corpus of 197 documents with 41557 words
2021-05-16 12:13:24,490 : INFO : PROGRESS: pass 19, at document #197/197
2021-05-16 12:13:24,490 : DEBUG : performing inference on a chunk of 197 documents
2021-05-16 12:13:24,569 : DEBUG : 196/197 documents converged within 50 iterations
2021-05-16 12:13:24,569 : DEBUG : updating topics
2021-05-16 12:13:24,575 : INFO : topic #2 (0.100): 0.009*"science" + 0.008*"argument" + 0.006*"use" + 0.006*"system" + 0.005*"species" + 0.005*"genetics" + 0.005*"biodiversity" + 0.004*"study" + 0.004*"scientific" + 0.004*"social"
2021-05-16 12:13:24,575 : INFO : topic #1 (0.100): 0.007*"evolutionary" + 0.007*"boundary" + 0.007*"system" + 0.007*"environment" + 0.007*"research" + 0.005*"different" + 0.005*"role" + 0.005*"scientific" + 0.005*"life" + 0.005*"individual"
2021-05-16 12:13:24,575 : INFO : topic #5 (0.100): 0.011*"muller" + 0.007*"work" + 0.007*"vavilov" + 0.006*"genetics" + 0.005*"teleology" + 0.005*"russian" + 0.004*"science" + 0.004*"species" + 0.004*"research" + 0.004*"new"
2021-05-16 12:13:24,575 : INFO : topic #3 (0.100): 0.008*"evolutionary" + 0.008*"biological" + 0.008*"biology" + 0.006*"knowledge" + 0.006*"argue" + 0.005*"species" + 0.005*"different" + 0.005*"selection" + 0.005*"question" + 0.004*"study"
2021-05-16 12:13:24,575 : INFO : topic #0 (0.100): 0.006*"practice" + 0.006*"science" + 0.005*"scientific" + 0.005*"biology" + 0.005*"development" + 0.005*"theory" + 0.005*"account" + 0.005*"organism" + 0.005*"use" + 0.005*"research"
2021-05-16 12:13:24,576 : INFO : topic diff=0.005838, rho=0.218218
2021-05-16 12:13:24,579 : DEBUG : bound: at document #0
2021-05-16 12:13:24,734 : INFO : -8.044 per-word bound, 263.9 perplexity estimate based on a held-out corpus of 197 documents with 41557 words
2021-05-16 12:13:24,735 : INFO : PROGRESS: pass 20, at document #197/197
2021-05-16 12:13:24,735 : DEBUG : performing inference on a chunk of 197 documents
2021-05-16 12:13:24,804 : DEBUG : 196/197 documents converged within 50 iterations
2021-05-16 12:13:24,805 : DEBUG : updating topics
2021-05-16 12:13:24,809 : INFO : topic #3 (0.100): 0.008*"evolutionary" + 0.008*"biological" + 0.008*"biology" + 0.006*"knowledge" + 0.006*"argue" + 0.005*"species" + 0.005*"different" + 0.005*"selection" + 0.005*"question" + 0.004*"study"
2021-05-16 12:13:24,810 : INFO : topic #1 (0.100): 0.007*"evolutionary" + 0.007*"boundary" + 0.007*"system" + 0.007*"environment" + 0.007*"research" + 0.005*"different" + 0.005*"role" + 0.005*"scientific" + 0.005*"individual" + 0.005*"life"
2021-05-16 12:13:24,810 : INFO : topic #5 (0.100): 0.011*"muller" + 0.007*"work" + 0.007*"vavilov" + 0.006*"genetics" + 0.005*"teleology" + 0.005*"russian" + 0.004*"science" + 0.004*"species" + 0.004*"research" + 0.004*"new"
2021-05-16 12:13:24,810 : INFO : topic #7 (0.100): 0.009*"individual" + 0.008*"species" + 0.007*"cultural" + 0.006*"biology" + 0.005*"death" + 0.005*"selection" + 0.005*"evolutionary" + 0.005*"evolution" + 0.005*"free" + 0.005*"process"
2021-05-16 12:13:24,810 : INFO : topic #9 (0.100): 0.009*"research" + 0.009*"evolutionary" + 0.006*"homology" + 0.006*"altruism" + 0.006*"theory" + 0.005*"phenomenon" + 0.005*"data" + 0.005*"biology" + 0.005*"use" + 0.005*"aim"
2021-05-16 12:13:24,810 : INFO : topic diff=0.004890, rho=0.213201
2021-05-16 12:13:24,814 : DEBUG : bound: at document #0
2021-05-16 12:13:24,958 : INFO : -8.044 per-word bound, 263.9 perplexity estimate based on a held-out corpus of 197 documents with 41557 words
2021-05-16 12:13:24,959 : INFO : PROGRESS: pass 21, at document #197/197
2021-05-16 12:13:24,962 : DEBUG : performing inference on a chunk of 197 documents
2021-05-16 12:13:25,041 : DEBUG : 196/197 documents converged within 50 iterations
2021-05-16 12:13:25,041 : DEBUG : updating topics
2021-05-16 12:13:25,046 : INFO : topic #6 (0.100): 0.012*"model" + 0.010*"process" + 0.008*"science" + 0.007*"approach" + 0.007*"use" + 0.006*"social" + 0.005*"biology" + 0.005*"study" + 0.004*"biological" + 0.004*"practice"
2021-05-16 12:13:25,046 : INFO : topic #4 (0.100): 0.009*"darwin" + 0.007*"zoo" + 0.007*"research" + 0.007*"paper" + 0.006*"information" + 0.005*"first" + 0.005*"knowledge" + 0.004*"animal" + 0.004*"scientific" + 0.004*"species"
2021-05-16 12:13:25,047 : INFO : topic #9 (0.100): 0.009*"research" + 0.009*"evolutionary" + 0.006*"homology" + 0.006*"altruism" + 0.006*"theory" + 0.005*"phenomenon" + 0.005*"data" + 0.005*"biology" + 0.005*"use" + 0.005*"aim"
2021-05-16 12:13:25,047 : INFO : topic #8 (0.100): 0.008*"research" + 0.008*"genetics" + 0.007*"cancer" + 0.005*"study" + 0.005*"enzyme" + 0.005*"mutation" + 0.005*"social" + 0.005*"bias" + 0.004*"science" + 0.004*"student"
2021-05-16 12:13:25,047 : INFO : topic #1 (0.100): 0.007*"evolutionary" + 0.007*"boundary" + 0.007*"system" + 0.007*"environment" + 0.007*"research" + 0.005*"different" + 0.005*"role" + 0.005*"scientific" + 0.005*"individual" + 0.005*"life"
2021-05-16 12:13:25,047 : INFO : topic diff=0.004141, rho=0.208514
2021-05-16 12:13:25,053 : DEBUG : bound: at document #0
2021-05-16 12:13:25,205 : INFO : -8.043 per-word bound, 263.8 perplexity estimate based on a held-out corpus of 197 documents with 41557 words
2021-05-16 12:13:25,206 : INFO : PROGRESS: pass 22, at document #197/197
2021-05-16 12:13:25,206 : DEBUG : performing inference on a chunk of 197 documents
2021-05-16 12:13:25,272 : DEBUG : 197/197 documents converged within 50 iterations
2021-05-16 12:13:25,272 : DEBUG : updating topics
2021-05-16 12:13:25,277 : INFO : topic #2 (0.100): 0.009*"science" + 0.008*"argument" + 0.006*"use" + 0.006*"system" + 0.006*"species" + 0.005*"genetics" + 0.005*"biodiversity" + 0.004*"study" + 0.004*"scientific" + 0.004*"social"
2021-05-16 12:13:25,277 : INFO : topic #8 (0.100): 0.008*"research" + 0.008*"genetics" + 0.007*"cancer" + 0.005*"study" + 0.005*"enzyme" + 0.005*"mutation" + 0.005*"social" + 0.005*"bias" + 0.004*"science" + 0.004*"student"
2021-05-16 12:13:25,277 : INFO : topic #4 (0.100): 0.009*"darwin" + 0.007*"zoo" + 0.007*"research" + 0.007*"paper" + 0.006*"information" + 0.005*"first" + 0.005*"knowledge" + 0.004*"animal" + 0.004*"scientific" + 0.004*"species"
2021-05-16 12:13:25,278 : INFO : topic #3 (0.100): 0.008*"evolutionary" + 0.008*"biological" + 0.008*"biology" + 0.006*"knowledge" + 0.006*"argue" + 0.005*"species" + 0.005*"different" + 0.005*"selection" + 0.005*"question" + 0.004*"study"
2021-05-16 12:13:25,278 : INFO : topic #9 (0.100): 0.009*"research" + 0.009*"evolutionary" + 0.006*"homology" + 0.006*"altruism" + 0.006*"theory" + 0.005*"phenomenon" + 0.005*"data" + 0.005*"biology" + 0.005*"use" + 0.005*"aim"
2021-05-16 12:13:25,278 : INFO : topic diff=0.003542, rho=0.204124
2021-05-16 12:13:25,283 : DEBUG : bound: at document #0
2021-05-16 12:13:25,439 : INFO : -8.043 per-word bound, 263.8 perplexity estimate based on a held-out corpus of 197 documents with 41557 words
2021-05-16 12:13:25,439 : INFO : PROGRESS: pass 23, at document #197/197
2021-05-16 12:13:25,439 : DEBUG : performing inference on a chunk of 197 documents
2021-05-16 12:13:25,513 : DEBUG : 197/197 documents converged within 50 iterations
2021-05-16 12:13:25,514 : DEBUG : updating topics
2021-05-16 12:13:25,520 : INFO : topic #6 (0.100): 0.012*"model" + 0.010*"process" + 0.008*"science" + 0.007*"approach" + 0.007*"use" + 0.006*"social" + 0.005*"biology" + 0.005*"study" + 0.004*"biological" + 0.004*"practice"
2021-05-16 12:13:25,520 : INFO : topic #9 (0.100): 0.009*"research" + 0.009*"evolutionary" + 0.006*"homology" + 0.006*"altruism" + 0.006*"theory" + 0.005*"phenomenon" + 0.005*"data" + 0.005*"biology" + 0.005*"use" + 0.005*"aim"
2021-05-16 12:13:25,520 : INFO : topic #8 (0.100): 0.008*"research" + 0.008*"genetics" + 0.007*"cancer" + 0.005*"study" + 0.005*"enzyme" + 0.005*"mutation" + 0.005*"social" + 0.005*"bias" + 0.004*"science" + 0.004*"student"
2021-05-16 12:13:25,521 : INFO : topic #4 (0.100): 0.009*"darwin" + 0.007*"zoo" + 0.007*"research" + 0.007*"paper" + 0.006*"information" + 0.005*"first" + 0.005*"knowledge" + 0.004*"animal" + 0.004*"scientific" + 0.004*"species"
2021-05-16 12:13:25,521 : INFO : topic #7 (0.100): 0.009*"individual" + 0.008*"species" + 0.007*"cultural" + 0.006*"biology" + 0.005*"death" + 0.005*"selection" + 0.005*"evolutionary" + 0.005*"evolution" + 0.005*"free" + 0.005*"process"
2021-05-16 12:13:25,521 : INFO : topic diff=0.003060, rho=0.200000
2021-05-16 12:13:25,527 : DEBUG : bound: at document #0
2021-05-16 12:13:25,669 : INFO : -8.043 per-word bound, 263.7 perplexity estimate based on a held-out corpus of 197 documents with 41557 words
2021-05-16 12:13:25,669 : INFO : PROGRESS: pass 24, at document #197/197
2021-05-16 12:13:25,669 : DEBUG : performing inference on a chunk of 197 documents
2021-05-16 12:13:25,725 : DEBUG : 197/197 documents converged within 50 iterations
2021-05-16 12:13:25,725 : DEBUG : updating topics
2021-05-16 12:13:25,730 : INFO : topic #4 (0.100): 0.009*"darwin" + 0.007*"zoo" + 0.007*"research" + 0.007*"paper" + 0.006*"information" + 0.005*"first" + 0.005*"knowledge" + 0.004*"animal" + 0.004*"scientific" + 0.004*"species"
2021-05-16 12:13:25,730 : INFO : topic #3 (0.100): 0.008*"evolutionary" + 0.008*"biological" + 0.008*"biology" + 0.006*"knowledge" + 0.006*"argue" + 0.005*"species" + 0.005*"different" + 0.005*"selection" + 0.005*"question" + 0.004*"study"
2021-05-16 12:13:25,730 : INFO : topic #1 (0.100): 0.007*"evolutionary" + 0.007*"boundary" + 0.007*"system" + 0.007*"environment" + 0.007*"research" + 0.005*"different" + 0.005*"role" + 0.005*"individual" + 0.005*"scientific" + 0.005*"life"
2021-05-16 12:13:25,730 : INFO : topic #5 (0.100): 0.011*"muller" + 0.007*"work" + 0.007*"vavilov" + 0.006*"genetics" + 0.005*"teleology" + 0.005*"russian" + 0.004*"science" + 0.004*"species" + 0.004*"research" + 0.004*"new"
2021-05-16 12:13:25,731 : INFO : topic #2 (0.100): 0.009*"science" + 0.008*"argument" + 0.006*"use" + 0.006*"system" + 0.006*"species" + 0.005*"biodiversity" + 0.005*"genetics" + 0.004*"study" + 0.004*"scientific" + 0.004*"social"
2021-05-16 12:13:25,731 : INFO : topic diff=0.002666, rho=0.196116
2021-05-16 12:13:25,731 : DEBUG : starting a new internal lifecycle event log for LdaModel
2021-05-16 12:13:25,731 : INFO : LdaModel lifecycle event {'msg': 'trained LdaModel(num_terms=6685, num_topics=10, decay=0.5, chunksize=2000) in 5.68s', 'datetime': '2021-05-16T12:13:25.731452', 'gensim': '4.0.1', 'python': '3.9.4 (default, Apr 20 2021, 15:51:38) \n[GCC 10.2.0]', 'platform': 'Linux-5.11.16-arch1-1-x86_64-with-glibc2.33', 'event': 'created'}
2021-05-16 12:13:25,734 : DEBUG : Setting topics to those of the model: LdaModel(num_terms=6685, num_topics=10, decay=0.5, chunksize=2000)
2021-05-16 12:13:25,735 : INFO : using ParallelWordOccurrenceAccumulator(processes=3, batch_size=64) to estimate probabilities from sliding windows
2021-05-16 12:13:25,758 : INFO : 1 batches submitted to accumulate stats from 64 documents (3461 virtual)
2021-05-16 12:13:25,764 : INFO : 2 batches submitted to accumulate stats from 128 documents (6339 virtual)
2021-05-16 12:13:25,769 : INFO : 3 batches submitted to accumulate stats from 192 documents (19461 virtual)
2021-05-16 12:13:25,770 : INFO : 4 batches submitted to accumulate stats from 256 documents (20084 virtual)
2021-05-16 12:13:25,919 : DEBUG : completed batch 0; 64 documents processed (3217 virtual)
2021-05-16 12:13:25,944 : DEBUG : completed batch 1; 69 documents processed (3874 virtual)
2021-05-16 12:13:25,944 : DEBUG : observed sentinel value; terminating
2021-05-16 12:13:25,944 : DEBUG : finished all batches; 69 documents processed (3874 virtual)
2021-05-16 12:13:25,944 : INFO : serializing accumulator to return to master...
2021-05-16 12:13:25,944 : INFO : accumulator serialized
2021-05-16 12:13:25,970 : DEBUG : completed batch 0; 64 documents processed (3654 virtual)
2021-05-16 12:13:25,970 : DEBUG : observed sentinel value; terminating
2021-05-16 12:13:25,970 : DEBUG : finished all batches; 64 documents processed (3654 virtual)
2021-05-16 12:13:25,970 : INFO : serializing accumulator to return to master...
2021-05-16 12:13:25,971 : INFO : accumulator serialized
2021-05-16 12:13:26,196 : DEBUG : completed batch 0; 64 documents processed (13214 virtual)
2021-05-16 12:13:26,196 : DEBUG : observed sentinel value; terminating
2021-05-16 12:13:26,196 : DEBUG : finished all batches; 64 documents processed (13214 virtual)
2021-05-16 12:13:26,196 : INFO : serializing accumulator to return to master...
2021-05-16 12:13:26,197 : INFO : accumulator serialized
2021-05-16 12:13:26,221 : INFO : 3 accumulators retrieved from output queue
2021-05-16 12:13:26,229 : INFO : accumulated word occurrence stats for 20742 virtual documents
2021-05-16 12:13:26,523 : INFO : COHERENCE: 0.3002796031011314
2021-05-16 12:13:26,532 : INFO : SELFSIMILARITY: 0.0981081081003699
2021-05-16 12:13:41,692 : INFO : MATCH PERCENT: 0.41379018612521157
