2021-05-15 14:48:48,882 : INFO : adding document #0 to Dictionary(0 unique tokens: [])
2021-05-15 14:48:48,885 : INFO : built Dictionary(960 unique tokens: ['agential', 'construction', 'niche', 'discovery', 'epistemic']...) from 233 documents (total 3130 corpus positions)
2021-05-15 14:48:48,893 : DEBUG : starting a new internal lifecycle event log for Dictionary
2021-05-15 14:48:48,894 : INFO : Dictionary lifecycle event {'msg': "built Dictionary(960 unique tokens: ['agential', 'construction', 'niche', 'discovery', 'epistemic']...) from 233 documents (total 3130 corpus positions)", 'datetime': '2021-05-15T14:48:48.885578', 'gensim': '4.0.1', 'python': '3.9.4 (default, Apr 20 2021, 15:51:38) \n[GCC 10.2.0]', 'platform': 'Linux-5.11.16-arch1-1-x86_64-with-glibc2.33', 'event': 'created'}
2021-05-15 14:48:48,895 : INFO : using autotuned alpha, starting with [0.0057142857, 0.0057142857, 0.0057142857, 0.0057142857, 0.0057142857, 0.0057142857, 0.0057142857, 0.0057142857, 0.0057142857, 0.0057142857, 0.0057142857, 0.0057142857, 0.0057142857, 0.0057142857, 0.0057142857, 0.0057142857, 0.0057142857, 0.0057142857, 0.0057142857, 0.0057142857, 0.0057142857, 0.0057142857, 0.0057142857, 0.0057142857, 0.0057142857, 0.0057142857, 0.0057142857, 0.0057142857, 0.0057142857, 0.0057142857, 0.0057142857, 0.0057142857, 0.0057142857, 0.0057142857, 0.0057142857, 0.0057142857, 0.0057142857, 0.0057142857, 0.0057142857, 0.0057142857, 0.0057142857, 0.0057142857, 0.0057142857, 0.0057142857, 0.0057142857, 0.0057142857, 0.0057142857, 0.0057142857, 0.0057142857, 0.0057142857, 0.0057142857, 0.0057142857, 0.0057142857, 0.0057142857, 0.0057142857, 0.0057142857, 0.0057142857, 0.0057142857, 0.0057142857, 0.0057142857, 0.0057142857, 0.0057142857, 0.0057142857, 0.0057142857, 0.0057142857, 0.0057142857, 0.0057142857, 0.0057142857, 0.0057142857, 0.0057142857, 0.0057142857, 0.0057142857, 0.0057142857, 0.0057142857, 0.0057142857, 0.0057142857, 0.0057142857, 0.0057142857, 0.0057142857, 0.0057142857, 0.0057142857, 0.0057142857, 0.0057142857, 0.0057142857, 0.0057142857, 0.0057142857, 0.0057142857, 0.0057142857, 0.0057142857, 0.0057142857, 0.0057142857, 0.0057142857, 0.0057142857, 0.0057142857, 0.0057142857, 0.0057142857, 0.0057142857, 0.0057142857, 0.0057142857, 0.0057142857, 0.0057142857, 0.0057142857, 0.0057142857, 0.0057142857, 0.0057142857, 0.0057142857, 0.0057142857, 0.0057142857, 0.0057142857, 0.0057142857, 0.0057142857, 0.0057142857, 0.0057142857, 0.0057142857, 0.0057142857, 0.0057142857, 0.0057142857, 0.0057142857, 0.0057142857, 0.0057142857, 0.0057142857, 0.0057142857, 0.0057142857, 0.0057142857, 0.0057142857, 0.0057142857, 0.0057142857, 0.0057142857, 0.0057142857, 0.0057142857, 0.0057142857, 0.0057142857, 0.0057142857, 0.0057142857, 0.0057142857, 0.0057142857, 0.0057142857, 0.0057142857, 0.0057142857, 0.0057142857, 0.0057142857, 0.0057142857, 0.0057142857, 0.0057142857, 0.0057142857, 0.0057142857, 0.0057142857, 0.0057142857, 0.0057142857, 0.0057142857, 0.0057142857, 0.0057142857, 0.0057142857, 0.0057142857, 0.0057142857, 0.0057142857, 0.0057142857, 0.0057142857, 0.0057142857, 0.0057142857, 0.0057142857, 0.0057142857, 0.0057142857, 0.0057142857, 0.0057142857, 0.0057142857, 0.0057142857, 0.0057142857, 0.0057142857, 0.0057142857, 0.0057142857, 0.0057142857, 0.0057142857, 0.0057142857, 0.0057142857]
2021-05-15 14:48:48,896 : INFO : using serial LDA version on this node
2021-05-15 14:48:48,909 : INFO : running online (multi-pass) LDA training, 175 topics, 10 passes over the supplied corpus of 233 documents, updating model once every 233 documents, evaluating perplexity every 233 documents, iterating 50x with a convergence threshold of 0.001000
2021-05-15 14:48:48,915 : DEBUG : bound: at document #0
2021-05-15 14:48:49,008 : INFO : -230.020 per-word bound, 1749759610331381739223459349131919533929089611272151660626870865494016.0 perplexity estimate based on a held-out corpus of 233 documents with 3130 words
2021-05-15 14:48:49,008 : INFO : PROGRESS: pass 0, at document #233/233
2021-05-15 14:48:49,008 : DEBUG : performing inference on a chunk of 233 documents
2021-05-15 14:48:49,083 : DEBUG : 224/233 documents converged within 50 iterations
2021-05-15 14:48:49,086 : INFO : optimized alpha [0.0056395535, 0.0056645214, 0.0056395615, 0.005664558, 0.0057141413, 0.005688954, 0.005664473, 0.0056645987, 0.0056645987, 0.00566442, 0.0057145325, 0.0056395535, 0.005714408, 0.0056895777, 0.0057390546, 0.0056645577, 0.0056395535, 0.005664522, 0.0056395535, 0.005664541, 0.0056645703, 0.0056894617, 0.005664558, 0.005664472, 0.0056646103, 0.0056395535, 0.00566446, 0.005664483, 0.0056645414, 0.005664522, 0.005664344, 0.0056643556, 0.0056395535, 0.0056395535, 0.005664587, 0.0056894864, 0.005689509, 0.005639561, 0.005689533, 0.0056645214, 0.0056894966, 0.0056395535, 0.0056395535, 0.0056395535, 0.0056395535, 0.005664473, 0.0056395535, 0.005664304, 0.0056395535, 0.0056395535, 0.005689561, 0.0056395675, 0.0056395535, 0.0056895744, 0.0056645735, 0.005664574, 0.0056395535, 0.005689509, 0.0056395535, 0.0056395535, 0.0056395535, 0.0057394058, 0.005689468, 0.0056395535, 0.0056644175, 0.0056395535, 0.0056646406, 0.0056645214, 0.0056395535, 0.005689458, 0.005664348, 0.005689526, 0.0056646313, 0.0056395535, 0.0056395535, 0.005689468, 0.0057144705, 0.0057394733, 0.005664558, 0.0056890673, 0.0056644995, 0.005648843, 0.005664451, 0.005714636, 0.0056645633, 0.0056395535, 0.005664359, 0.005689492, 0.0056646103, 0.0056395535, 0.00568949, 0.0056644995, 0.005639558, 0.005639555, 0.0056644995, 0.00563957, 0.005639581, 0.0056395535, 0.005714465, 0.0056645414, 0.0056895283, 0.0056645996, 0.0056395535, 0.0056646043, 0.0056395535, 0.005664558, 0.005689561, 0.0056645577, 0.0056895777, 0.005714371, 0.0057145576, 0.0056395535, 0.005689292, 0.005639554, 0.00563957, 0.0057142484, 0.0056645586, 0.0056395535, 0.0056395535, 0.005689561, 0.0056395535, 0.0056395535, 0.005714334, 0.0056395535, 0.0056395535, 0.0056644683, 0.0056395535, 0.005664541, 0.0056395535, 0.005689146, 0.005689509, 0.0056395535, 0.0056395535, 0.0056395535, 0.005664499, 0.0056895735, 0.0056395535, 0.0056395535, 0.0056645414, 0.005689047, 0.0056395535, 0.005664522, 0.0056643244, 0.0056395535, 0.005689504, 0.0056894454, 0.0056395535, 0.005689475, 0.0056395535, 0.0056895036, 0.0057239314, 0.0056395647, 0.0056645414, 0.005689519, 0.005664522, 0.0056645214, 0.005664541, 0.005664558, 0.0056644813, 0.0056395535, 0.0056395535, 0.0056395535, 0.005664522, 0.0057393946, 0.0056395535, 0.005689296, 0.0056645176, 0.005714252, 0.0056894408, 0.0056395535, 0.0056395535, 0.005664552, 0.0056644995, 0.0056395535, 0.0056644995]
2021-05-15 14:48:49,086 : DEBUG : updating topics
2021-05-15 14:48:49,099 : INFO : topic #41 (0.006): 0.001*"failure" + 0.001*"crispr" + 0.001*"policy" + 0.001*"key" + 0.001*"ineffective" + 0.001*"guideline" + 0.001*"partial" + 0.001*"embryo" + 0.001*"1803–1854" + 0.001*"newport"
2021-05-15 14:48:49,099 : INFO : topic #32 (0.006): 0.001*"failure" + 0.001*"crispr" + 0.001*"policy" + 0.001*"key" + 0.001*"ineffective" + 0.001*"guideline" + 0.001*"partial" + 0.001*"embryo" + 0.001*"1803–1854" + 0.001*"newport"
2021-05-15 14:48:49,099 : INFO : topic #10 (0.006): 0.036*"experiment" + 0.036*"vindicate" + 0.036*"committee" + 0.036*"source" + 0.036*"ethical" + 0.036*"cui" + 0.036*"metaethical" + 0.036*"variation" + 0.036*"cause" + 0.036*"chance"
2021-05-15 14:48:49,099 : INFO : topic #163 (0.006): 0.066*"biology" + 0.066*"biosocial" + 0.044*"cultural" + 0.033*"research" + 0.033*"negative" + 0.033*"fiction" + 0.033*"role" + 0.033*"error" + 0.033*"epistemic" + 0.033*"interest"
2021-05-15 14:48:49,099 : INFO : topic #14 (0.006): 0.080*"biological" + 0.055*"evolutionary" + 0.054*"new" + 0.046*"animal" + 0.046*"philosophy" + 0.046*"agency" + 0.046*"natural" + 0.046*"moral" + 0.046*"kind" + 0.046*"humans"
2021-05-15 14:48:49,100 : INFO : topic diff=169.434875, rho=1.000000
2021-05-15 14:48:49,114 : DEBUG : bound: at document #0
2021-05-15 14:48:49,165 : INFO : -21.290 per-word bound, 2564401.6 perplexity estimate based on a held-out corpus of 233 documents with 3130 words
2021-05-15 14:48:49,165 : INFO : PROGRESS: pass 1, at document #233/233
2021-05-15 14:48:49,165 : DEBUG : performing inference on a chunk of 233 documents
2021-05-15 14:48:49,196 : DEBUG : 233/233 documents converged within 50 iterations
2021-05-15 14:48:49,199 : INFO : optimized alpha [0.005585896, 0.005624676, 0.005585906, 0.005652963, 0.005730606, 0.0056343554, 0.005638716, 0.005638911, 0.0056247967, 0.0056245946, 0.005731207, 0.005585896, 0.005745251, 0.005692176, 0.0057267463, 0.0056388476, 0.005585896, 0.0056246766, 0.005585896, 0.005638819, 0.0056247627, 0.0056777573, 0.005624734, 0.005652804, 0.005624816, 0.005585896, 0.0056103263, 0.0056246384, 0.0056388197, 0.0056529054, 0.0056386045, 0.0056245113, 0.005585896, 0.005585896, 0.0056529487, 0.0056635784, 0.0056777885, 0.0055859056, 0.0056778234, 0.005624676, 0.005691973, 0.005585896, 0.005585896, 0.005585896, 0.005585896, 0.005624601, 0.005585896, 0.005610176, 0.005585896, 0.005585896, 0.0057203914, 0.00558591, 0.005585896, 0.005692068, 0.005653052, 0.005638886, 0.005585896, 0.0057060425, 0.005585896, 0.005585896, 0.005585896, 0.0057703415, 0.0056777224, 0.005585896, 0.0056386734, 0.005585896, 0.0056248615, 0.005652915, 0.005585896, 0.0057062, 0.0056102234, 0.005663638, 0.005638962, 0.005585896, 0.005585896, 0.005677723, 0.0056882584, 0.00575615, 0.0056529627, 0.005663028, 0.005681111, 0.005595008, 0.0056387084, 0.005745683, 0.00562475, 0.005585896, 0.0056527467, 0.005677765, 0.00568134, 0.005585896, 0.005663585, 0.0056387563, 0.0055859, 0.005585897, 0.005652871, 0.005585913, 0.005585924, 0.005585896, 0.005716864, 0.0056388197, 0.0056636413, 0.005638912, 0.005585896, 0.0056248065, 0.005585896, 0.0056530284, 0.0056920457, 0.005624733, 0.005663719, 0.005688129, 0.0057312497, 0.005585896, 0.005677408, 0.0055858963, 0.005585913, 0.005730784, 0.005638849, 0.005585896, 0.005585896, 0.005692112, 0.005585896, 0.005585896, 0.0057022986, 0.005585896, 0.005585896, 0.0056529054, 0.005585896, 0.0056247045, 0.005585896, 0.0056772656, 0.0057061426, 0.005585896, 0.005585896, 0.005585896, 0.0056387563, 0.0056778984, 0.005585896, 0.005585896, 0.0056529427, 0.005677244, 0.005585896, 0.0056246766, 0.0056101955, 0.005585896, 0.0056777806, 0.005691941, 0.005585896, 0.0056492276, 0.005585896, 0.005663624, 0.0057118577, 0.0055859084, 0.005624705, 0.0056919805, 0.0056246766, 0.0056670196, 0.0056247045, 0.005624734, 0.005638721, 0.005585896, 0.005585896, 0.005585896, 0.005723463, 0.0057272776, 0.005585896, 0.00569158, 0.0056246943, 0.00573082, 0.005677683, 0.005585896, 0.005585896, 0.005723551, 0.0056387563, 0.005585896, 0.0056387433]
2021-05-15 14:48:49,199 : DEBUG : updating topics
2021-05-15 14:48:49,211 : INFO : topic #118 (0.006): 0.001*"failure" + 0.001*"crispr" + 0.001*"policy" + 0.001*"key" + 0.001*"ineffective" + 0.001*"guideline" + 0.001*"partial" + 0.001*"embryo" + 0.001*"1803–1854" + 0.001*"newport"
2021-05-15 14:48:49,212 : INFO : topic #121 (0.006): 0.001*"failure" + 0.001*"crispr" + 0.001*"policy" + 0.001*"key" + 0.001*"ineffective" + 0.001*"guideline" + 0.001*"partial" + 0.001*"embryo" + 0.001*"1803–1854" + 0.001*"newport"
2021-05-15 14:48:49,212 : INFO : topic #77 (0.006): 0.057*"biological" + 0.045*"anthropocene" + 0.028*"systemic" + 0.028*"dimension" + 0.028*"clinical" + 0.028*"resistance" + 0.028*"explore" + 0.028*"dog" + 0.028*"epigenetics" + 0.028*"transfer"
2021-05-15 14:48:49,212 : INFO : topic #14 (0.006): 0.081*"agency" + 0.068*"biological" + 0.056*"evolutionary" + 0.055*"new" + 0.052*"animal" + 0.052*"philosophy" + 0.052*"natural" + 0.052*"moral" + 0.052*"kind" + 0.052*"humans"
2021-05-15 14:48:49,212 : INFO : topic #4 (0.006): 0.199*"account" + 0.054*"eliminativist" + 0.053*"physicalist" + 0.053*"representational" + 0.053*"pain" + 0.053*"psychology" + 0.053*"mapping" + 0.053*"implication" + 0.053*"simulation" + 0.053*"vs."
2021-05-15 14:48:49,212 : INFO : topic diff=0.073471, rho=0.577350
2021-05-15 14:48:49,225 : DEBUG : bound: at document #0
2021-05-15 14:48:49,274 : INFO : -21.196 per-word bound, 2402352.2 perplexity estimate based on a held-out corpus of 233 documents with 3130 words
2021-05-15 14:48:49,274 : INFO : PROGRESS: pass 2, at document #233/233
2021-05-15 14:48:49,274 : DEBUG : performing inference on a chunk of 233 documents
2021-05-15 14:48:49,318 : DEBUG : 233/233 documents converged within 50 iterations
2021-05-15 14:48:49,322 : INFO : optimized alpha [0.0055401814, 0.0055906107, 0.0055401907, 0.00563071, 0.0057446384, 0.0055878456, 0.005616594, 0.0056168493, 0.005590767, 0.0055905497, 0.005745423, 0.0055401814, 0.005771722, 0.0056942767, 0.005716078, 0.005616767, 0.0055401814, 0.005590611, 0.0055401814, 0.005628896, 0.005590728, 0.005667609, 0.00559069, 0.00565491, 0.005590792, 0.0055401814, 0.0055642137, 0.0055905744, 0.0056167296, 0.0056550335, 0.0056165, 0.0056025856, 0.0055401814, 0.0055401814, 0.005642908, 0.0056413263, 0.0056676297, 0.0055401903, 0.0056676725, 0.0055906107, 0.005693967, 0.0055401814, 0.0055401814, 0.0055401814, 0.0055401814, 0.0055905147, 0.0055401814, 0.0055640647, 0.0055401814, 0.0055401814, 0.005746918, 0.0055401954, 0.0055401814, 0.005694079, 0.0056430646, 0.0056168176, 0.0055401814, 0.0057078665, 0.0055401814, 0.0055401814, 0.0055401814, 0.005784436, 0.0056675393, 0.0055401814, 0.0056165643, 0.0055401814, 0.0055908547, 0.0056428476, 0.0055401814, 0.0057204743, 0.0055641118, 0.005641404, 0.0056169154, 0.0055401814, 0.0055401814, 0.0056675402, 0.0056657502, 0.0057703634, 0.0056429077, 0.005640665, 0.005683003, 0.005549146, 0.005616599, 0.0057723266, 0.005590711, 0.0055401814, 0.005642716, 0.005667595, 0.0056956024, 0.0055401814, 0.005641334, 0.0056166467, 0.0055401865, 0.005540182, 0.00564268, 0.005540199, 0.0055402094, 0.0055401814, 0.00571879, 0.0056167296, 0.0056414083, 0.005629018, 0.0055401814, 0.0055907825, 0.0055401814, 0.0056430316, 0.0056940494, 0.0055906875, 0.0056415163, 0.005665594, 0.0057454803, 0.0055401814, 0.005667108, 0.0055401814, 0.005540199, 0.0057448773, 0.005616768, 0.0055401814, 0.0055401814, 0.0056941723, 0.0055401814, 0.0055401814, 0.005679561, 0.0055401814, 0.0055401814, 0.0056428807, 0.0055401814, 0.005590648, 0.0055401814, 0.005666968, 0.0057203243, 0.0055401814, 0.0055401814, 0.0055401814, 0.0056166467, 0.005667775, 0.0055401814, 0.0055401814, 0.0056306818, 0.0056670127, 0.0055401814, 0.005590611, 0.005564087, 0.0055401814, 0.0056676166, 0.005693947, 0.0055401814, 0.0056148237, 0.0055401814, 0.0056413966, 0.0057013924, 0.0055401935, 0.0055906484, 0.0056939637, 0.005590611, 0.0056690387, 0.005590648, 0.00559069, 0.005616599, 0.0055401814, 0.0055401814, 0.0055401814, 0.0057621426, 0.005716775, 0.0055401814, 0.005693411, 0.0055906465, 0.0057449383, 0.0056552365, 0.0055401814, 0.0055401814, 0.0057746596, 0.005616673, 0.0055401814, 0.0056166993]
2021-05-15 14:48:49,323 : DEBUG : updating topics
2021-05-15 14:48:49,337 : INFO : topic #18 (0.006): 0.001*"failure" + 0.001*"crispr" + 0.001*"policy" + 0.001*"key" + 0.001*"ineffective" + 0.001*"guideline" + 0.001*"partial" + 0.001*"embryo" + 0.001*"1803–1854" + 0.001*"newport"
2021-05-15 14:48:49,338 : INFO : topic #89 (0.006): 0.001*"failure" + 0.001*"crispr" + 0.001*"policy" + 0.001*"key" + 0.001*"ineffective" + 0.001*"guideline" + 0.001*"partial" + 0.001*"embryo" + 0.001*"1803–1854" + 0.001*"newport"
2021-05-15 14:48:49,338 : INFO : topic #162 (0.006): 0.270*"theory" + 0.116*"analysis" + 0.116*"critical" + 0.116*"effects" + 0.074*"function" + 0.065*"select" + 0.065*"generalize" + 0.000*"key" + 0.000*"review" + 0.000*"policy"
2021-05-15 14:48:49,338 : INFO : topic #12 (0.006): 0.140*"causal" + 0.042*"development" + 0.042*"premise" + 0.042*"program" + 0.042*"moral" + 0.042*"tumor" + 0.042*"belief" + 0.042*"research" + 0.042*"support" + 0.042*"learning"
2021-05-15 14:48:49,338 : INFO : topic #77 (0.006): 0.056*"biological" + 0.050*"anthropocene" + 0.028*"systemic" + 0.028*"dimension" + 0.028*"clinical" + 0.028*"resistance" + 0.028*"explore" + 0.028*"dog" + 0.028*"epigenetics" + 0.028*"transfer"
2021-05-15 14:48:49,338 : INFO : topic diff=0.033888, rho=0.500000
2021-05-15 14:48:49,351 : DEBUG : bound: at document #0
2021-05-15 14:48:49,400 : INFO : -21.151 per-word bound, 2328216.0 perplexity estimate based on a held-out corpus of 233 documents with 3130 words
2021-05-15 14:48:49,400 : INFO : PROGRESS: pass 3, at document #233/233
2021-05-15 14:48:49,401 : DEBUG : performing inference on a chunk of 233 documents
2021-05-15 14:48:49,430 : DEBUG : 233/233 documents converged within 50 iterations
2021-05-15 14:48:49,433 : INFO : optimized alpha [0.0054998663, 0.0055604773, 0.0054998733, 0.00561095, 0.005757011, 0.0055468334, 0.0055969525, 0.005597258, 0.005560666, 0.005560433, 0.0057579633, 0.0054998663, 0.0057952083, 0.005696043, 0.0057065333, 0.005597156, 0.0054998663, 0.0055604773, 0.0054998663, 0.005620012, 0.0055606216, 0.0056585222, 0.005560573, 0.0056676003, 0.0055606957, 0.0054998663, 0.005523551, 0.005560455, 0.005597113, 0.0056568244, 0.0055968687, 0.005583115, 0.0054998663, 0.0054998663, 0.0056448113, 0.0056215697, 0.005658533, 0.0054998733, 0.005658587, 0.0055604773, 0.005695636, 0.0054998663, 0.0054998663, 0.0054998663, 0.0054998663, 0.0055603613, 0.0054998663, 0.005523403, 0.0054998663, 0.0054998663, 0.0057704584, 0.0054998794, 0.0054998663, 0.005695763, 0.005634121, 0.005597223, 0.0054998663, 0.00569841, 0.0054998663, 0.0054998663, 0.0054998663, 0.005785721, 0.005658426, 0.0054998663, 0.0055969344, 0.0054998663, 0.005560769, 0.005633837, 0.0054998663, 0.0057330667, 0.0055234483, 0.0056216605, 0.0055973367, 0.0054998663, 0.0054998663, 0.005658427, 0.005645763, 0.005782902, 0.0056339097, 0.0056208097, 0.0056845834, 0.0055087027, 0.005596968, 0.0057959706, 0.005560601, 0.0054998663, 0.005644593, 0.0056584915, 0.005708188, 0.0054998663, 0.0056215785, 0.005597013, 0.0054998705, 0.005499867, 0.005622766, 0.0054998836, 0.005499895, 0.0054998663, 0.0057204007, 0.005597113, 0.0056216666, 0.0056201583, 0.0054998663, 0.0055606873, 0.0054998663, 0.0056340806, 0.0056957286, 0.0055605713, 0.005621793, 0.0056455843, 0.0057580327, 0.0054998663, 0.005657889, 0.0054998663, 0.0054998836, 0.0057573104, 0.0055971583, 0.0054998663, 0.0054998663, 0.005695903, 0.0054998663, 0.0054998663, 0.0056593725, 0.0054998663, 0.0054998663, 0.0056339046, 0.0054998663, 0.005560524, 0.0054998663, 0.0056577506, 0.005732835, 0.0054998663, 0.0054998663, 0.0054998663, 0.0055970126, 0.0056587122, 0.0054998663, 0.0054998663, 0.005610916, 0.0056578526, 0.0054998663, 0.0055604773, 0.0055234255, 0.0054998663, 0.005658517, 0.005695626, 0.0054998663, 0.005584392, 0.0054998663, 0.005621658, 0.005681024, 0.005499878, 0.005560524, 0.0056956233, 0.0055604773, 0.0056707296, 0.005560524, 0.005560573, 0.0055969562, 0.0054998663, 0.0054998663, 0.0054998663, 0.0057965806, 0.005707376, 0.0054998663, 0.0056949374, 0.005560528, 0.005757392, 0.005635306, 0.0054998663, 0.0054998663, 0.0058202986, 0.005597039, 0.0054998663, 0.0055971183]
2021-05-15 14:48:49,433 : DEBUG : updating topics
2021-05-15 14:48:49,446 : INFO : topic #56 (0.005): 0.001*"failure" + 0.001*"crispr" + 0.001*"policy" + 0.001*"key" + 0.001*"ineffective" + 0.001*"guideline" + 0.001*"partial" + 0.001*"embryo" + 0.001*"1803–1854" + 0.001*"newport"
2021-05-15 14:48:49,447 : INFO : topic #2 (0.005): 0.001*"failure" + 0.001*"crispr" + 0.001*"policy" + 0.001*"key" + 0.001*"ineffective" + 0.001*"guideline" + 0.001*"partial" + 0.001*"embryo" + 0.001*"1803–1854" + 0.001*"newport"
2021-05-15 14:48:49,447 : INFO : topic #77 (0.006): 0.056*"biological" + 0.053*"anthropocene" + 0.028*"systemic" + 0.028*"dimension" + 0.028*"clinical" + 0.028*"resistance" + 0.028*"explore" + 0.028*"dog" + 0.028*"epigenetics" + 0.028*"transfer"
2021-05-15 14:48:49,447 : INFO : topic #171 (0.006): 0.181*"model" + 0.141*"biology" + 0.096*"history" + 0.096*"ecology" + 0.096*"population" + 0.096*"building" + 0.051*"anything" + 0.051*"1960s" + 0.051*"know" + 0.000*"policy"
2021-05-15 14:48:49,447 : INFO : topic #12 (0.006): 0.150*"causal" + 0.041*"development" + 0.041*"premise" + 0.041*"program" + 0.041*"moral" + 0.041*"tumor" + 0.041*"belief" + 0.041*"research" + 0.041*"support" + 0.041*"learning"
2021-05-15 14:48:49,447 : INFO : topic diff=0.023787, rho=0.447214
2021-05-15 14:48:49,460 : DEBUG : bound: at document #0
2021-05-15 14:48:49,511 : INFO : -21.117 per-word bound, 2274272.3 perplexity estimate based on a held-out corpus of 233 documents with 3130 words
2021-05-15 14:48:49,511 : INFO : PROGRESS: pass 4, at document #233/233
2021-05-15 14:48:49,511 : DEBUG : performing inference on a chunk of 233 documents
2021-05-15 14:48:49,541 : DEBUG : 233/233 documents converged within 50 iterations
2021-05-15 14:48:49,543 : INFO : optimized alpha [0.005463524, 0.0055332426, 0.0054635303, 0.00559303, 0.0057681636, 0.005509868, 0.005579135, 0.005579489, 0.005533459, 0.005533213, 0.00576927, 0.005463524, 0.0058164936, 0.005697562, 0.00569782, 0.005579372, 0.005463524, 0.0055332426, 0.005463524, 0.005611897, 0.00553341, 0.0056502237, 0.005533352, 0.005679041, 0.005533493, 0.005463524, 0.005486894, 0.0055332207, 0.005579321, 0.0056583663, 0.0055790627, 0.0055654543, 0.005463524, 0.005463524, 0.005646468, 0.0056036483, 0.005650225, 0.0054635303, 0.0056502866, 0.0055332426, 0.00569707, 0.005463524, 0.005463524, 0.005463524, 0.005463524, 0.005533108, 0.005463524, 0.005486749, 0.005463524, 0.005463524, 0.0057917926, 0.0054635364, 0.005463524, 0.0056972103, 0.00562595, 0.0055794492, 0.005463524, 0.0056897746, 0.005463524, 0.005463524, 0.005463524, 0.005786786, 0.0056501017, 0.005463524, 0.0055791303, 0.005463524, 0.005533577, 0.0056256014, 0.005463524, 0.0057444186, 0.0054867906, 0.005603754, 0.005579578, 0.005463524, 0.005463524, 0.005650102, 0.0056276387, 0.0057942043, 0.0056256913, 0.005602803, 0.0056859357, 0.0054722424, 0.0055791624, 0.0058173984, 0.0055333846, 0.005463524, 0.005646214, 0.005650177, 0.005719541, 0.005463524, 0.0056036585, 0.005579207, 0.0054635275, 0.0054635243, 0.0056047034, 0.0054635406, 0.005463553, 0.005463524, 0.005721779, 0.005579321, 0.0056037623, 0.005612066, 0.005463524, 0.005533485, 0.005463524, 0.005625904, 0.0056971684, 0.00553335, 0.0056039062, 0.005627437, 0.005769349, 0.005463524, 0.0056494707, 0.005463524, 0.0054635406, 0.0057685147, 0.0055793743, 0.005463524, 0.005463524, 0.00569739, 0.005463524, 0.005463524, 0.0056410655, 0.005463524, 0.005463524, 0.005625704, 0.005463524, 0.0055332948, 0.005463524, 0.005649334, 0.005744113, 0.005463524, 0.005463524, 0.005463524, 0.0055792066, 0.0056504337, 0.005463524, 0.005463524, 0.0055929907, 0.0056494875, 0.005463524, 0.0055332426, 0.005486771, 0.005463524, 0.0056502065, 0.005697069, 0.005463524, 0.0055568884, 0.005463524, 0.0056037563, 0.0056625525, 0.005463535, 0.0055332948, 0.0056970487, 0.0055332426, 0.005672186, 0.0055332948, 0.005533352, 0.0055791386, 0.005463524, 0.005463524, 0.005463524, 0.0058278865, 0.005698791, 0.005463524, 0.005696239, 0.005533307, 0.005768619, 0.0056172293, 0.005463524, 0.005463524, 0.0058618905, 0.0055792336, 0.005463524, 0.005579359]
2021-05-15 14:48:49,544 : DEBUG : updating topics
2021-05-15 14:48:49,556 : INFO : topic #97 (0.005): 0.001*"failure" + 0.001*"crispr" + 0.001*"policy" + 0.001*"key" + 0.001*"ineffective" + 0.001*"guideline" + 0.001*"partial" + 0.001*"embryo" + 0.001*"1803–1854" + 0.001*"newport"
2021-05-15 14:48:49,557 : INFO : topic #93 (0.005): 0.001*"failure" + 0.001*"crispr" + 0.001*"policy" + 0.001*"key" + 0.001*"ineffective" + 0.001*"guideline" + 0.001*"partial" + 0.001*"embryo" + 0.001*"1803–1854" + 0.001*"newport"
2021-05-15 14:48:49,558 : INFO : topic #115 (0.006): 0.090*"biology" + 0.090*"explanatory" + 0.090*"novel" + 0.090*"individual" + 0.047*"explanation" + 0.046*"property" + 0.046*"selection" + 0.046*"act" + 0.046*"strategy" + 0.046*"group"
2021-05-15 14:48:49,558 : INFO : topic #162 (0.006): 0.290*"theory" + 0.119*"analysis" + 0.119*"critical" + 0.119*"effects" + 0.064*"function" + 0.062*"select" + 0.062*"generalize" + 0.000*"key" + 0.000*"review" + 0.000*"policy"
2021-05-15 14:48:49,558 : INFO : topic #171 (0.006): 0.186*"model" + 0.143*"biology" + 0.096*"history" + 0.096*"ecology" + 0.096*"population" + 0.096*"building" + 0.050*"anything" + 0.050*"1960s" + 0.050*"know" + 0.000*"policy"
2021-05-15 14:48:49,559 : INFO : topic diff=0.019743, rho=0.408248
2021-05-15 14:48:49,571 : DEBUG : bound: at document #0
2021-05-15 14:48:49,620 : INFO : -21.085 per-word bound, 2225147.3 perplexity estimate based on a held-out corpus of 233 documents with 3130 words
2021-05-15 14:48:49,620 : INFO : PROGRESS: pass 5, at document #233/233
2021-05-15 14:48:49,620 : DEBUG : performing inference on a chunk of 233 documents
2021-05-15 14:48:49,648 : DEBUG : 233/233 documents converged within 50 iterations
2021-05-15 14:48:49,651 : INFO : optimized alpha [0.005430256, 0.0055082547, 0.005430263, 0.0055765435, 0.005778369, 0.0054760347, 0.0055627367, 0.0055631353, 0.005508496, 0.0055082384, 0.005779617, 0.005430256, 0.0058360663, 0.0056988923, 0.005689752, 0.005563003, 0.005430256, 0.0055082547, 0.005430256, 0.0056043793, 0.0055084443, 0.0056425356, 0.0055083744, 0.005689527, 0.005508533, 0.005430256, 0.0054533426, 0.0055082324, 0.005562947, 0.005659718, 0.005562676, 0.005549199, 0.005430256, 0.005430256, 0.005647918, 0.005587155, 0.00564253, 0.005430263, 0.0056426004, 0.0055082547, 0.005698322, 0.005430256, 0.005430256, 0.005430256, 0.005430256, 0.0055081034, 0.005430256, 0.0054532005, 0.005430256, 0.005430256, 0.005811413, 0.0054302695, 0.005430256, 0.0056984727, 0.0056183822, 0.0055630924, 0.005430256, 0.0056817844, 0.005430256, 0.005430256, 0.005430256, 0.0057876958, 0.005642392, 0.005430256, 0.005562748, 0.005430256, 0.0055086263, 0.0056179725, 0.005430256, 0.005754809, 0.0054532406, 0.005587275, 0.0055632354, 0.005430256, 0.005430256, 0.0056423927, 0.005610957, 0.005804545, 0.0056180744, 0.005586233, 0.0056871134, 0.0054388708, 0.0055627744, 0.005837103, 0.005508415, 0.005430256, 0.005647639, 0.0056424746, 0.0057299277, 0.005430256, 0.0055871666, 0.0055628195, 0.0054302607, 0.0054302565, 0.005588081, 0.0054302737, 0.005430285, 0.005430256, 0.005722977, 0.005562947, 0.005587284, 0.005604567, 0.005430256, 0.0055085258, 0.005430256, 0.005618329, 0.005698426, 0.005508373, 0.0055874437, 0.005610739, 0.0057797064, 0.005430256, 0.005641673, 0.005430256, 0.0054302737, 0.005778769, 0.0055630053, 0.005430256, 0.005430256, 0.0056986897, 0.005430256, 0.005430256, 0.0056242254, 0.005430256, 0.005430256, 0.0056181108, 0.005430256, 0.005508315, 0.005430256, 0.0056415373, 0.005754435, 0.005430256, 0.005430256, 0.005430256, 0.0055628195, 0.005642765, 0.005430256, 0.005430256, 0.0055764928, 0.005641739, 0.005430256, 0.0055082547, 0.0054532215, 0.005430256, 0.005642507, 0.005698329, 0.005430256, 0.0055316538, 0.005430256, 0.0055872826, 0.0056455536, 0.0054302677, 0.005508315, 0.005698291, 0.0055082547, 0.005673455, 0.005508315, 0.0055083744, 0.0055627413, 0.005430256, 0.005430256, 0.005430256, 0.005856759, 0.005690841, 0.005430256, 0.00569737, 0.0055083307, 0.005778892, 0.005600594, 0.005430256, 0.005430256, 0.0059003374, 0.005562847, 0.005430256, 0.005563014]
2021-05-15 14:48:49,651 : DEBUG : updating topics
2021-05-15 14:48:49,664 : INFO : topic #63 (0.005): 0.001*"failure" + 0.001*"crispr" + 0.001*"policy" + 0.001*"key" + 0.001*"ineffective" + 0.001*"guideline" + 0.001*"partial" + 0.001*"embryo" + 0.001*"1803–1854" + 0.001*"newport"
2021-05-15 14:48:49,664 : INFO : topic #32 (0.005): 0.001*"failure" + 0.001*"crispr" + 0.001*"policy" + 0.001*"key" + 0.001*"ineffective" + 0.001*"guideline" + 0.001*"partial" + 0.001*"embryo" + 0.001*"1803–1854" + 0.001*"newport"
2021-05-15 14:48:49,664 : INFO : topic #4 (0.006): 0.248*"account" + 0.051*"eliminativist" + 0.051*"physicalist" + 0.051*"representational" + 0.051*"pain" + 0.051*"psychology" + 0.051*"mapping" + 0.051*"implication" + 0.051*"simulation" + 0.051*"vs."
2021-05-15 14:48:49,664 : INFO : topic #162 (0.006): 0.293*"theory" + 0.119*"analysis" + 0.119*"critical" + 0.119*"effects" + 0.063*"function" + 0.061*"select" + 0.061*"generalize" + 0.000*"key" + 0.000*"review" + 0.000*"policy"
2021-05-15 14:48:49,664 : INFO : topic #171 (0.006): 0.189*"model" + 0.144*"biology" + 0.096*"history" + 0.096*"ecology" + 0.096*"population" + 0.096*"building" + 0.049*"anything" + 0.049*"1960s" + 0.049*"know" + 0.000*"policy"
2021-05-15 14:48:49,665 : INFO : topic diff=0.018162, rho=0.377964
2021-05-15 14:48:49,677 : DEBUG : bound: at document #0
2021-05-15 14:48:49,727 : INFO : -21.059 per-word bound, 2184955.3 perplexity estimate based on a held-out corpus of 233 documents with 3130 words
2021-05-15 14:48:49,727 : INFO : PROGRESS: pass 6, at document #233/233
2021-05-15 14:48:49,727 : DEBUG : performing inference on a chunk of 233 documents
2021-05-15 14:48:49,756 : DEBUG : 233/233 documents converged within 50 iterations
2021-05-15 14:48:49,759 : INFO : optimized alpha [0.0053994623, 0.005485075, 0.005399469, 0.0055612, 0.005787811, 0.005444719, 0.005547482, 0.0055479184, 0.005485341, 0.00548507, 0.0057891915, 0.0053994623, 0.0058542574, 0.0057000685, 0.005682204, 0.005547775, 0.0053994623, 0.005485075, 0.0053994623, 0.0055973437, 0.005485283, 0.005635343, 0.005485205, 0.005699222, 0.0054853805, 0.0053994623, 0.0054222876, 0.0054850536, 0.005547714, 0.0056609176, 0.0055474304, 0.0055340766, 0.0053994623, 0.0053994623, 0.0056492076, 0.005571812, 0.00563533, 0.005399469, 0.005635406, 0.005485075, 0.005699428, 0.0053994623, 0.0053994623, 0.0053994623, 0.0053994623, 0.005484908, 0.0053994623, 0.005422145, 0.0053994623, 0.0053994623, 0.0058296495, 0.0053994744, 0.0053994623, 0.0056995866, 0.0056113, 0.0055478737, 0.0053994623, 0.0056743002, 0.0053994623, 0.0053994623, 0.0053994623, 0.0057884823, 0.005635177, 0.0053994623, 0.005547504, 0.0053994623, 0.0054854807, 0.005610833, 0.0053994623, 0.0057644267, 0.005422186, 0.005571944, 0.0055480315, 0.0053994623, 0.0053994623, 0.005635178, 0.0055954386, 0.005814112, 0.005610947, 0.0055708173, 0.0056881486, 0.0054079806, 0.005547527, 0.005855416, 0.0054852506, 0.0053994623, 0.0056489063, 0.0056352676, 0.0057395427, 0.0053994623, 0.0055718217, 0.0055475724, 0.005399466, 0.0053994628, 0.00557262, 0.0053994805, 0.0053994902, 0.0053994623, 0.0057240343, 0.005547714, 0.005571952, 0.0055975486, 0.0053994623, 0.005485373, 0.0053994623, 0.00561124, 0.005699538, 0.005485204, 0.0055721276, 0.005595204, 0.0057892906, 0.0053994623, 0.0056343786, 0.0053994623, 0.0053994805, 0.005788257, 0.005547777, 0.0053994623, 0.0053994623, 0.0056998404, 0.0053994623, 0.0053994623, 0.0056085554, 0.0053994623, 0.0053994623, 0.005611004, 0.0053994623, 0.0054851384, 0.0053994623, 0.005634245, 0.0057639875, 0.0053994623, 0.0053994623, 0.0053994623, 0.005547582, 0.0056355894, 0.0053994623, 0.0053994623, 0.005561143, 0.0056344885, 0.0053994623, 0.005485075, 0.0054221675, 0.0053994623, 0.005635304, 0.005699442, 0.0053994623, 0.005508247, 0.0053994623, 0.005571955, 0.005629744, 0.0053994725, 0.0054851384, 0.0056993896, 0.005485075, 0.0056745773, 0.0054851384, 0.005485205, 0.005547489, 0.0053994623, 0.0053994623, 0.0053994623, 0.0058836634, 0.0056834035, 0.0053994623, 0.005698361, 0.0054851603, 0.0057883984, 0.005585121, 0.0053994623, 0.0053994623, 0.0059362412, 0.0055476013, 0.0053994623, 0.005547804]
2021-05-15 14:48:49,760 : DEBUG : updating topics
2021-05-15 14:48:49,772 : INFO : topic #2 (0.005): 0.001*"failure" + 0.001*"crispr" + 0.001*"policy" + 0.001*"key" + 0.001*"ineffective" + 0.001*"guideline" + 0.001*"partial" + 0.001*"embryo" + 0.001*"1803–1854" + 0.001*"newport"
2021-05-15 14:48:49,772 : INFO : topic #51 (0.005): 0.001*"failure" + 0.001*"crispr" + 0.001*"policy" + 0.001*"key" + 0.001*"ineffective" + 0.001*"guideline" + 0.001*"partial" + 0.001*"embryo" + 0.001*"1803–1854" + 0.001*"newport"
2021-05-15 14:48:49,773 : INFO : topic #83 (0.006): 0.076*"understanding" + 0.052*"analysis" + 0.051*"causality" + 0.051*"multiple" + 0.026*"1958–1972" + 0.026*"cancer" + 0.026*"organization" + 0.026*"behaviour" + 0.026*"china" + 0.026*"tail"
2021-05-15 14:48:49,774 : INFO : topic #162 (0.006): 0.295*"theory" + 0.119*"analysis" + 0.119*"critical" + 0.119*"effects" + 0.062*"function" + 0.061*"select" + 0.061*"generalize" + 0.000*"key" + 0.000*"review" + 0.000*"policy"
2021-05-15 14:48:49,774 : INFO : topic #171 (0.006): 0.190*"model" + 0.144*"biology" + 0.096*"history" + 0.096*"ecology" + 0.096*"population" + 0.096*"building" + 0.049*"anything" + 0.049*"1960s" + 0.049*"know" + 0.000*"policy"
2021-05-15 14:48:49,775 : INFO : topic diff=0.017286, rho=0.353553
2021-05-15 14:48:49,787 : DEBUG : bound: at document #0
2021-05-15 14:48:49,837 : INFO : -21.036 per-word bound, 2150492.3 perplexity estimate based on a held-out corpus of 233 documents with 3130 words
2021-05-15 14:48:49,837 : INFO : PROGRESS: pass 7, at document #233/233
2021-05-15 14:48:49,837 : DEBUG : performing inference on a chunk of 233 documents
2021-05-15 14:48:49,867 : DEBUG : 233/233 documents converged within 50 iterations
2021-05-15 14:48:49,869 : INFO : optimized alpha [0.005370712, 0.0054633883, 0.0053707175, 0.005546809, 0.0057966295, 0.005415485, 0.005533174, 0.005533647, 0.005463678, 0.005463395, 0.0057981275, 0.005370712, 0.005871306, 0.005701121, 0.0056750877, 0.0055334913, 0.005370712, 0.0054633883, 0.005370712, 0.005590708, 0.0054636146, 0.0056285583, 0.00546353, 0.0057082763, 0.0054637194, 0.005370712, 0.0053932937, 0.005463377, 0.0055334247, 0.0056619905, 0.0055331327, 0.0055198916, 0.005370712, 0.005370712, 0.005650366, 0.0055574197, 0.0056285383, 0.0053707175, 0.005628621, 0.0054633883, 0.0057004136, 0.005370712, 0.005370712, 0.005370712, 0.005370712, 0.0054632085, 0.005370712, 0.0053931535, 0.005370712, 0.005370712, 0.005846739, 0.005370724, 0.005370712, 0.0057005817, 0.005604618, 0.0055336105, 0.005370712, 0.0056672455, 0.005370712, 0.005370712, 0.005370712, 0.005789165, 0.0056283716, 0.005370712, 0.0055332095, 0.005370712, 0.0054638283, 0.0056041046, 0.005370712, 0.0057734028, 0.0053931945, 0.0055575636, 0.00553377, 0.005370712, 0.005370712, 0.0056283735, 0.0055808835, 0.0058230422, 0.0056042247, 0.0055563585, 0.005689069, 0.005379141, 0.0055332277, 0.00587258, 0.005463579, 0.005370712, 0.0056500444, 0.0056284703, 0.005748518, 0.005370712, 0.0055574304, 0.005533272, 0.0053707147, 0.0053707124, 0.0055581178, 0.005370731, 0.005370741, 0.005370712, 0.0057249726, 0.0055334247, 0.005557571, 0.0055909283, 0.005370712, 0.0054637115, 0.005370712, 0.005604554, 0.005700529, 0.005463529, 0.005557762, 0.005580634, 0.0057982346, 0.005370712, 0.0056275, 0.005370712, 0.005370731, 0.0057971096, 0.005533493, 0.005370712, 0.005370712, 0.005700868, 0.005370712, 0.005370712, 0.0055938596, 0.005370712, 0.005370712, 0.0056042997, 0.005370712, 0.0054634577, 0.005370712, 0.0056273662, 0.0057729026, 0.005370712, 0.005370712, 0.005370712, 0.0055332924, 0.005628821, 0.005370712, 0.005370712, 0.0055467477, 0.0056276517, 0.005370712, 0.0054633883, 0.0053931754, 0.005370712, 0.005628511, 0.005700432, 0.005370712, 0.0054863505, 0.005370712, 0.005557577, 0.0056149173, 0.0053707217, 0.0054634577, 0.005700367, 0.0054633883, 0.0056755794, 0.0054634577, 0.0054635294, 0.005533181, 0.005370712, 0.005370712, 0.005370712, 0.0059089367, 0.005676389, 0.005370712, 0.0056992383, 0.0054634847, 0.005797269, 0.005570607, 0.005370712, 0.005370712, 0.0059700375, 0.005533301, 0.005370712, 0.0055335374]
2021-05-15 14:48:49,870 : DEBUG : updating topics
2021-05-15 14:48:49,883 : INFO : topic #159 (0.005): 0.001*"failure" + 0.001*"crispr" + 0.001*"policy" + 0.001*"key" + 0.001*"ineffective" + 0.001*"guideline" + 0.001*"partial" + 0.001*"embryo" + 0.001*"1803–1854" + 0.001*"newport"
2021-05-15 14:48:49,883 : INFO : topic #169 (0.005): 0.001*"failure" + 0.001*"crispr" + 0.001*"policy" + 0.001*"key" + 0.001*"ineffective" + 0.001*"guideline" + 0.001*"partial" + 0.001*"embryo" + 0.001*"1803–1854" + 0.001*"newport"
2021-05-15 14:48:49,883 : INFO : topic #83 (0.006): 0.077*"understanding" + 0.052*"analysis" + 0.051*"causality" + 0.051*"multiple" + 0.026*"organization" + 0.026*"behaviour" + 0.026*"cancer" + 0.026*"1958–1972" + 0.026*"insulin" + 0.026*"china"
2021-05-15 14:48:49,883 : INFO : topic #162 (0.006): 0.296*"theory" + 0.119*"analysis" + 0.119*"critical" + 0.119*"effects" + 0.061*"function" + 0.060*"select" + 0.060*"generalize" + 0.000*"key" + 0.000*"review" + 0.000*"policy"
2021-05-15 14:48:49,883 : INFO : topic #171 (0.006): 0.191*"model" + 0.144*"biology" + 0.097*"history" + 0.097*"ecology" + 0.097*"population" + 0.097*"building" + 0.049*"anything" + 0.049*"1960s" + 0.049*"know" + 0.000*"policy"
2021-05-15 14:48:49,884 : INFO : topic diff=0.016489, rho=0.333333
2021-05-15 14:48:49,897 : DEBUG : bound: at document #0
2021-05-15 14:48:49,947 : INFO : -21.016 per-word bound, 2121118.0 perplexity estimate based on a held-out corpus of 233 documents with 3130 words
2021-05-15 14:48:49,947 : INFO : PROGRESS: pass 8, at document #233/233
2021-05-15 14:48:49,947 : DEBUG : performing inference on a chunk of 233 documents
2021-05-15 14:48:49,976 : DEBUG : 233/233 documents converged within 50 iterations
2021-05-15 14:48:49,979 : INFO : optimized alpha [0.0053436873, 0.0054429644, 0.005343692, 0.005533223, 0.005804906, 0.0053880066, 0.005519665, 0.005520172, 0.0054432736, 0.0054429816, 0.005806523, 0.0053436873, 0.005887386, 0.005702067, 0.0056683375, 0.0055200066, 0.0053436873, 0.0054429644, 0.0053436873, 0.0055844104, 0.005443208, 0.0056221206, 0.0054431153, 0.0057167825, 0.0054433174, 0.0053436873, 0.0053660404, 0.005442953, 0.005519935, 0.0056629586, 0.005519633, 0.005506504, 0.0053436873, 0.0053436873, 0.005651414, 0.005543832, 0.005622093, 0.005343692, 0.0056221834, 0.0054429644, 0.0057012965, 0.0053436873, 0.0053436873, 0.0053436873, 0.0053436873, 0.005442772, 0.0053436873, 0.0053659016, 0.0053436873, 0.0053436873, 0.0058628595, 0.005343698, 0.0053436873, 0.005701474, 0.005598277, 0.0055201342, 0.0053436873, 0.0056605525, 0.0053436873, 0.0053436873, 0.0053436873, 0.0057897605, 0.0056219143, 0.0053436873, 0.00551971, 0.0053436873, 0.0054434347, 0.0055977185, 0.0053436873, 0.0057818536, 0.005365942, 0.005543986, 0.005520304, 0.0053436873, 0.0053436873, 0.005621917, 0.005567143, 0.0058314307, 0.005597846, 0.0055427076, 0.005689891, 0.00535203, 0.0055197263, 0.0058887703, 0.0054431693, 0.0053436873, 0.005651072, 0.005622021, 0.00575695, 0.0053436873, 0.005543843, 0.00551977, 0.0053436896, 0.0053436877, 0.005544428, 0.005343705, 0.0053437157, 0.0053436873, 0.005725812, 0.005519935, 0.0055439943, 0.0055846456, 0.0053436873, 0.0054433104, 0.0053436873, 0.0055982093, 0.0057014176, 0.0054431143, 0.005544198, 0.0055668773, 0.0058066375, 0.0053436873, 0.005620973, 0.0053436873, 0.005343705, 0.005805427, 0.0055200085, 0.0053436873, 0.0053436873, 0.00570179, 0.0053436873, 0.0053436873, 0.0055799847, 0.0053436873, 0.0053436873, 0.0055979425, 0.0053436873, 0.005443039, 0.0053436873, 0.0056208395, 0.0057812794, 0.0053436873, 0.0053436873, 0.0053436873, 0.005519791, 0.005622398, 0.0053436873, 0.0053436873, 0.0055331565, 0.005621164, 0.0053436873, 0.0054429644, 0.005365923, 0.0053436873, 0.0056220638, 0.005701321, 0.0053436873, 0.0054657296, 0.0053436873, 0.005544005, 0.00560092, 0.0053436956, 0.005443039, 0.0057012425, 0.005442966, 0.0056764777, 0.005443039, 0.005443115, 0.0055196728, 0.0053436873, 0.0053436873, 0.0053436873, 0.00593283, 0.0056697363, 0.0053436873, 0.0057000215, 0.00544307, 0.005805603, 0.005556905, 0.0053436873, 0.0053436873, 0.006002056, 0.0055197994, 0.0053436873, 0.0055200993]
2021-05-15 14:48:49,979 : DEBUG : updating topics
2021-05-15 14:48:49,992 : INFO : topic #68 (0.005): 0.001*"failure" + 0.001*"crispr" + 0.001*"policy" + 0.001*"key" + 0.001*"ineffective" + 0.001*"guideline" + 0.001*"partial" + 0.001*"embryo" + 0.001*"1803–1854" + 0.001*"newport"
2021-05-15 14:48:49,992 : INFO : topic #48 (0.005): 0.001*"failure" + 0.001*"crispr" + 0.001*"policy" + 0.001*"key" + 0.001*"ineffective" + 0.001*"guideline" + 0.001*"partial" + 0.001*"embryo" + 0.001*"1803–1854" + 0.001*"newport"
2021-05-15 14:48:49,992 : INFO : topic #83 (0.006): 0.077*"understanding" + 0.052*"analysis" + 0.051*"causality" + 0.051*"multiple" + 0.026*"1958–1972" + 0.026*"organization" + 0.026*"cancer" + 0.026*"behaviour" + 0.026*"determination" + 0.026*"china"
2021-05-15 14:48:49,992 : INFO : topic #162 (0.006): 0.297*"theory" + 0.119*"analysis" + 0.119*"critical" + 0.119*"effects" + 0.061*"function" + 0.060*"select" + 0.060*"generalize" + 0.000*"key" + 0.000*"review" + 0.000*"policy"
2021-05-15 14:48:49,992 : INFO : topic #171 (0.006): 0.192*"model" + 0.144*"biology" + 0.097*"history" + 0.097*"ecology" + 0.097*"population" + 0.097*"building" + 0.049*"anything" + 0.049*"1960s" + 0.049*"know" + 0.000*"policy"
2021-05-15 14:48:49,993 : INFO : topic diff=0.015519, rho=0.316228
2021-05-15 14:48:50,005 : DEBUG : bound: at document #0
2021-05-15 14:48:50,060 : INFO : -21.000 per-word bound, 2097763.0 perplexity estimate based on a held-out corpus of 233 documents with 3130 words
2021-05-15 14:48:50,060 : INFO : PROGRESS: pass 9, at document #233/233
2021-05-15 14:48:50,060 : DEBUG : performing inference on a chunk of 233 documents
2021-05-15 14:48:50,089 : DEBUG : 233/233 documents converged within 50 iterations
2021-05-15 14:48:50,092 : INFO : optimized alpha [0.0053181415, 0.005423625, 0.0053181457, 0.0055203275, 0.0058127237, 0.0053620352, 0.0055068443, 0.0055073844, 0.0054239538, 0.0054236525, 0.005814453, 0.0053181415, 0.0059026317, 0.005702925, 0.005661901, 0.0055072075, 0.0053181415, 0.005423625, 0.0053181415, 0.005578408, 0.005423884, 0.0056159813, 0.005423786, 0.00572482, 0.0054239994, 0.0053181415, 0.005340281, 0.0054236148, 0.005507132, 0.0056638354, 0.005506821, 0.0054937936, 0.0053181415, 0.0053181415, 0.0056523667, 0.0055309357, 0.005615947, 0.0053181457, 0.005616044, 0.005423625, 0.0057020923, 0.0053181415, 0.0053181415, 0.0053181415, 0.0053181415, 0.0054234224, 0.0053181415, 0.0053401426, 0.0053181415, 0.0053181415, 0.0058781463, 0.0053181513, 0.0053181415, 0.005702279, 0.0055922302, 0.0055073425, 0.0053181415, 0.005654171, 0.0053181415, 0.0053181415, 0.0053181415, 0.005790284, 0.0056157564, 0.0053181415, 0.0055140792, 0.0053181415, 0.0054241247, 0.0055916263, 0.0053181415, 0.0057898215, 0.0053401836, 0.0055310996, 0.0055075237, 0.0053181415, 0.0053181415, 0.0056157596, 0.0055541024, 0.0058393553, 0.005591763, 0.0055297534, 0.0056906473, 0.005326405, 0.0055069122, 0.0059041227, 0.005423842, 0.0053181415, 0.005652007, 0.00561587, 0.005764923, 0.0053181415, 0.0055309474, 0.005506956, 0.005318144, 0.005318142, 0.005531435, 0.00531816, 0.0053181704, 0.0053181415, 0.005726566, 0.005507132, 0.0055311085, 0.0055786525, 0.0053181415, 0.005423993, 0.0053181415, 0.005592158, 0.0057022185, 0.0054237843, 0.0055313255, 0.0055538234, 0.005814575, 0.0053181415, 0.00561475, 0.0053181415, 0.00531816, 0.005813284, 0.0055072093, 0.0053181415, 0.0053181415, 0.005702624, 0.0053181415, 0.0053181415, 0.005566819, 0.0053181415, 0.0053181415, 0.0055918754, 0.0053181415, 0.0054237046, 0.0053181415, 0.0056146164, 0.0057891924, 0.0053181415, 0.0053181415, 0.0053181415, 0.00550698, 0.0056162733, 0.0053181415, 0.0053181415, 0.0055202576, 0.0056149773, 0.0053181415, 0.005423625, 0.005340165, 0.0053181415, 0.005615917, 0.0057021244, 0.0053181415, 0.005446205, 0.0053181415, 0.0055311215, 0.005587636, 0.0053181495, 0.0054237046, 0.005702033, 0.005423626, 0.0056772917, 0.0054237046, 0.0054237847, 0.005506852, 0.0053181415, 0.0053181415, 0.0053181415, 0.0059555355, 0.0056633907, 0.0053181415, 0.0057007223, 0.0054237405, 0.0058134748, 0.0055439016, 0.0053181415, 0.0053181415, 0.0060247094, 0.0055069868, 0.0053181415, 0.0055073146]
2021-05-15 14:48:50,092 : DEBUG : updating topics
2021-05-15 14:48:50,104 : INFO : topic #2 (0.005): 0.001*"failure" + 0.001*"crispr" + 0.001*"policy" + 0.001*"key" + 0.001*"ineffective" + 0.001*"guideline" + 0.001*"partial" + 0.001*"embryo" + 0.001*"1803–1854" + 0.001*"newport"
2021-05-15 14:48:50,104 : INFO : topic #113 (0.005): 0.001*"failure" + 0.001*"crispr" + 0.001*"policy" + 0.001*"key" + 0.001*"ineffective" + 0.001*"guideline" + 0.001*"partial" + 0.001*"embryo" + 0.001*"1803–1854" + 0.001*"newport"
2021-05-15 14:48:50,105 : INFO : topic #12 (0.006): 0.161*"causal" + 0.041*"development" + 0.041*"moral" + 0.041*"premise" + 0.041*"tumor" + 0.041*"program" + 0.041*"research" + 0.041*"belief" + 0.041*"learning" + 0.041*"support"
2021-05-15 14:48:50,105 : INFO : topic #162 (0.006): 0.298*"theory" + 0.119*"analysis" + 0.119*"critical" + 0.119*"effects" + 0.060*"function" + 0.060*"select" + 0.060*"generalize" + 0.000*"key" + 0.000*"review" + 0.000*"policy"
2021-05-15 14:48:50,105 : INFO : topic #171 (0.006): 0.195*"model" + 0.147*"biology" + 0.098*"ecology" + 0.098*"population" + 0.098*"building" + 0.083*"history" + 0.049*"anything" + 0.049*"1960s" + 0.049*"know" + 0.000*"policy"
2021-05-15 14:48:50,105 : INFO : topic diff=0.014569, rho=0.301511
2021-05-15 14:48:50,113 : DEBUG : starting a new internal lifecycle event log for LdaModel
2021-05-15 14:48:50,113 : INFO : LdaModel lifecycle event {'msg': 'trained LdaModel(num_terms=960, num_topics=175, decay=0.5, chunksize=2000) in 1.20s', 'datetime': '2021-05-15T14:48:50.113556', 'gensim': '4.0.1', 'python': '3.9.4 (default, Apr 20 2021, 15:51:38) \n[GCC 10.2.0]', 'platform': 'Linux-5.11.16-arch1-1-x86_64-with-glibc2.33', 'event': 'created'}
2021-05-15 14:48:50,159 : DEBUG : Setting topics to those of the model: LdaModel(num_terms=960, num_topics=175, decay=0.5, chunksize=2000)
2021-05-15 14:48:50,255 : INFO : COHERENCE: -16.117417348254047
2021-05-15 14:49:43,616 : INFO : MATCH PERCENT: 0.6130185979971386
