2021-05-15 14:50:51,945 : INFO : adding document #0 to Dictionary(0 unique tokens: [])
2021-05-15 14:50:51,947 : INFO : built Dictionary(960 unique tokens: ['agential', 'construction', 'niche', 'discovery', 'epistemic']...) from 233 documents (total 3130 corpus positions)
2021-05-15 14:50:51,955 : DEBUG : starting a new internal lifecycle event log for Dictionary
2021-05-15 14:50:51,956 : INFO : Dictionary lifecycle event {'msg': "built Dictionary(960 unique tokens: ['agential', 'construction', 'niche', 'discovery', 'epistemic']...) from 233 documents (total 3130 corpus positions)", 'datetime': '2021-05-15T14:50:51.947679', 'gensim': '4.0.1', 'python': '3.9.4 (default, Apr 20 2021, 15:51:38) \n[GCC 10.2.0]', 'platform': 'Linux-5.11.16-arch1-1-x86_64-with-glibc2.33', 'event': 'created'}
2021-05-15 14:50:51,957 : INFO : using autotuned alpha, starting with [0.0044444446, 0.0044444446, 0.0044444446, 0.0044444446, 0.0044444446, 0.0044444446, 0.0044444446, 0.0044444446, 0.0044444446, 0.0044444446, 0.0044444446, 0.0044444446, 0.0044444446, 0.0044444446, 0.0044444446, 0.0044444446, 0.0044444446, 0.0044444446, 0.0044444446, 0.0044444446, 0.0044444446, 0.0044444446, 0.0044444446, 0.0044444446, 0.0044444446, 0.0044444446, 0.0044444446, 0.0044444446, 0.0044444446, 0.0044444446, 0.0044444446, 0.0044444446, 0.0044444446, 0.0044444446, 0.0044444446, 0.0044444446, 0.0044444446, 0.0044444446, 0.0044444446, 0.0044444446, 0.0044444446, 0.0044444446, 0.0044444446, 0.0044444446, 0.0044444446, 0.0044444446, 0.0044444446, 0.0044444446, 0.0044444446, 0.0044444446, 0.0044444446, 0.0044444446, 0.0044444446, 0.0044444446, 0.0044444446, 0.0044444446, 0.0044444446, 0.0044444446, 0.0044444446, 0.0044444446, 0.0044444446, 0.0044444446, 0.0044444446, 0.0044444446, 0.0044444446, 0.0044444446, 0.0044444446, 0.0044444446, 0.0044444446, 0.0044444446, 0.0044444446, 0.0044444446, 0.0044444446, 0.0044444446, 0.0044444446, 0.0044444446, 0.0044444446, 0.0044444446, 0.0044444446, 0.0044444446, 0.0044444446, 0.0044444446, 0.0044444446, 0.0044444446, 0.0044444446, 0.0044444446, 0.0044444446, 0.0044444446, 0.0044444446, 0.0044444446, 0.0044444446, 0.0044444446, 0.0044444446, 0.0044444446, 0.0044444446, 0.0044444446, 0.0044444446, 0.0044444446, 0.0044444446, 0.0044444446, 0.0044444446, 0.0044444446, 0.0044444446, 0.0044444446, 0.0044444446, 0.0044444446, 0.0044444446, 0.0044444446, 0.0044444446, 0.0044444446, 0.0044444446, 0.0044444446, 0.0044444446, 0.0044444446, 0.0044444446, 0.0044444446, 0.0044444446, 0.0044444446, 0.0044444446, 0.0044444446, 0.0044444446, 0.0044444446, 0.0044444446, 0.0044444446, 0.0044444446, 0.0044444446, 0.0044444446, 0.0044444446, 0.0044444446, 0.0044444446, 0.0044444446, 0.0044444446, 0.0044444446, 0.0044444446, 0.0044444446, 0.0044444446, 0.0044444446, 0.0044444446, 0.0044444446, 0.0044444446, 0.0044444446, 0.0044444446, 0.0044444446, 0.0044444446, 0.0044444446, 0.0044444446, 0.0044444446, 0.0044444446, 0.0044444446, 0.0044444446, 0.0044444446, 0.0044444446, 0.0044444446, 0.0044444446, 0.0044444446, 0.0044444446, 0.0044444446, 0.0044444446, 0.0044444446, 0.0044444446, 0.0044444446, 0.0044444446, 0.0044444446, 0.0044444446, 0.0044444446, 0.0044444446, 0.0044444446, 0.0044444446, 0.0044444446, 0.0044444446, 0.0044444446, 0.0044444446, 0.0044444446, 0.0044444446, 0.0044444446, 0.0044444446, 0.0044444446, 0.0044444446, 0.0044444446, 0.0044444446, 0.0044444446, 0.0044444446, 0.0044444446, 0.0044444446, 0.0044444446, 0.0044444446, 0.0044444446, 0.0044444446, 0.0044444446, 0.0044444446, 0.0044444446, 0.0044444446, 0.0044444446, 0.0044444446, 0.0044444446, 0.0044444446, 0.0044444446, 0.0044444446, 0.0044444446, 0.0044444446, 0.0044444446, 0.0044444446, 0.0044444446, 0.0044444446, 0.0044444446, 0.0044444446, 0.0044444446, 0.0044444446, 0.0044444446, 0.0044444446, 0.0044444446, 0.0044444446, 0.0044444446, 0.0044444446, 0.0044444446, 0.0044444446, 0.0044444446, 0.0044444446, 0.0044444446, 0.0044444446, 0.0044444446, 0.0044444446, 0.0044444446, 0.0044444446, 0.0044444446]
2021-05-15 14:50:51,958 : INFO : using serial LDA version on this node
2021-05-15 14:50:51,975 : INFO : running online (multi-pass) LDA training, 225 topics, 10 passes over the supplied corpus of 233 documents, updating model once every 233 documents, evaluating perplexity every 233 documents, iterating 50x with a convergence threshold of 0.001000
2021-05-15 14:50:51,983 : DEBUG : bound: at document #0
2021-05-15 14:50:52,065 : INFO : -342.325 per-word bound, 11223129096809261412750085883003498627145027637545412249885200509027151723950665956508899781627843969024.0 perplexity estimate based on a held-out corpus of 233 documents with 3130 words
2021-05-15 14:50:52,065 : INFO : PROGRESS: pass 0, at document #233/233
2021-05-15 14:50:52,065 : DEBUG : performing inference on a chunk of 233 documents
2021-05-15 14:50:52,127 : DEBUG : 230/233 documents converged within 50 iterations
2021-05-15 14:50:52,131 : INFO : optimized alpha [0.0044089356, 0.0044282787, 0.0044089356, 0.0044089356, 0.004447633, 0.0044089356, 0.0044283005, 0.0044089356, 0.0044283182, 0.0044282787, 0.0044089356, 0.004447634, 0.00442829, 0.0044089356, 0.0044089356, 0.0044089356, 0.0044089356, 0.0044282787, 0.00442829, 0.0044282787, 0.00442829, 0.0044156583, 0.004447653, 0.004447432, 0.0044089356, 0.0044089356, 0.004447683, 0.004447665, 0.0044281874, 0.0044089356, 0.0044089356, 0.004428318, 0.0044089356, 0.0044089356, 0.0044089356, 0.0044089356, 0.0044089356, 0.004428332, 0.004428339, 0.0044089356, 0.0044282787, 0.0044089356, 0.0044089356, 0.004447655, 0.00442829, 0.0044089356, 0.00442831, 0.004408938, 0.004447633, 0.004447675, 0.0044089356, 0.0044282787, 0.004428267, 0.0044089356, 0.0044282787, 0.0044282787, 0.0044089356, 0.0044476553, 0.0044089356, 0.0044282787, 0.0044089356, 0.0044089356, 0.0044089356, 0.0044089356, 0.0044089356, 0.0044089356, 0.0044283005, 0.0044089356, 0.0044089356, 0.0044476613, 0.004447645, 0.00442829, 0.004447644, 0.0044282787, 0.0044089356, 0.0044282787, 0.0044281594, 0.004408974, 0.0044089356, 0.004426315, 0.0044089356, 0.0044089356, 0.0044089356, 0.0044089356, 0.0044283005, 0.0044283005, 0.0044089356, 0.0044089356, 0.0044282707, 0.0044089356, 0.0044282908, 0.0044089356, 0.0044282787, 0.0044089356, 0.0044282908, 0.0044282787, 0.0044476637, 0.004428236, 0.0044282596, 0.0044282787, 0.004428301, 0.00444762, 0.0044476013, 0.004428318, 0.0044089356, 0.0044089356, 0.0044089393, 0.0044089356, 0.0044089356, 0.004428318, 0.0044283005, 0.0044089356, 0.0044089356, 0.0044089356, 0.0044089356, 0.0044282647, 0.0044089356, 0.0044089356, 0.004408936, 0.0044282787, 0.0044089356, 0.004428294, 0.00442831, 0.0044282787, 0.004428432, 0.0044283257, 0.0044089356, 0.0044089356, 0.0044282707, 0.0044089356, 0.0044089356, 0.00442829, 0.0044089416, 0.0044089356, 0.0044282908, 0.0044089356, 0.0044089356, 0.004447634, 0.004428189, 0.004467021, 0.0044089365, 0.004447595, 0.00442831, 0.0044089356, 0.0044089356, 0.0044089356, 0.0044282787, 0.004408953, 0.0044089356, 0.0044089356, 0.0044089356, 0.004447639, 0.004428301, 0.0044089356, 0.004447673, 0.0044089356, 0.0044089356, 0.0044283005, 0.004428299, 0.0044476558, 0.0044089356, 0.0044089356, 0.004428145, 0.0044089356, 0.0044089356, 0.0044089356, 0.0044089356, 0.004428318, 0.00442831, 0.0044338834, 0.0044089356, 0.0044089356, 0.0044089356, 0.0044282726, 0.0044282423, 0.0044089356, 0.004428311, 0.0044089356, 0.0044089356, 0.0044089356, 0.0044089356, 0.0044089356, 0.0044089356, 0.0044089407, 0.0044089435, 0.004428301, 0.00442829, 0.0044089356, 0.004428235, 0.0044283257, 0.0044089356, 0.0044089356, 0.0044089356, 0.0044089356, 0.004466964, 0.004428318, 0.0044283257, 0.0044089356, 0.0044476753, 0.004467055, 0.0044089356, 0.004408936, 0.0044089356, 0.0044089356, 0.004441438, 0.0044089356, 0.0044282787, 0.00442829, 0.0044089356, 0.00442829, 0.00442831, 0.0044089356, 0.0044089356, 0.0044282284, 0.0044089356, 0.004408942, 0.0044282908, 0.0044089356, 0.0044089356, 0.00442835, 0.0044089356, 0.0044477074, 0.0044089356, 0.0044283005, 0.0044089356]
2021-05-15 14:50:52,131 : DEBUG : updating topics
2021-05-15 14:50:52,147 : INFO : topic #106 (0.004): 0.001*"failure" + 0.001*"crispr" + 0.001*"policy" + 0.001*"key" + 0.001*"ineffective" + 0.001*"guideline" + 0.001*"partial" + 0.001*"embryo" + 0.001*"1803–1854" + 0.001*"newport"
2021-05-15 14:50:52,147 : INFO : topic #202 (0.004): 0.001*"failure" + 0.001*"crispr" + 0.001*"policy" + 0.001*"key" + 0.001*"ineffective" + 0.001*"guideline" + 0.001*"partial" + 0.001*"embryo" + 0.001*"1803–1854" + 0.001*"newport"
2021-05-15 14:50:52,147 : INFO : topic #26 (0.004): 0.045*"take" + 0.045*"evaluate" + 0.045*"complication" + 0.045*"environmental" + 0.045*"metaphor" + 0.045*"artistic" + 0.045*"tool" + 0.045*"dualism" + 0.045*"editing" + 0.045*"modelling"
2021-05-15 14:50:52,148 : INFO : topic #4 (0.004): 0.117*"biology" + 0.058*"fiction" + 0.058*"founder" + 0.058*"eliminativist" + 0.058*"science" + 0.058*"psychology" + 0.058*"accord" + 0.058*"pain" + 0.058*"future" + 0.058*"implication"
2021-05-15 14:50:52,148 : INFO : topic #139 (0.004): 0.071*"law" + 0.071*"biology" + 0.036*"lens" + 0.036*"philosophical" + 0.036*"1960s" + 0.036*"building" + 0.036*"bridge" + 0.036*"admixture" + 0.036*"anything" + 0.036*"apply"
2021-05-15 14:50:52,148 : INFO : topic diff=219.211182, rho=1.000000
2021-05-15 14:50:52,164 : DEBUG : bound: at document #0
2021-05-15 14:50:52,221 : INFO : -43.833 per-word bound, 15670397737963.6 perplexity estimate based on a held-out corpus of 233 documents with 3130 words
2021-05-15 14:50:52,221 : INFO : PROGRESS: pass 1, at document #233/233
2021-05-15 14:50:52,221 : DEBUG : performing inference on a chunk of 233 documents
2021-05-15 14:50:52,256 : DEBUG : 233/233 documents converged within 50 iterations
2021-05-15 14:50:52,259 : INFO : optimized alpha [0.0043779886, 0.0044633327, 0.0043779886, 0.0043779886, 0.004471949, 0.0043779886, 0.0044192406, 0.0043779886, 0.0044082473, 0.004463292, 0.0043779886, 0.004449585, 0.004408203, 0.0043779886, 0.0043779886, 0.0043779886, 0.0043779886, 0.0045074844, 0.004441266, 0.004463292, 0.0044413037, 0.004384617, 0.00446073, 0.0044493047, 0.0043779886, 0.0043779886, 0.004460717, 0.00444963, 0.004396969, 0.0043779886, 0.0043779886, 0.0044192723, 0.0043779886, 0.0043779886, 0.0043779886, 0.0043779886, 0.0043779886, 0.004441375, 0.0044193016, 0.0043779886, 0.004463292, 0.0043779886, 0.0043779886, 0.004438437, 0.0044192243, 0.0043779886, 0.0044413386, 0.004377992, 0.004449568, 0.0044717724, 0.0043779886, 0.0044523412, 0.00440818, 0.0043779886, 0.0044853776, 0.004408188, 0.0043779886, 0.004582619, 0.0043779886, 0.0044302302, 0.0043779886, 0.0043779886, 0.0043779886, 0.0043779886, 0.0043779886, 0.0043779886, 0.004419241, 0.0043779886, 0.0043779886, 0.0044385437, 0.004449588, 0.0044413265, 0.0044939714, 0.0044412827, 0.0043779886, 0.004419209, 0.0043969415, 0.004378026, 0.0043779886, 0.0043951236, 0.0043779886, 0.0043779886, 0.0043779886, 0.0043779886, 0.004430262, 0.004419241, 0.0043779886, 0.0043779886, 0.0044301893, 0.0043779886, 0.0044304207, 0.0043779886, 0.004408188, 0.0043779886, 0.004452288, 0.004419209, 0.0044606905, 0.004397017, 0.004408062, 0.004441251, 0.0044633653, 0.0044384594, 0.004427312, 0.004419268, 0.0043779886, 0.0043779886, 0.004377993, 0.0043779886, 0.0043779886, 0.0044413507, 0.0044412827, 0.0043779886, 0.0043779886, 0.0043779886, 0.0043779886, 0.0044302065, 0.0043779886, 0.0043779886, 0.0043779905, 0.0044412515, 0.0043779886, 0.0044082184, 0.0044412427, 0.00443023, 0.0044083465, 0.0044303024, 0.0043779886, 0.0043779886, 0.0044082035, 0.0043779886, 0.0043779886, 0.004408203, 0.004377994, 0.0043779886, 0.0044192257, 0.0043779886, 0.0043779886, 0.00446068, 0.0043970034, 0.004502311, 0.0043779905, 0.0044383756, 0.004441298, 0.0043779886, 0.0043779886, 0.0043779886, 0.004452272, 0.004378007, 0.0043779886, 0.0043779886, 0.0043779886, 0.0044385106, 0.0044302884, 0.0043779886, 0.0044607003, 0.0043779886, 0.0043779886, 0.00440822, 0.0044522965, 0.0044496106, 0.0043779886, 0.0043779886, 0.0043969275, 0.0043779886, 0.0043779886, 0.0043779886, 0.0043779886, 0.0044302894, 0.004408235, 0.004468913, 0.0043779886, 0.0043779886, 0.0043779886, 0.0044192234, 0.0044302326, 0.0043779886, 0.004441317, 0.0043779886, 0.0043779886, 0.0043779886, 0.0043779886, 0.0043779886, 0.0043779886, 0.0043779933, 0.004377996, 0.0044302624, 0.0044522868, 0.0043779886, 0.00440816, 0.0044413637, 0.0043779886, 0.0043779886, 0.0043779886, 0.0043779886, 0.0044576684, 0.00444131, 0.0044192816, 0.0043779886, 0.004460704, 0.0045357775, 0.0043779886, 0.0043779905, 0.0043779886, 0.0043779886, 0.004410032, 0.0043779886, 0.004419209, 0.004474329, 0.0043779886, 0.0044192243, 0.004408235, 0.0043779886, 0.0043779886, 0.0044081495, 0.0043779886, 0.004377994, 0.004441308, 0.0043779886, 0.0043779886, 0.004408297, 0.0043779886, 0.0044496846, 0.0043779886, 0.0044413637, 0.0043779886]
2021-05-15 14:50:52,260 : DEBUG : updating topics
2021-05-15 14:50:52,276 : INFO : topic #3 (0.004): 0.001*"failure" + 0.001*"crispr" + 0.001*"policy" + 0.001*"key" + 0.001*"ineffective" + 0.001*"guideline" + 0.001*"partial" + 0.001*"embryo" + 0.001*"1803–1854" + 0.001*"newport"
2021-05-15 14:50:52,276 : INFO : topic #91 (0.004): 0.001*"failure" + 0.001*"crispr" + 0.001*"policy" + 0.001*"key" + 0.001*"ineffective" + 0.001*"guideline" + 0.001*"partial" + 0.001*"embryo" + 0.001*"1803–1854" + 0.001*"newport"
2021-05-15 14:50:52,276 : INFO : topic #17 (0.005): 0.222*"account" + 0.212*"cultural" + 0.145*"theory" + 0.106*"evolutionary" + 0.106*"need" + 0.067*"information" + 0.000*"ineffective" + 0.000*"failure" + 0.000*"policy" + 0.000*"key"
2021-05-15 14:50:52,276 : INFO : topic #199 (0.005): 0.114*"genetic" + 0.071*"perspective" + 0.043*"agency" + 0.043*"animal" + 0.043*"personalize" + 0.043*"multiple" + 0.032*"medicine" + 0.028*"behaviour" + 0.028*"ancestry" + 0.028*"organization"
2021-05-15 14:50:52,276 : INFO : topic #57 (0.005): 0.340*"biology" + 0.098*"explanation" + 0.054*"novel" + 0.054*"synthetic" + 0.054*"philosophy" + 0.054*"explanatory" + 0.034*"engineering" + 0.034*"function" + 0.034*"strategy" + 0.034*"reductionists"
2021-05-15 14:50:52,277 : INFO : topic diff=0.074715, rho=0.577350
2021-05-15 14:50:52,294 : DEBUG : bound: at document #0
2021-05-15 14:50:52,348 : INFO : -43.714 per-word bound, 14423989589402.2 perplexity estimate based on a held-out corpus of 233 documents with 3130 words
2021-05-15 14:50:52,348 : INFO : PROGRESS: pass 2, at document #233/233
2021-05-15 14:50:52,349 : DEBUG : performing inference on a chunk of 233 documents
2021-05-15 14:50:52,380 : DEBUG : 233/233 documents converged within 50 iterations
2021-05-15 14:50:52,383 : INFO : optimized alpha [0.00435152, 0.0044936733, 0.00435152, 0.00435152, 0.004502423, 0.00435152, 0.0044114217, 0.00435152, 0.004391023, 0.004493596, 0.00435152, 0.0044512143, 0.0043909634, 0.00435152, 0.00435152, 0.00435152, 0.00435152, 0.0045768046, 0.0044524153, 0.0044839755, 0.004462026, 0.004358068, 0.0044719665, 0.0044508693, 0.00435152, 0.00435152, 0.004471912, 0.0044512735, 0.00437027, 0.00435152, 0.00435152, 0.0044019376, 0.00435152, 0.00435152, 0.00435152, 0.00435152, 0.00435152, 0.0044525783, 0.0044115027, 0.00435152, 0.004532051, 0.00435152, 0.00435152, 0.004430484, 0.0044018775, 0.00435152, 0.004462104, 0.004351523, 0.0044511887, 0.004492564, 0.00435152, 0.0044923006, 0.0043909405, 0.00435152, 0.004535068, 0.0043909447, 0.00435152, 0.0047021713, 0.00435152, 0.0044223266, 0.00435152, 0.00435152, 0.00435152, 0.00435152, 0.00435152, 0.00435152, 0.0044114217, 0.00435152, 0.00435152, 0.004430673, 0.004451215, 0.0044621006, 0.004534395, 0.004452558, 0.00435152, 0.004420904, 0.0043702424, 0.0043515554, 0.00435152, 0.0043684472, 0.00435152, 0.00435152, 0.00435152, 0.00435152, 0.0044319057, 0.004411423, 0.00435152, 0.00435152, 0.0044222856, 0.00435152, 0.00442251, 0.00435152, 0.0043909512, 0.00435152, 0.004472993, 0.004411379, 0.0044718753, 0.004370317, 0.0043907296, 0.0044523943, 0.0044937143, 0.0044209366, 0.004409899, 0.004420982, 0.00435152, 0.00435152, 0.0043515237, 0.00435152, 0.00435152, 0.0044429395, 0.004452436, 0.00435152, 0.00435152, 0.00435152, 0.00435152, 0.0044318317, 0.00435152, 0.00435152, 0.004351522, 0.0044523943, 0.00435152, 0.004390991, 0.004461973, 0.004441372, 0.0043911072, 0.004422407, 0.00435152, 0.00435152, 0.004390981, 0.00435152, 0.00435152, 0.0043909634, 0.0043515246, 0.00435152, 0.004411403, 0.00435152, 0.00435152, 0.004471888, 0.0043703057, 0.004532835, 0.004351522, 0.004430412, 0.004452455, 0.00435152, 0.00435152, 0.00435152, 0.004492165, 0.0043515367, 0.00435152, 0.00435152, 0.00435152, 0.0044306307, 0.0044223825, 0.00435152, 0.004471892, 0.00435152, 0.00435152, 0.004390987, 0.0044729556, 0.0044512474, 0.00435152, 0.00435152, 0.00437023, 0.00435152, 0.00435152, 0.00435152, 0.00435152, 0.0044319406, 0.0043910053, 0.004499231, 0.00435152, 0.00435152, 0.00435152, 0.004411414, 0.004431899, 0.00435152, 0.004452479, 0.00435152, 0.00435152, 0.00435152, 0.00435152, 0.00435152, 0.00435152, 0.0043515237, 0.004351527, 0.004431906, 0.004472994, 0.00435152, 0.0043909266, 0.0044429735, 0.00435152, 0.00435152, 0.00435152, 0.00435152, 0.0044496455, 0.004471617, 0.0044114757, 0.00435152, 0.0044718958, 0.004585936, 0.00435152, 0.004351522, 0.00435152, 0.00435152, 0.0043831756, 0.00435152, 0.004411379, 0.004504646, 0.00435152, 0.0044114026, 0.0043910053, 0.00435152, 0.00435152, 0.0043909173, 0.00435152, 0.0043515246, 0.0044524916, 0.00435152, 0.00435152, 0.0043910877, 0.00435152, 0.0044513415, 0.00435152, 0.0044526546, 0.00435152]
2021-05-15 14:50:52,383 : DEBUG : updating topics
2021-05-15 14:50:52,399 : INFO : topic #15 (0.004): 0.001*"failure" + 0.001*"crispr" + 0.001*"policy" + 0.001*"key" + 0.001*"ineffective" + 0.001*"guideline" + 0.001*"partial" + 0.001*"embryo" + 0.001*"1803–1854" + 0.001*"newport"
2021-05-15 14:50:52,399 : INFO : topic #60 (0.004): 0.001*"failure" + 0.001*"crispr" + 0.001*"policy" + 0.001*"key" + 0.001*"ineffective" + 0.001*"guideline" + 0.001*"partial" + 0.001*"embryo" + 0.001*"1803–1854" + 0.001*"newport"
2021-05-15 14:50:52,399 : INFO : topic #199 (0.005): 0.124*"genetic" + 0.062*"perspective" + 0.049*"agency" + 0.049*"personalize" + 0.049*"multiple" + 0.035*"animal" + 0.032*"medicine" + 0.027*"behaviour" + 0.027*"ancestry" + 0.027*"organization"
2021-05-15 14:50:52,400 : INFO : topic #17 (0.005): 0.274*"account" + 0.210*"cultural" + 0.122*"theory" + 0.105*"evolutionary" + 0.105*"need" + 0.059*"information" + 0.000*"ineffective" + 0.000*"failure" + 0.000*"policy" + 0.000*"key"
2021-05-15 14:50:52,400 : INFO : topic #57 (0.005): 0.378*"biology" + 0.094*"explanation" + 0.055*"novel" + 0.055*"synthetic" + 0.055*"philosophy" + 0.055*"explanatory" + 0.031*"engineering" + 0.031*"function" + 0.031*"strategy" + 0.031*"reductionists"
2021-05-15 14:50:52,400 : INFO : topic diff=0.029763, rho=0.500000
2021-05-15 14:50:52,416 : DEBUG : bound: at document #0
2021-05-15 14:50:52,470 : INFO : -43.593 per-word bound, 13264610499446.5 perplexity estimate based on a held-out corpus of 233 documents with 3130 words
2021-05-15 14:50:52,470 : INFO : PROGRESS: pass 3, at document #233/233
2021-05-15 14:50:52,470 : DEBUG : performing inference on a chunk of 233 documents
2021-05-15 14:50:52,501 : DEBUG : 233/233 documents converged within 50 iterations
2021-05-15 14:50:52,504 : INFO : optimized alpha [0.004328097, 0.00452079, 0.004328097, 0.004328097, 0.0045296624, 0.004328097, 0.0044044484, 0.004328097, 0.004375735, 0.004529312, 0.004328097, 0.004452627, 0.004375666, 0.004328097, 0.004328097, 0.004328097, 0.004328097, 0.004639259, 0.004462315, 0.0045024115, 0.004480499, 0.004334576, 0.0044819266, 0.0044522253, 0.004328097, 0.004328097, 0.00448186, 0.0044527017, 0.0043466454, 0.004328097, 0.004328097, 0.0043865535, 0.004328097, 0.004328097, 0.004328097, 0.004328097, 0.004328097, 0.00446253, 0.004404546, 0.004328097, 0.004594099, 0.004328097, 0.004328097, 0.004423393, 0.004386481, 0.004328097, 0.0044806153, 0.0043280995, 0.004452595, 0.0045111, 0.004328097, 0.004528197, 0.004375641, 0.004328097, 0.0045796926, 0.004375641, 0.004328097, 0.0048111645, 0.004328097, 0.004406744, 0.004328097, 0.004328097, 0.004328097, 0.004328097, 0.004328097, 0.004328097, 0.0044044484, 0.004328097, 0.004328097, 0.0044236546, 0.0044526285, 0.0044892295, 0.0045704334, 0.0044624815, 0.004328097, 0.004430823, 0.004346617, 0.004328134, 0.004328097, 0.004344841, 0.004328097, 0.004328097, 0.004328097, 0.004328097, 0.004433331, 0.0044044508, 0.004328097, 0.004328097, 0.0044152373, 0.004328097, 0.0044154543, 0.004328097, 0.0043756478, 0.004328097, 0.004491453, 0.0044043977, 0.0044818283, 0.0043466906, 0.0043753465, 0.0044622896, 0.0045208447, 0.004405436, 0.0043944474, 0.0044224723, 0.004328097, 0.004328097, 0.0043281005, 0.004328097, 0.004328097, 0.00444432, 0.0044625388, 0.004328097, 0.004328097, 0.004328097, 0.004328097, 0.0044332417, 0.004328097, 0.004328097, 0.0043280986, 0.00446229, 0.004328097, 0.0043757, 0.004480465, 0.0044513023, 0.004375808, 0.004415368, 0.004328097, 0.004328097, 0.0043756985, 0.004328097, 0.004328097, 0.0043756654, 0.004328101, 0.004328097, 0.004404427, 0.004328097, 0.004328097, 0.004481842, 0.00434668, 0.004551605, 0.0043280986, 0.0044233114, 0.004462366, 0.004328097, 0.004328097, 0.004328097, 0.0045279106, 0.004328113, 0.004328097, 0.004328097, 0.004328097, 0.0044236043, 0.0044153347, 0.004328097, 0.004481832, 0.004328097, 0.004328097, 0.004375693, 0.0044829426, 0.004452667, 0.004328097, 0.004328097, 0.0043466045, 0.004328097, 0.004328097, 0.004328097, 0.004328097, 0.0044333767, 0.0043757143, 0.004526332, 0.004328097, 0.004328097, 0.004328097, 0.00440445, 0.0044333474, 0.004328097, 0.0044623916, 0.004328097, 0.004328097, 0.004328097, 0.004328097, 0.004328097, 0.004328097, 0.0043281005, 0.0043281023, 0.0044333315, 0.004491465, 0.004328097, 0.0043756333, 0.004444355, 0.004328097, 0.004328097, 0.004328097, 0.004328097, 0.004442493, 0.004507333, 0.0044045155, 0.004328097, 0.0044818367, 0.0046309745, 0.004328097, 0.0043280986, 0.004328097, 0.004328097, 0.004359411, 0.004328097, 0.0044043977, 0.004531744, 0.004328097, 0.0044044266, 0.004375716, 0.004328097, 0.004328097, 0.0043756226, 0.004328097, 0.004328101, 0.004462423, 0.004328097, 0.004328097, 0.004375813, 0.004328097, 0.0044527804, 0.004328097, 0.0044626216, 0.004328097]
2021-05-15 14:50:52,504 : DEBUG : updating topics
2021-05-15 14:50:52,520 : INFO : topic #203 (0.004): 0.001*"failure" + 0.001*"crispr" + 0.001*"policy" + 0.001*"key" + 0.001*"ineffective" + 0.001*"guideline" + 0.001*"partial" + 0.001*"embryo" + 0.001*"1803–1854" + 0.001*"newport"
2021-05-15 14:50:52,521 : INFO : topic #56 (0.004): 0.001*"failure" + 0.001*"crispr" + 0.001*"policy" + 0.001*"key" + 0.001*"ineffective" + 0.001*"guideline" + 0.001*"partial" + 0.001*"embryo" + 0.001*"1803–1854" + 0.001*"newport"
2021-05-15 14:50:52,521 : INFO : topic #54 (0.005): 0.334*"selection" + 0.171*"darwinian" + 0.116*"natural" + 0.062*"social" + 0.062*"dimension" + 0.062*"artificial" + 0.062*"analogy" + 0.000*"baby" + 0.000*"policy" + 0.000*"key"
2021-05-15 14:50:52,521 : INFO : topic #72 (0.005): 0.175*"explanation" + 0.111*"understanding" + 0.111*"mechanistic" + 0.076*"causality" + 0.040*"contrast" + 0.040*"analysis" + 0.040*"grounding" + 0.040*"cancer" + 0.040*"control" + 0.040*"contribution"
2021-05-15 14:50:52,521 : INFO : topic #57 (0.005): 0.396*"biology" + 0.093*"explanation" + 0.055*"synthetic" + 0.055*"novel" + 0.055*"explanatory" + 0.049*"philosophy" + 0.029*"engineering" + 0.029*"function" + 0.029*"strategy" + 0.029*"reductionists"
2021-05-15 14:50:52,521 : INFO : topic diff=0.016631, rho=0.447214
2021-05-15 14:50:52,537 : DEBUG : bound: at document #0
2021-05-15 14:50:52,591 : INFO : -43.489 per-word bound, 12343323523416.4 perplexity estimate based on a held-out corpus of 233 documents with 3130 words
2021-05-15 14:50:52,592 : INFO : PROGRESS: pass 4, at document #233/233
2021-05-15 14:50:52,592 : DEBUG : performing inference on a chunk of 233 documents
2021-05-15 14:50:52,623 : DEBUG : 233/233 documents converged within 50 iterations
2021-05-15 14:50:52,626 : INFO : optimized alpha [0.0043069203, 0.0045455345, 0.0043069203, 0.0043069203, 0.0045545134, 0.0043069203, 0.0043980996, 0.0043069203, 0.0043618777, 0.004561985, 0.0043069203, 0.004453879, 0.004361798, 0.0043069203, 0.0043069203, 0.0043069203, 0.0043069203, 0.0046967403, 0.004471303, 0.004519192, 0.0044973413, 0.0043133325, 0.0044909525, 0.004453431, 0.0043069203, 0.0043069203, 0.0044908775, 0.0044539697, 0.0043252837, 0.0043069203, 0.0043069203, 0.0043726065, 0.0043069203, 0.0043069203, 0.0043069203, 0.0043069203, 0.0043069203, 0.004471558, 0.0043982146, 0.0043069203, 0.004659226, 0.0043069203, 0.0043069203, 0.004416935, 0.0043725227, 0.0043069203, 0.004497463, 0.004306922, 0.0044538453, 0.0045279656, 0.0043069203, 0.0045610443, 0.0043617743, 0.0043069203, 0.0046205814, 0.0043617697, 0.0043069203, 0.0049124304, 0.0043069203, 0.004392622, 0.0043069203, 0.0043069203, 0.0043069203, 0.0043069203, 0.0043069203, 0.0043069203, 0.004398099, 0.0043069203, 0.0043069203, 0.004417267, 0.0044538816, 0.0045139766, 0.00460338, 0.004471483, 0.0043069203, 0.0044398606, 0.004325258, 0.004306955, 0.0043069203, 0.0043234993, 0.0043069203, 0.0043069203, 0.0043069203, 0.0043069203, 0.0044346005, 0.004398102, 0.0043069203, 0.0043069203, 0.004408819, 0.0043069203, 0.004409031, 0.0043069203, 0.004361776, 0.0043069203, 0.004508249, 0.0043980437, 0.0044908547, 0.004325331, 0.0043614046, 0.004471267, 0.004545595, 0.0043913526, 0.0043804413, 0.0044237985, 0.0043069203, 0.0043069203, 0.0043069227, 0.0043069203, 0.0043069203, 0.004445546, 0.004471526, 0.0043069203, 0.0043069203, 0.0043069203, 0.0043069203, 0.0044345004, 0.0043069203, 0.0043069203, 0.0043069213, 0.004471268, 0.0043069203, 0.004361838, 0.004497283, 0.00446031, 0.0043619396, 0.0044089607, 0.0043069203, 0.0043069203, 0.004361843, 0.0043069203, 0.0043069203, 0.0043617976, 0.004306923, 0.0043069203, 0.004398076, 0.0043069203, 0.0043069203, 0.004490872, 0.00432532, 0.004568515, 0.0043069213, 0.004416846, 0.0044713565, 0.0043069203, 0.0043069203, 0.0043069203, 0.004560592, 0.0043069334, 0.0043069203, 0.0043069203, 0.0043069203, 0.004417207, 0.0044089197, 0.0043069203, 0.004490848, 0.0043069203, 0.0043069203, 0.004361827, 0.0044918624, 0.00445393, 0.0043069203, 0.0043069203, 0.0043252455, 0.0043069203, 0.0043069203, 0.0043069203, 0.0043069203, 0.004434654, 0.0043618553, 0.0045510535, 0.0043069203, 0.0043069203, 0.0043069203, 0.004398108, 0.0044346345, 0.0043069203, 0.0044713835, 0.0043069203, 0.0043069203, 0.0043069203, 0.0043069203, 0.0043069203, 0.0043069203, 0.0043069227, 0.0043069245, 0.004434601, 0.004508269, 0.0043069203, 0.004361768, 0.0044455808, 0.0043069203, 0.0043069203, 0.0043069203, 0.0043069203, 0.0044359807, 0.0045400052, 0.0043981764, 0.0043069203, 0.0044908538, 0.0046722405, 0.0043069203, 0.0043069213, 0.0043069203, 0.0043069203, 0.004337926, 0.0043069203, 0.0043980437, 0.004556465, 0.0043069203, 0.004398076, 0.0043618567, 0.0043069203, 0.0043069203, 0.0043617575, 0.0043069203, 0.004306923, 0.0044714315, 0.0043069203, 0.0043069203, 0.004361968, 0.0043069203, 0.004454058, 0.0043069203, 0.0044716643, 0.0043069203]
2021-05-15 14:50:52,627 : DEBUG : updating topics
2021-05-15 14:50:52,644 : INFO : topic #224 (0.004): 0.001*"failure" + 0.001*"crispr" + 0.001*"policy" + 0.001*"key" + 0.001*"ineffective" + 0.001*"guideline" + 0.001*"partial" + 0.001*"embryo" + 0.001*"1803–1854" + 0.001*"newport"
2021-05-15 14:50:52,644 : INFO : topic #60 (0.004): 0.001*"failure" + 0.001*"crispr" + 0.001*"policy" + 0.001*"key" + 0.001*"ineffective" + 0.001*"guideline" + 0.001*"partial" + 0.001*"embryo" + 0.001*"1803–1854" + 0.001*"newport"
2021-05-15 14:50:52,644 : INFO : topic #40 (0.005): 0.525*"biological" + 0.059*"legislation" + 0.059*"farming" + 0.059*"early" + 0.059*"norwegian" + 0.059*"argumentation" + 0.059*"salmon" + 0.000*"ineffective" + 0.000*"key" + 0.000*"review"
2021-05-15 14:50:52,644 : INFO : topic #17 (0.005): 0.302*"account" + 0.210*"cultural" + 0.110*"theory" + 0.105*"evolutionary" + 0.105*"need" + 0.054*"information" + 0.000*"ineffective" + 0.000*"failure" + 0.000*"policy" + 0.000*"key"
2021-05-15 14:50:52,645 : INFO : topic #57 (0.005): 0.405*"biology" + 0.092*"explanation" + 0.056*"synthetic" + 0.056*"explanatory" + 0.056*"novel" + 0.043*"philosophy" + 0.029*"engineering" + 0.029*"strategy" + 0.029*"function" + 0.029*"reductionists"
2021-05-15 14:50:52,645 : INFO : topic diff=0.012188, rho=0.408248
2021-05-15 14:50:52,662 : DEBUG : bound: at document #0
2021-05-15 14:50:52,730 : INFO : -43.394 per-word bound, 11559642270767.5 perplexity estimate based on a held-out corpus of 233 documents with 3130 words
2021-05-15 14:50:52,731 : INFO : PROGRESS: pass 5, at document #233/233
2021-05-15 14:50:52,731 : DEBUG : performing inference on a chunk of 233 documents
2021-05-15 14:50:52,766 : DEBUG : 233/233 documents converged within 50 iterations
2021-05-15 14:50:52,769 : INFO : optimized alpha [0.004287481, 0.0045684245, 0.004287481, 0.004287481, 0.004584861, 0.004287481, 0.004392238, 0.004287481, 0.0043491283, 0.0045922766, 0.004287481, 0.0044550104, 0.0043490394, 0.004287481, 0.004287481, 0.004287481, 0.004287481, 0.0047503784, 0.0044795685, 0.00453468, 0.004512937, 0.004293838, 0.004499254, 0.0044545266, 0.004287481, 0.004287481, 0.004499179, 0.0044551147, 0.0043056807, 0.004287481, 0.004287481, 0.004359777, 0.004287481, 0.004287481, 0.004287481, 0.004287481, 0.004287481, 0.0044798697, 0.0043923664, 0.004287481, 0.004720082, 0.004287481, 0.004287481, 0.0044109756, 0.0043596844, 0.004287481, 0.004513018, 0.0042874827, 0.0044549736, 0.004543538, 0.004287481, 0.0045913993, 0.004349018, 0.004287481, 0.0046660574, 0.004349009, 0.004287481, 0.0050075576, 0.004287481, 0.0043796287, 0.004287481, 0.004287481, 0.004287481, 0.004287481, 0.004287481, 0.004287481, 0.0043922374, 0.004287481, 0.004287481, 0.0044113672, 0.0044550207, 0.004536873, 0.0046339226, 0.0044797724, 0.004287481, 0.0044481913, 0.004305653, 0.0042875186, 0.004287481, 0.0043039112, 0.004287481, 0.004287481, 0.004287481, 0.004287481, 0.004435748, 0.0043922397, 0.004287481, 0.004287481, 0.004402894, 0.004287481, 0.004403102, 0.004287481, 0.004349025, 0.004287481, 0.0045237597, 0.004392176, 0.004499164, 0.0043057255, 0.00434858, 0.0044795293, 0.004568514, 0.004378392, 0.0043675574, 0.0044250125, 0.004287481, 0.004287481, 0.0042874827, 0.004287481, 0.004287481, 0.004446653, 0.004479796, 0.004287481, 0.004287481, 0.004287481, 0.004287481, 0.004435632, 0.004287481, 0.004287481, 0.004287482, 0.0044795303, 0.004287481, 0.004349088, 0.004512811, 0.0044686017, 0.004349181, 0.0044030445, 0.004287481, 0.004287481, 0.004349099, 0.004287481, 0.004287481, 0.0043490506, 0.004287484, 0.004287481, 0.004392209, 0.004287481, 0.004287481, 0.0044991826, 0.0043057157, 0.004584124, 0.004287482, 0.0044108774, 0.004479629, 0.004287481, 0.004287481, 0.004287481, 0.004590982, 0.004287495, 0.004287481, 0.004287481, 0.004287481, 0.004411298, 0.0044029932, 0.004287481, 0.004499148, 0.004287481, 0.004287481, 0.004349071, 0.004500072, 0.004455067, 0.004287481, 0.004287481, 0.004305642, 0.004287481, 0.004287481, 0.004287481, 0.004287481, 0.004435805, 0.0043491055, 0.0045739287, 0.004287481, 0.004287481, 0.004287481, 0.004392254, 0.004435798, 0.004287481, 0.0044796444, 0.004287481, 0.004287481, 0.004287481, 0.004287481, 0.004287481, 0.004287481, 0.0042874827, 0.0042874855, 0.0044357483, 0.0045237956, 0.004287481, 0.004349015, 0.0044466867, 0.004287481, 0.004287481, 0.004287481, 0.004287481, 0.0044299685, 0.004570301, 0.0043923235, 0.004287481, 0.0044991546, 0.004710557, 0.004287481, 0.004287482, 0.004287481, 0.004287481, 0.004318207, 0.004287481, 0.004392176, 0.004579337, 0.004287481, 0.004392209, 0.0043491065, 0.004287481, 0.004287481, 0.004349003, 0.004287481, 0.004287484, 0.004479724, 0.004287481, 0.004287481, 0.00434923, 0.004287481, 0.0044552153, 0.004287481, 0.004479987, 0.004287481]
2021-05-15 14:50:52,769 : DEBUG : updating topics
2021-05-15 14:50:52,786 : INFO : topic #220 (0.004): 0.001*"failure" + 0.001*"crispr" + 0.001*"policy" + 0.001*"key" + 0.001*"ineffective" + 0.001*"guideline" + 0.001*"partial" + 0.001*"embryo" + 0.001*"1803–1854" + 0.001*"newport"
2021-05-15 14:50:52,786 : INFO : topic #117 (0.004): 0.001*"failure" + 0.001*"crispr" + 0.001*"policy" + 0.001*"key" + 0.001*"ineffective" + 0.001*"guideline" + 0.001*"partial" + 0.001*"embryo" + 0.001*"1803–1854" + 0.001*"newport"
2021-05-15 14:50:52,786 : INFO : topic #17 (0.005): 0.306*"account" + 0.209*"cultural" + 0.108*"theory" + 0.105*"evolutionary" + 0.105*"need" + 0.054*"information" + 0.000*"ineffective" + 0.000*"failure" + 0.000*"policy" + 0.000*"key"
2021-05-15 14:50:52,786 : INFO : topic #40 (0.005): 0.540*"biological" + 0.057*"legislation" + 0.057*"farming" + 0.057*"early" + 0.057*"norwegian" + 0.057*"argumentation" + 0.057*"salmon" + 0.000*"ineffective" + 0.000*"key" + 0.000*"review"
2021-05-15 14:50:52,787 : INFO : topic #57 (0.005): 0.410*"biology" + 0.092*"explanation" + 0.056*"synthetic" + 0.056*"explanatory" + 0.056*"novel" + 0.040*"philosophy" + 0.029*"engineering" + 0.029*"function" + 0.029*"strategy" + 0.029*"reductionists"
2021-05-15 14:50:52,787 : INFO : topic diff=0.011095, rho=0.377964
2021-05-15 14:50:52,804 : DEBUG : bound: at document #0
2021-05-15 14:50:52,859 : INFO : -43.310 per-word bound, 10903887593541.3 perplexity estimate based on a held-out corpus of 233 documents with 3130 words
2021-05-15 14:50:52,859 : INFO : PROGRESS: pass 6, at document #233/233
2021-05-15 14:50:52,859 : DEBUG : performing inference on a chunk of 233 documents
2021-05-15 14:50:52,892 : DEBUG : 233/233 documents converged within 50 iterations
2021-05-15 14:50:52,895 : INFO : optimized alpha [0.0042694462, 0.0045898296, 0.0042694462, 0.0042694462, 0.0046133087, 0.0042694462, 0.004386768, 0.0042694462, 0.004337272, 0.004620646, 0.0042694462, 0.0044560437, 0.0043371757, 0.0042694462, 0.0042694462, 0.0042694462, 0.0042694462, 0.0048007593, 0.004487258, 0.004549132, 0.0045274193, 0.0042757466, 0.004506973, 0.004455519, 0.0042694462, 0.0042694462, 0.0045069014, 0.0044561587, 0.0042874897, 0.0042694462, 0.0042694462, 0.004347848, 0.0042694462, 0.0042694462, 0.0042694462, 0.0042694462, 0.0042694462, 0.0044876, 0.0043869093, 0.0042694462, 0.004777427, 0.0042694462, 0.0042694462, 0.0044054124, 0.0043477463, 0.0042694462, 0.0045275325, 0.0042694476, 0.0044560074, 0.004558067, 0.0042694462, 0.004619826, 0.004337155, 0.0042694462, 0.004708807, 0.004337142, 0.0042694462, 0.005097831, 0.0042694462, 0.0043675466, 0.0042694462, 0.0042694462, 0.0042694462, 0.0042694462, 0.0042694462, 0.0042694462, 0.004386768, 0.0042694462, 0.0042694462, 0.0044058627, 0.0044560544, 0.004558277, 0.004662527, 0.004487487, 0.0042694462, 0.004455974, 0.004287465, 0.0042694802, 0.0042694462, 0.0042857383, 0.0042694462, 0.0042694462, 0.0042694462, 0.0042694462, 0.004436796, 0.0043867696, 0.0042694462, 0.0042694462, 0.004397365, 0.0042694462, 0.004397571, 0.0042694462, 0.004337159, 0.0042694462, 0.004538227, 0.004386698, 0.0045068916, 0.004287537, 0.0043366547, 0.004487219, 0.004589984, 0.0043663685, 0.0043555764, 0.0044261105, 0.0042694462, 0.0042694462, 0.0042694476, 0.0042694462, 0.0042694462, 0.004447662, 0.004487489, 0.0042694462, 0.0042694462, 0.0042694462, 0.0042694462, 0.004436666, 0.0042694462, 0.0042694462, 0.004269447, 0.0044872193, 0.0042694462, 0.00433723, 0.0045272973, 0.0044763177, 0.004337317, 0.0043975236, 0.0042694462, 0.0042694462, 0.0043372484, 0.0042694462, 0.0042694462, 0.0043371855, 0.004269449, 0.0042694462, 0.0043867365, 0.0042694462, 0.0042694462, 0.004506912, 0.004287526, 0.0045986837, 0.004269447, 0.0044053057, 0.0044873264, 0.0042694462, 0.0042694462, 0.0042694462, 0.004619653, 0.004269458, 0.0042694462, 0.0042694462, 0.0042694462, 0.0044057867, 0.004397462, 0.0042694462, 0.0045068683, 0.0042694462, 0.0042694462, 0.0043372083, 0.004507709, 0.0044561066, 0.0042694462, 0.0042694462, 0.0042874524, 0.0042694462, 0.0042694462, 0.0042694462, 0.0042694462, 0.004436857, 0.004337249, 0.0045953086, 0.0042694462, 0.0042694462, 0.0042694462, 0.0043867887, 0.004436862, 0.0042694462, 0.0044873203, 0.0042694462, 0.0042694462, 0.0042694462, 0.0042694462, 0.0042694462, 0.0042694462, 0.0042694476, 0.00426945, 0.0044367975, 0.0045382637, 0.0042694462, 0.0043371543, 0.004447699, 0.0042694462, 0.0042694462, 0.0042694462, 0.0042694462, 0.004424356, 0.004598817, 0.0043868627, 0.0042694462, 0.0045068758, 0.0047465116, 0.0042694462, 0.004269447, 0.0042694462, 0.0042694462, 0.0042999117, 0.0042694462, 0.004386698, 0.004600714, 0.0042694462, 0.0043867365, 0.00433725, 0.0042694462, 0.0042694462, 0.0043371427, 0.0042694462, 0.004269449, 0.004487439, 0.0042694462, 0.0042694462, 0.0043373853, 0.0042694462, 0.004456273, 0.0042694462, 0.0044877324, 0.0042694462]
2021-05-15 14:50:52,895 : DEBUG : updating topics
2021-05-15 14:50:52,912 : INFO : topic #35 (0.004): 0.001*"failure" + 0.001*"crispr" + 0.001*"policy" + 0.001*"key" + 0.001*"ineffective" + 0.001*"guideline" + 0.001*"partial" + 0.001*"embryo" + 0.001*"1803–1854" + 0.001*"newport"
2021-05-15 14:50:52,912 : INFO : topic #149 (0.004): 0.001*"failure" + 0.001*"crispr" + 0.001*"policy" + 0.001*"key" + 0.001*"ineffective" + 0.001*"guideline" + 0.001*"partial" + 0.001*"embryo" + 0.001*"1803–1854" + 0.001*"newport"
2021-05-15 14:50:52,912 : INFO : topic #40 (0.005): 0.550*"biological" + 0.056*"legislation" + 0.056*"farming" + 0.056*"early" + 0.056*"norwegian" + 0.056*"argumentation" + 0.056*"salmon" + 0.000*"ineffective" + 0.000*"key" + 0.000*"review"
2021-05-15 14:50:52,912 : INFO : topic #17 (0.005): 0.309*"account" + 0.209*"cultural" + 0.107*"theory" + 0.105*"evolutionary" + 0.105*"need" + 0.053*"information" + 0.000*"ineffective" + 0.000*"failure" + 0.000*"policy" + 0.000*"key"
2021-05-15 14:50:52,912 : INFO : topic #57 (0.005): 0.414*"biology" + 0.092*"explanation" + 0.056*"explanatory" + 0.056*"synthetic" + 0.056*"novel" + 0.038*"philosophy" + 0.029*"engineering" + 0.029*"function" + 0.029*"strategy" + 0.029*"reductionists"
2021-05-15 14:50:52,913 : INFO : topic diff=0.011249, rho=0.353553
2021-05-15 14:50:52,930 : DEBUG : bound: at document #0
2021-05-15 14:50:52,983 : INFO : -43.235 per-word bound, 10354814628311.1 perplexity estimate based on a held-out corpus of 233 documents with 3130 words
2021-05-15 14:50:52,983 : INFO : PROGRESS: pass 7, at document #233/233
2021-05-15 14:50:52,984 : DEBUG : performing inference on a chunk of 233 documents
2021-05-15 14:50:53,016 : DEBUG : 233/233 documents converged within 50 iterations
2021-05-15 14:50:53,019 : INFO : optimized alpha [0.0042525684, 0.0046099895, 0.0042525684, 0.0042525684, 0.004640195, 0.0042525684, 0.0043816217, 0.0042525684, 0.004326155, 0.0046474193, 0.0042525684, 0.004456998, 0.0043260506, 0.0042525684, 0.0042525684, 0.0042525684, 0.0042525684, 0.004848537, 0.004494471, 0.00456272, 0.004541039, 0.004258818, 0.0045142155, 0.004456435, 0.0042525684, 0.0042525684, 0.0045141545, 0.00445713, 0.004270468, 0.0042525684, 0.0042525684, 0.004336663, 0.0042525684, 0.0042525684, 0.0042525684, 0.0042525684, 0.0042525684, 0.0044948524, 0.004381774, 0.0042525684, 0.0048319856, 0.0042525684, 0.0042525684, 0.004400179, 0.004336553, 0.0042525684, 0.0045411834, 0.0042525697, 0.004456958, 0.0045717293, 0.0042525684, 0.0046532513, 0.004326032, 0.0042525684, 0.004749289, 0.004326015, 0.0042525684, 0.005184014, 0.0042525684, 0.004356218, 0.0042525684, 0.0042525684, 0.0042525684, 0.0042525684, 0.0042525684, 0.0042525684, 0.0043816217, 0.0042525684, 0.0042525684, 0.004400682, 0.0044570104, 0.004578444, 0.0046895216, 0.0044947187, 0.0042525684, 0.0044632535, 0.004270444, 0.0042526014, 0.0042525684, 0.0042687315, 0.0042525684, 0.0042525684, 0.0042525684, 0.0042525684, 0.0044377623, 0.004381623, 0.0042525684, 0.0042525684, 0.004392164, 0.0042525684, 0.0043923655, 0.0042525684, 0.004326033, 0.0042525684, 0.0045518447, 0.0043815444, 0.004514143, 0.004270516, 0.004325472, 0.0044944305, 0.0046101534, 0.0043550893, 0.0043443413, 0.004427124, 0.0042525684, 0.0042525684, 0.0042525697, 0.0042525684, 0.0042525684, 0.0044485955, 0.004494705, 0.0042525684, 0.0042525684, 0.0042525684, 0.0042525684, 0.004437622, 0.0042525684, 0.0042525684, 0.004252569, 0.0044944314, 0.0042525684, 0.004326114, 0.004540924, 0.004483557, 0.0043261917, 0.0043923296, 0.0042525684, 0.0042525684, 0.0043261345, 0.0042525684, 0.0042525684, 0.0043260604, 0.0042525707, 0.0042525684, 0.004381588, 0.0042525684, 0.0042525684, 0.004514164, 0.0042705038, 0.0046123713, 0.004252569, 0.0044000675, 0.004494547, 0.0042525684, 0.0042525684, 0.0042525684, 0.0046464317, 0.004252581, 0.0042525684, 0.0042525684, 0.0042525684, 0.0044005993, 0.0043923254, 0.0042525684, 0.0045141093, 0.0042525684, 0.0042525684, 0.004326087, 0.004514871, 0.004457063, 0.0042525684, 0.0042525684, 0.0042704316, 0.0042525684, 0.0042525684, 0.0042525684, 0.0042525684, 0.004437829, 0.00432613, 0.004615455, 0.0042525684, 0.0042525684, 0.0042525684, 0.004381649, 0.004437844, 0.0042525684, 0.004488093, 0.0042525684, 0.0042525684, 0.0042525684, 0.0042525684, 0.0042525684, 0.0042525684, 0.0042525697, 0.004252571, 0.0044377632, 0.0045518684, 0.0042525684, 0.004326035, 0.0044486336, 0.0042525684, 0.0042525684, 0.0042525684, 0.0042525684, 0.004419078, 0.004625629, 0.0043817256, 0.0042525684, 0.0045141187, 0.004780478, 0.0042525684, 0.004252569, 0.0042525684, 0.0042525684, 0.004282791, 0.0042525684, 0.0043815444, 0.0046208547, 0.0042525684, 0.004381588, 0.0043261303, 0.0042525684, 0.0042525684, 0.004326022, 0.0042525684, 0.0042525707, 0.0044946778, 0.0042525684, 0.0042525684, 0.0043262797, 0.0042525684, 0.004457248, 0.0042525684, 0.0044949953, 0.0042525684]
2021-05-15 14:50:53,019 : DEBUG : updating topics
2021-05-15 14:50:53,036 : INFO : topic #218 (0.004): 0.001*"failure" + 0.001*"crispr" + 0.001*"policy" + 0.001*"key" + 0.001*"ineffective" + 0.001*"guideline" + 0.001*"partial" + 0.001*"embryo" + 0.001*"1803–1854" + 0.001*"newport"
2021-05-15 14:50:53,036 : INFO : topic #172 (0.004): 0.001*"failure" + 0.001*"crispr" + 0.001*"policy" + 0.001*"key" + 0.001*"ineffective" + 0.001*"guideline" + 0.001*"partial" + 0.001*"embryo" + 0.001*"1803–1854" + 0.001*"newport"
2021-05-15 14:50:53,036 : INFO : topic #40 (0.005): 0.556*"biological" + 0.055*"legislation" + 0.055*"early" + 0.055*"farming" + 0.055*"norwegian" + 0.055*"argumentation" + 0.055*"salmon" + 0.000*"ineffective" + 0.000*"key" + 0.000*"review"
2021-05-15 14:50:53,036 : INFO : topic #17 (0.005): 0.311*"account" + 0.209*"cultural" + 0.106*"theory" + 0.105*"evolutionary" + 0.105*"need" + 0.053*"information" + 0.000*"ineffective" + 0.000*"failure" + 0.000*"policy" + 0.000*"key"
2021-05-15 14:50:53,037 : INFO : topic #57 (0.005): 0.416*"biology" + 0.092*"explanation" + 0.056*"explanatory" + 0.056*"synthetic" + 0.056*"novel" + 0.036*"philosophy" + 0.028*"engineering" + 0.028*"function" + 0.028*"strategy" + 0.028*"reductionists"
2021-05-15 14:50:53,037 : INFO : topic diff=0.011782, rho=0.333333
2021-05-15 14:50:53,053 : DEBUG : bound: at document #0
2021-05-15 14:50:53,109 : INFO : -43.167 per-word bound, 9875648681023.4 perplexity estimate based on a held-out corpus of 233 documents with 3130 words
2021-05-15 14:50:53,109 : INFO : PROGRESS: pass 8, at document #233/233
2021-05-15 14:50:53,109 : DEBUG : performing inference on a chunk of 233 documents
2021-05-15 14:50:53,140 : DEBUG : 233/233 documents converged within 50 iterations
2021-05-15 14:50:53,143 : INFO : optimized alpha [0.0042366693, 0.004629102, 0.0042366693, 0.0042366693, 0.004665726, 0.0042366693, 0.004376752, 0.0042366693, 0.0043156645, 0.0046728426, 0.0042366693, 0.004457884, 0.004315551, 0.0042366693, 0.0042366693, 0.0042366693, 0.0042366693, 0.0048940824, 0.004501283, 0.004575581, 0.0045539276, 0.0042428705, 0.004521051, 0.004457283, 0.0042366693, 0.0042366693, 0.0045209946, 0.0044580223, 0.004254433, 0.0042366693, 0.0042366693, 0.004326106, 0.0042366693, 0.0042366693, 0.0042366693, 0.0042366693, 0.0042366693, 0.0045016985, 0.004376915, 0.0042366693, 0.004884087, 0.0042366693, 0.0042366693, 0.0043952256, 0.004325989, 0.0042366693, 0.004554102, 0.004236671, 0.0044578398, 0.004584658, 0.0042366693, 0.0046850573, 0.0043155327, 0.0042366693, 0.004787844, 0.004315513, 0.0042366693, 0.005266751, 0.0042366693, 0.00434553, 0.0042366693, 0.0042366693, 0.0042366693, 0.0042366693, 0.0042366693, 0.0042366693, 0.004376752, 0.0042366693, 0.0042366693, 0.0043957797, 0.004457896, 0.004597567, 0.0047151526, 0.0045015467, 0.0042366693, 0.0044701304, 0.004254411, 0.004236701, 0.0042366693, 0.0042527104, 0.0042366693, 0.0042366693, 0.0042366693, 0.0042366693, 0.004438661, 0.004376754, 0.0042366693, 0.0042366693, 0.0043872395, 0.0042366693, 0.0043874397, 0.0042366693, 0.00431553, 0.0042366693, 0.004564722, 0.0043766685, 0.004520986, 0.004254482, 0.004314916, 0.0045012366, 0.0046293307, 0.0043444214, 0.004333738, 0.004428065, 0.0042366693, 0.0042366693, 0.004236671, 0.0042366693, 0.0042366693, 0.0044494867, 0.004501537, 0.0042366693, 0.0042366693, 0.0042366693, 0.0042366693, 0.004438509, 0.0042366693, 0.0042366693, 0.0042366697, 0.0045012375, 0.0042366693, 0.0043156194, 0.0045538195, 0.0044903895, 0.0043156915, 0.0043874127, 0.0042366693, 0.0042366693, 0.0043156445, 0.0042366693, 0.0042366693, 0.0043155598, 0.0042366716, 0.0042366693, 0.004376713, 0.0042366693, 0.0042366693, 0.0045210095, 0.00425447, 0.004625323, 0.0042366697, 0.004395109, 0.004501365, 0.0042366693, 0.0042366693, 0.0042366693, 0.0046718633, 0.0042366814, 0.0042366693, 0.0042366693, 0.0042366693, 0.0043956917, 0.004387401, 0.0042366693, 0.004520946, 0.0042366693, 0.0042366693, 0.004315592, 0.004521633, 0.004457953, 0.0042366693, 0.0042366693, 0.004254399, 0.0042366693, 0.0042366693, 0.0042366693, 0.0042366693, 0.0044387337, 0.004315635, 0.0046345545, 0.0042366693, 0.0042366693, 0.0042366693, 0.004376783, 0.0044387565, 0.0042366693, 0.0044888156, 0.0042366693, 0.0042366693, 0.0042366693, 0.0042366693, 0.0042366693, 0.0042366693, 0.004236671, 0.004236672, 0.004438662, 0.0045647444, 0.0042366693, 0.0043155383, 0.0044495007, 0.0042366693, 0.0042366693, 0.0042366693, 0.0042366693, 0.0044140816, 0.004651077, 0.0043768613, 0.0042366693, 0.004520957, 0.004812776, 0.0042366693, 0.0042366697, 0.0042366693, 0.0042366693, 0.0042666653, 0.0042366693, 0.0043766685, 0.0046399496, 0.0042366693, 0.004376713, 0.0043156357, 0.0042366693, 0.0042366693, 0.0043155267, 0.0042366693, 0.0042366716, 0.0045015123, 0.0042366693, 0.0042366693, 0.004315796, 0.0042366693, 0.004458153, 0.0042366693, 0.0045018555, 0.0042366693]
2021-05-15 14:50:53,144 : DEBUG : updating topics
2021-05-15 14:50:53,161 : INFO : topic #30 (0.004): 0.001*"failure" + 0.001*"crispr" + 0.001*"policy" + 0.001*"key" + 0.001*"ineffective" + 0.001*"guideline" + 0.001*"partial" + 0.001*"embryo" + 0.001*"1803–1854" + 0.001*"newport"
2021-05-15 14:50:53,161 : INFO : topic #7 (0.004): 0.001*"failure" + 0.001*"crispr" + 0.001*"policy" + 0.001*"key" + 0.001*"ineffective" + 0.001*"guideline" + 0.001*"partial" + 0.001*"embryo" + 0.001*"1803–1854" + 0.001*"newport"
2021-05-15 14:50:53,161 : INFO : topic #40 (0.005): 0.561*"biological" + 0.054*"legislation" + 0.054*"farming" + 0.054*"early" + 0.054*"norwegian" + 0.054*"argumentation" + 0.054*"salmon" + 0.000*"ineffective" + 0.000*"key" + 0.000*"review"
2021-05-15 14:50:53,161 : INFO : topic #17 (0.005): 0.312*"account" + 0.209*"cultural" + 0.106*"theory" + 0.105*"evolutionary" + 0.105*"need" + 0.053*"information" + 0.000*"ineffective" + 0.000*"failure" + 0.000*"policy" + 0.000*"key"
2021-05-15 14:50:53,161 : INFO : topic #57 (0.005): 0.417*"biology" + 0.092*"explanation" + 0.056*"explanatory" + 0.056*"synthetic" + 0.056*"novel" + 0.035*"philosophy" + 0.028*"engineering" + 0.028*"function" + 0.028*"strategy" + 0.028*"reductionists"
2021-05-15 14:50:53,162 : INFO : topic diff=0.012015, rho=0.316228
2021-05-15 14:50:53,179 : DEBUG : bound: at document #0
2021-05-15 14:50:53,233 : INFO : -43.105 per-word bound, 9459842919434.1 perplexity estimate based on a held-out corpus of 233 documents with 3130 words
2021-05-15 14:50:53,233 : INFO : PROGRESS: pass 9, at document #233/233
2021-05-15 14:50:53,233 : DEBUG : performing inference on a chunk of 233 documents
2021-05-15 14:50:53,266 : DEBUG : 233/233 documents converged within 50 iterations
2021-05-15 14:50:53,269 : INFO : optimized alpha [0.004221611, 0.0046473136, 0.004221611, 0.004221611, 0.004690089, 0.004221611, 0.004372119, 0.004221611, 0.004305711, 0.0046971017, 0.004221611, 0.0044587115, 0.0043055885, 0.004221611, 0.004221611, 0.004221611, 0.004221611, 0.00493772, 0.004507747, 0.0045878137, 0.0045661908, 0.0042277668, 0.0045275474, 0.0044580754, 0.004221611, 0.004221611, 0.0045274864, 0.0044588544, 0.0042392467, 0.004221611, 0.004221611, 0.00431609, 0.004221611, 0.004221611, 0.004221611, 0.004221611, 0.004221611, 0.004508196, 0.0043722894, 0.004221611, 0.0049340385, 0.004221611, 0.004221611, 0.0043905135, 0.0043159663, 0.004221611, 0.0045663915, 0.0042216126, 0.004458666, 0.0045969565, 0.004221611, 0.00471546, 0.0043055713, 0.004221611, 0.00482474, 0.0043055504, 0.004221611, 0.0053465213, 0.004221611, 0.0043353876, 0.004221611, 0.004221611, 0.004221611, 0.004221611, 0.004221611, 0.004221611, 0.004372118, 0.004221611, 0.004221611, 0.004391114, 0.0044587255, 0.004615834, 0.0047396123, 0.0045080874, 0.004221611, 0.0044767326, 0.0042392267, 0.00422164, 0.004221611, 0.0042375373, 0.004221611, 0.004221611, 0.004221611, 0.004221611, 0.004439501, 0.0043721213, 0.004221611, 0.004221611, 0.004382556, 0.004221611, 0.00438275, 0.004221611, 0.0043055657, 0.004221611, 0.0045769713, 0.004372028, 0.004527482, 0.0042392975, 0.0043049026, 0.004507698, 0.0046475492, 0.004334368, 0.004323678, 0.0044289473, 0.004221611, 0.004221611, 0.0042216126, 0.004221611, 0.004221611, 0.004450299, 0.004508003, 0.004221611, 0.004221611, 0.004221611, 0.004221611, 0.004439487, 0.004221611, 0.004221611, 0.0042216117, 0.004507699, 0.004221611, 0.004305666, 0.0045660855, 0.004496875, 0.0043057287, 0.0043827347, 0.004221611, 0.004221611, 0.004305693, 0.004221611, 0.004221611, 0.004305599, 0.004221613, 0.004221611, 0.0043720743, 0.004221611, 0.004221611, 0.0045275073, 0.004239284, 0.004637641, 0.0042216117, 0.00439039, 0.0045078355, 0.004221611, 0.004221611, 0.004221611, 0.00469621, 0.0042216214, 0.004221611, 0.004221611, 0.004221611, 0.004391022, 0.0043827174, 0.004221611, 0.004527435, 0.004221611, 0.004221611, 0.0043056337, 0.00452805, 0.0044587827, 0.004221611, 0.004221611, 0.004239213, 0.004221611, 0.004221611, 0.004221611, 0.004221611, 0.0044395784, 0.00430568, 0.0046527507, 0.004221611, 0.004221611, 0.004221611, 0.004372152, 0.004439611, 0.004221611, 0.00448948, 0.004221611, 0.004221611, 0.004221611, 0.004221611, 0.004221611, 0.004221611, 0.0042216126, 0.0042216135, 0.004439502, 0.004576994, 0.004221611, 0.00430558, 0.004450309, 0.004221611, 0.004221611, 0.004221611, 0.004221611, 0.004409329, 0.0046753483, 0.004372232, 0.004221611, 0.0045274463, 0.0048436346, 0.004221611, 0.0042216117, 0.004221611, 0.004221611, 0.0042513916, 0.004221611, 0.004372028, 0.004658144, 0.004221611, 0.0043720743, 0.0043056803, 0.004221611, 0.004221611, 0.004305568, 0.004221611, 0.004221613, 0.004507998, 0.004221611, 0.004221611, 0.004305851, 0.004221611, 0.004459, 0.004221611, 0.0045083645, 0.004221611]
2021-05-15 14:50:53,269 : DEBUG : updating topics
2021-05-15 14:50:53,286 : INFO : topic #74 (0.004): 0.001*"failure" + 0.001*"crispr" + 0.001*"policy" + 0.001*"key" + 0.001*"ineffective" + 0.001*"guideline" + 0.001*"partial" + 0.001*"embryo" + 0.001*"1803–1854" + 0.001*"newport"
2021-05-15 14:50:53,286 : INFO : topic #67 (0.004): 0.001*"failure" + 0.001*"crispr" + 0.001*"policy" + 0.001*"key" + 0.001*"ineffective" + 0.001*"guideline" + 0.001*"partial" + 0.001*"embryo" + 0.001*"1803–1854" + 0.001*"newport"
2021-05-15 14:50:53,287 : INFO : topic #17 (0.005): 0.312*"account" + 0.209*"cultural" + 0.105*"theory" + 0.105*"evolutionary" + 0.105*"need" + 0.053*"information" + 0.000*"ineffective" + 0.000*"failure" + 0.000*"policy" + 0.000*"key"
2021-05-15 14:50:53,287 : INFO : topic #40 (0.005): 0.564*"biological" + 0.054*"legislation" + 0.054*"farming" + 0.054*"early" + 0.054*"norwegian" + 0.054*"argumentation" + 0.054*"salmon" + 0.000*"ineffective" + 0.000*"key" + 0.000*"review"
2021-05-15 14:50:53,287 : INFO : topic #57 (0.005): 0.418*"biology" + 0.092*"explanation" + 0.056*"explanatory" + 0.056*"synthetic" + 0.056*"novel" + 0.034*"philosophy" + 0.028*"strategy" + 0.028*"function" + 0.028*"engineering" + 0.028*"genetic"
2021-05-15 14:50:53,287 : INFO : topic diff=0.011893, rho=0.301511
2021-05-15 14:50:53,295 : DEBUG : starting a new internal lifecycle event log for LdaModel
2021-05-15 14:50:53,296 : INFO : LdaModel lifecycle event {'msg': 'trained LdaModel(num_terms=960, num_topics=225, decay=0.5, chunksize=2000) in 1.32s', 'datetime': '2021-05-15T14:50:53.295923', 'gensim': '4.0.1', 'python': '3.9.4 (default, Apr 20 2021, 15:51:38) \n[GCC 10.2.0]', 'platform': 'Linux-5.11.16-arch1-1-x86_64-with-glibc2.33', 'event': 'created'}
2021-05-15 14:50:53,367 : DEBUG : Setting topics to those of the model: LdaModel(num_terms=960, num_topics=225, decay=0.5, chunksize=2000)
2021-05-15 14:50:53,491 : INFO : COHERENCE: -16.363885704769988
2021-05-15 14:51:59,883 : INFO : MATCH PERCENT: 0.6419885550786838
