2021-05-15 15:04:42,529 : INFO : loading gigaword model
2021-05-15 15:04:42,818 : INFO : loading projection weights from /home/cpence/.cache/gensim-data/glove-wiki-gigaword-300/glove-wiki-gigaword-300.gz
2021-05-15 15:04:42,819 : DEBUG : {'uri': '/home/cpence/.cache/gensim-data/glove-wiki-gigaword-300/glove-wiki-gigaword-300.gz', 'mode': 'rb', 'buffering': -1, 'encoding': None, 'errors': None, 'newline': None, 'closefd': True, 'opener': None, 'ignore_ext': False, 'transport_params': None}
2021-05-15 15:05:35,556 : DEBUG : starting a new internal lifecycle event log for KeyedVectors
2021-05-15 15:05:35,556 : INFO : KeyedVectors lifecycle event {'msg': 'loaded (400000, 300) matrix of type float32 from /home/cpence/.cache/gensim-data/glove-wiki-gigaword-300/glove-wiki-gigaword-300.gz', 'binary': False, 'encoding': 'utf8', 'datetime': '2021-05-15T15:05:35.537294', 'gensim': '4.0.1', 'python': '3.9.4 (default, Apr 20 2021, 15:51:38) \n[GCC 10.2.0]', 'platform': 'Linux-5.11.16-arch1-1-x86_64-with-glibc2.33', 'event': 'load_word2vec_format'}
2021-05-15 15:05:35,557 : INFO : adding document #0 to Dictionary(0 unique tokens: [])
2021-05-15 15:05:35,611 : INFO : built Dictionary(8539 unique tokens: ['accidental', 'account', 'agency', 'agential', 'al']...) from 233 documents (total 79102 corpus positions)
2021-05-15 15:05:35,611 : DEBUG : starting a new internal lifecycle event log for Dictionary
2021-05-15 15:05:35,611 : INFO : Dictionary lifecycle event {'msg': "built Dictionary(8539 unique tokens: ['accidental', 'account', 'agency', 'agential', 'al']...) from 233 documents (total 79102 corpus positions)", 'datetime': '2021-05-15T15:05:35.611655', 'gensim': '4.0.1', 'python': '3.9.4 (default, Apr 20 2021, 15:51:38) \n[GCC 10.2.0]', 'platform': 'Linux-5.11.16-arch1-1-x86_64-with-glibc2.33', 'event': 'created'}
2021-05-15 15:05:35,646 : INFO : constructing a sparse term similarity matrix using WordEmbeddingSimilarityIndex(keyedvectors=<gensim.models.keyedvectors.KeyedVectors object at 0x7efe06f7b790>, threshold=0.0, exponent=2.0, kwargs={})
2021-05-15 15:05:35,646 : INFO : iterating over columns in dictionary order
2021-05-15 15:05:36,440 : DEBUG : an out-of-dictionary term "agential"
2021-05-15 15:05:36,628 : DEBUG : an out-of-dictionary term "anorganism"
2021-05-15 15:05:39,219 : DEBUG : an out-of-dictionary term "fundamentality"
2021-05-15 15:05:39,952 : DEBUG : an out-of-dictionary term "laland"
2021-05-15 15:05:42,573 : DEBUG : an out-of-dictionary term "sterelny"
2021-05-15 15:05:49,235 : DEBUG : an out-of-dictionary term "sedimented"
2021-05-15 15:05:49,713 : DEBUG : an out-of-dictionary term "splicings"
2021-05-15 15:05:57,481 : DEBUG : an out-of-dictionary term "causalist"
2021-05-15 15:05:57,481 : DEBUG : an out-of-dictionary term "causalists"
2021-05-15 15:05:58,674 : DEBUG : an out-of-dictionary term "fitnesses"
2021-05-15 15:06:01,019 : DEBUG : an out-of-dictionary term "statisticalist"
2021-05-15 15:06:01,020 : DEBUG : an out-of-dictionary term "statisticalists"
2021-05-15 15:06:04,012 : DEBUG : an out-of-dictionary term "individualities"
2021-05-15 15:06:18,085 : DEBUG : an out-of-dictionary term "bypolitical"
2021-05-15 15:06:20,873 : DEBUG : an out-of-dictionary term "tannophilic"
2021-05-15 15:06:21,035 : DEBUG : an out-of-dictionary term "tumoral"
2021-05-15 15:06:22,466 : DEBUG : an out-of-dictionary term "dynamicity"
2021-05-15 15:06:23,222 : DEBUG : an out-of-dictionary term "haeckelian"
2021-05-15 15:06:23,594 : DEBUG : an out-of-dictionary term "monera"
2021-05-15 15:06:23,594 : DEBUG : an out-of-dictionary term "moneron"
2021-05-15 15:06:23,973 : DEBUG : an out-of-dictionary term "plastidules"
2021-05-15 15:06:25,420 : DEBUG : an out-of-dictionary term "zammito"
2021-05-15 15:06:26,835 : DEBUG : an out-of-dictionary term "cytologists"
2021-05-15 15:06:27,470 : DEBUG : an out-of-dictionary term "exegeses"
2021-05-15 15:06:27,653 : DEBUG : an out-of-dictionary term "famyntsin"
2021-05-15 15:06:29,578 : DEBUG : an out-of-dictionary term "mereschkowsky"
2021-05-15 15:06:29,980 : DEBUG : an out-of-dictionary term "oparin"
2021-05-15 15:06:30,574 : DEBUG : an out-of-dictionary term "redivivus"
2021-05-15 15:06:30,762 : DEBUG : an out-of-dictionary term "schwenderer"
2021-05-15 15:06:31,310 : DEBUG : an out-of-dictionary term "symbiogenesis"
2021-05-15 15:06:31,310 : DEBUG : an out-of-dictionary term "symbiogenic"
2021-05-15 15:06:31,351 : DEBUG : an out-of-dictionary term "symbionticism"
2021-05-15 15:06:31,447 : DEBUG : an out-of-dictionary term "symbiotismus"
2021-05-15 15:06:34,844 : DEBUG : an out-of-dictionary term "oughtnot"
2021-05-15 15:06:37,724 : DEBUG : an out-of-dictionary term "giaour"
2021-05-15 15:06:40,991 : DEBUG : an out-of-dictionary term "ideathat"
2021-05-15 15:06:41,623 : DEBUG : an out-of-dictionary term "microbiotic"
2021-05-15 15:06:42,486 : DEBUG : an out-of-dictionary term "superorganisms"
2021-05-15 15:06:42,759 : DEBUG : an out-of-dictionary term "tocell"
2021-05-15 15:06:44,367 : DEBUG : an out-of-dictionary term "immunostaining"
2021-05-15 15:06:45,991 : DEBUG : an out-of-dictionary term "surrogative"
2021-05-15 15:06:46,608 : DEBUG : an out-of-dictionary term "aristotelean"
2021-05-15 15:06:47,721 : DEBUG : an out-of-dictionary term "metaethical"
2021-05-15 15:06:54,003 : DEBUG : an out-of-dictionary term "eliminativism"
2021-05-15 15:06:54,004 : DEBUG : an out-of-dictionary term "eliminativist"
2021-05-15 15:06:55,533 : DEBUG : an out-of-dictionary term "physicalist"
2021-05-15 15:06:58,184 : DEBUG : an out-of-dictionary term "mesoudi"
2021-05-15 15:07:00,131 : DEBUG : an out-of-dictionary term "indigeneity"
2021-05-15 15:07:00,281 : DEBUG : an out-of-dictionary term "karitiana"
2021-05-15 15:07:03,464 : DEBUG : an out-of-dictionary term "mindreading"
2021-05-15 15:07:04,447 : DEBUG : an out-of-dictionary term "underdetermines"
2021-05-15 15:07:06,985 : DEBUG : an out-of-dictionary term "mikolov"
2021-05-15 15:07:07,573 : DEBUG : an out-of-dictionary term "phenetics"
2021-05-15 15:07:10,679 : DEBUG : an out-of-dictionary term "moresturdy"
2021-05-15 15:07:12,250 : DEBUG : an out-of-dictionary term "cibale"
2021-05-15 15:07:12,391 : DEBUG : an out-of-dictionary term "consolidatum"
2021-05-15 15:07:12,520 : DEBUG : an out-of-dictionary term "crisciani"
2021-05-15 15:07:12,979 : DEBUG : an out-of-dictionary term "fluens"
2021-05-15 15:07:13,453 : DEBUG : an out-of-dictionary term "humidum"
2021-05-15 15:07:13,637 : DEBUG : an out-of-dictionary term "jacquart"
2021-05-15 15:07:13,730 : DEBUG : an out-of-dictionary term "marinozzi"
2021-05-15 15:07:13,731 : DEBUG : an out-of-dictionary term "mcvaugh"
2021-05-15 15:07:13,864 : DEBUG : an out-of-dictionary term "moistures"
2021-05-15 15:07:13,911 : DEBUG : an out-of-dictionary term "naturalia"
2021-05-15 15:07:13,913 : DEBUG : an out-of-dictionary term "nutrimental"
2021-05-15 15:07:13,914 : DEBUG : an out-of-dictionary term "nutrimentale"
2021-05-15 15:07:18,040 : DEBUG : an out-of-dictionary term "visualises"
2021-05-15 15:07:18,433 : DEBUG : an out-of-dictionary term "ascriptions"
2021-05-15 15:07:19,745 : DEBUG : an out-of-dictionary term "kindhood"
2021-05-15 15:07:22,565 : DEBUG : an out-of-dictionary term "docmcstuffins"
2021-05-15 15:07:23,851 : DEBUG : an out-of-dictionary term "gendering"
2021-05-15 15:07:24,575 : DEBUG : an out-of-dictionary term "labcoats"
2021-05-15 15:07:27,225 : DEBUG : an out-of-dictionary term "stemettes"
2021-05-15 15:07:33,263 : DEBUG : an out-of-dictionary term "underspecific"
2021-05-15 15:07:34,827 : DEBUG : an out-of-dictionary term "thissocio"
2021-05-15 15:07:38,628 : DEBUG : an out-of-dictionary term "anthropo_phages"
2021-05-15 15:07:38,816 : DEBUG : an out-of-dictionary term "brives"
2021-05-15 15:07:40,659 : DEBUG : an out-of-dictionary term "survivalof"
2021-05-15 15:07:41,068 : DEBUG : an out-of-dictionary term "almeling"
2021-05-15 15:07:49,540 : DEBUG : an out-of-dictionary term "ampd"
2021-05-15 15:07:50,768 : DEBUG : an out-of-dictionary term "livesley"
2021-05-15 15:07:51,486 : DEBUG : an out-of-dictionary term "shedler"
2021-05-15 15:07:51,839 : DEBUG : an out-of-dictionary term "typal"
2021-05-15 15:07:56,974 : DEBUG : an out-of-dictionary term "upregulating"
2021-05-15 15:07:57,370 : DEBUG : an out-of-dictionary term "changeux"
2021-05-15 15:07:59,200 : DEBUG : an out-of-dictionary term "spinozism"
2021-05-15 15:07:59,909 : DEBUG : an out-of-dictionary term "deducible"
2021-05-15 15:08:00,103 : DEBUG : an out-of-dictionary term "interlevel"
2021-05-15 15:08:00,597 : DEBUG : an out-of-dictionary term "mossio"
2021-05-15 15:08:00,912 : DEBUG : an out-of-dictionary term "reducctionist"
2021-05-15 15:08:01,001 : DEBUG : an out-of-dictionary term "saborido"
2021-05-15 15:08:01,905 : DEBUG : an out-of-dictionary term "exposome"
2021-05-15 15:08:02,400 : DEBUG : an out-of-dictionary term "omic"
2021-05-15 15:08:02,533 : DEBUG : an out-of-dictionary term "postgenomic"
2021-05-15 15:08:02,535 : DEBUG : an out-of-dictionary term "postgenomics"
2021-05-15 15:08:02,775 : DEBUG : an out-of-dictionary term "thegenomic"
2021-05-15 15:08:04,055 : DEBUG : an out-of-dictionary term "keepinginto"
2021-05-15 15:08:04,459 : DEBUG : an out-of-dictionary term "replicability"
2021-05-15 15:08:05,547 : DEBUG : an out-of-dictionary term "brasiliae"
2021-05-15 15:08:05,690 : DEBUG : an out-of-dictionary term "durée"
2021-05-15 15:08:05,919 : DEBUG : an out-of-dictionary term "guldi"
2021-05-15 15:08:05,919 : DEBUG : an out-of-dictionary term "hexameron"
2021-05-15 15:08:06,252 : DEBUG : an out-of-dictionary term "magalotti"
2021-05-15 15:08:06,360 : DEBUG : an out-of-dictionary term "marcgrave"
2021-05-15 15:08:06,626 : DEBUG : an out-of-dictionary term "physiologus"
2021-05-15 15:08:07,382 : DEBUG : an out-of-dictionary term "becauseit"
2021-05-15 15:08:07,795 : DEBUG : an out-of-dictionary term "elowitz"
2021-05-15 15:08:08,168 : DEBUG : an out-of-dictionary term "heams"
2021-05-15 15:08:08,337 : DEBUG : an out-of-dictionary term "isogenic"
2021-05-15 15:08:08,376 : DEBUG : an out-of-dictionary term "kærn"
2021-05-15 15:08:08,573 : DEBUG : an out-of-dictionary term "morizot"
2021-05-15 15:08:08,799 : DEBUG : an out-of-dictionary term "pipel"
2021-05-15 15:08:09,079 : DEBUG : an out-of-dictionary term "stochasticity"
2021-05-15 15:08:09,515 : DEBUG : an out-of-dictionary term "historicize"
2021-05-15 15:08:10,550 : DEBUG : an out-of-dictionary term "zallinger"
2021-05-15 15:08:10,729 : DEBUG : an out-of-dictionary term "dimensionalism"
2021-05-15 15:08:10,859 : DEBUG : an out-of-dictionary term "evolverons"
2021-05-15 15:08:11,044 : DEBUG : an out-of-dictionary term "homonimous"
2021-05-15 15:08:11,184 : DEBUG : an out-of-dictionary term "perdurance"
2021-05-15 15:08:11,184 : DEBUG : an out-of-dictionary term "phylons"
2021-05-15 15:08:11,230 : DEBUG : an out-of-dictionary term "showingthat"
2021-05-15 15:08:11,430 : DEBUG : an out-of-dictionary term "triviño"
2021-05-15 15:08:12,085 : DEBUG : an out-of-dictionary term "giret"
2021-05-15 15:08:12,958 : DEBUG : an out-of-dictionary term "referentiality"
2021-05-15 15:08:15,421 : DEBUG : an out-of-dictionary term "bichatʼs"
2021-05-15 15:08:16,198 : DEBUG : an out-of-dictionary term "physiologiques"
2021-05-15 15:08:16,500 : DEBUG : an out-of-dictionary term "zoophyte"
2021-05-15 15:08:16,550 : DEBUG : an out-of-dictionary term "changeunder"
2021-05-15 15:08:16,978 : DEBUG : an out-of-dictionary term "kuhnian"
2021-05-15 15:08:17,029 : DEBUG : an out-of-dictionary term "meiland"
2021-05-15 15:08:17,782 : DEBUG : an out-of-dictionary term "universalizable"
2021-05-15 15:08:18,517 : DEBUG : an out-of-dictionary term "complicationsof"
2021-05-15 15:08:19,303 : DEBUG : an out-of-dictionary term "independencies"
2021-05-15 15:08:22,736 : DEBUG : an out-of-dictionary term "qpcr"
2021-05-15 15:08:23,064 : DEBUG : an out-of-dictionary term "taqman"
2021-05-15 15:08:23,729 : DEBUG : an out-of-dictionary term "determinisms"
2021-05-15 15:08:23,774 : DEBUG : an out-of-dictionary term "dichotomic"
2021-05-15 15:08:23,819 : DEBUG : an out-of-dictionary term "dichotomized"
2021-05-15 15:08:24,004 : DEBUG : an out-of-dictionary term "ensambled"
2021-05-15 15:08:24,130 : DEBUG : an out-of-dictionary term "evodevo"
2021-05-15 15:08:24,455 : DEBUG : an out-of-dictionary term "intrapsychic"
2021-05-15 15:08:24,686 : DEBUG : an out-of-dictionary term "materialisms"
2021-05-15 15:08:25,094 : DEBUG : an out-of-dictionary term "prediscursive"
2021-05-15 15:08:26,790 : DEBUG : an out-of-dictionary term "metahabitat"
2021-05-15 15:08:26,831 : DEBUG : an out-of-dictionary term "metapopulations"
2021-05-15 15:08:27,442 : DEBUG : an out-of-dictionary term "thehabitat"
2021-05-15 15:08:28,056 : DEBUG : an out-of-dictionary term "lawlike"
2021-05-15 15:08:28,060 : DEBUG : an out-of-dictionary term "lawlikeness"
2021-05-15 15:08:28,414 : DEBUG : an out-of-dictionary term "windelband"
2021-05-15 15:08:28,777 : DEBUG : an out-of-dictionary term "cnen"
2021-05-15 15:08:29,795 : DEBUG : an out-of-dictionary term "humanidades"
2021-05-15 15:08:29,886 : DEBUG : an out-of-dictionary term "inin"
2021-05-15 15:08:30,797 : DEBUG : an out-of-dictionary term "relevantin"
2021-05-15 15:08:33,717 : DEBUG : an out-of-dictionary term "evidentialism"
2021-05-15 15:08:33,954 : DEBUG : an out-of-dictionary term "mikhalevich"
2021-05-15 15:08:34,043 : DEBUG : an out-of-dictionary term "nhst"
2021-05-15 15:08:35,906 : DEBUG : an out-of-dictionary term "amots"
2021-05-15 15:08:36,041 : DEBUG : an out-of-dictionary term "befruchtung"
2021-05-15 15:08:36,886 : DEBUG : an out-of-dictionary term "delpino"
2021-05-15 15:08:36,970 : DEBUG : an out-of-dictionary term "dicogamia"
2021-05-15 15:08:37,156 : DEBUG : an out-of-dictionary term "entdeckte"
2021-05-15 15:08:37,403 : DEBUG : an out-of-dictionary term "finalistic"
2021-05-15 15:08:37,530 : DEBUG : an out-of-dictionary term "geheimniss"
2021-05-15 15:08:37,620 : DEBUG : an out-of-dictionary term "hircina"
2021-05-15 15:08:37,793 : DEBUG : an out-of-dictionary term "insekten"
2021-05-15 15:08:38,442 : DEBUG : an out-of-dictionary term "nectarless"
2021-05-15 15:08:38,722 : DEBUG : an out-of-dictionary term "osservazioni"
2021-05-15 15:08:40,366 : DEBUG : an out-of-dictionary term "œconomia"
2021-05-15 15:08:40,655 : DEBUG : an out-of-dictionary term "coadaptation"
2021-05-15 15:08:41,034 : DEBUG : an out-of-dictionary term "holobiont"
2021-05-15 15:08:41,171 : DEBUG : an out-of-dictionary term "interindividual"
2021-05-15 15:08:41,832 : DEBUG : an out-of-dictionary term "symbiontic"
2021-05-15 15:08:43,631 : DEBUG : an out-of-dictionary term "adaptative"
2021-05-15 15:08:43,632 : DEBUG : an out-of-dictionary term "allagmatic"
2021-05-15 15:08:44,969 : DEBUG : an out-of-dictionary term "naturalsciences"
2021-05-15 15:08:45,108 : DEBUG : an out-of-dictionary term "simondon"
2021-05-15 15:08:45,338 : DEBUG : an out-of-dictionary term "transductive"
2021-05-15 15:08:45,339 : DEBUG : an out-of-dictionary term "twoway"
2021-05-15 15:08:45,650 : DEBUG : an out-of-dictionary term "borsboom"
2021-05-15 15:08:47,716 : DEBUG : an out-of-dictionary term "microbiomic"
2021-05-15 15:08:48,670 : DEBUG : an out-of-dictionary term "acquirable"
2021-05-15 15:08:51,299 : DEBUG : an out-of-dictionary term "informatic"
2021-05-15 15:08:52,492 : DEBUG : an out-of-dictionary term "thatnaturalizes"
2021-05-15 15:08:53,490 : DEBUG : an out-of-dictionary term "canadiensis"
2021-05-15 15:08:55,413 : DEBUG : an out-of-dictionary term "multispecies"
2021-05-15 15:08:57,021 : DEBUG : an out-of-dictionary term "animalresearch"
2021-05-15 15:09:00,648 : DEBUG : an out-of-dictionary term "hurle"
2021-05-15 15:09:01,113 : DEBUG : an out-of-dictionary term "puggs"
2021-05-15 15:09:01,297 : DEBUG : an out-of-dictionary term "roczen"
2021-05-15 15:09:02,685 : DEBUG : an out-of-dictionary term "phylogenetical"
2021-05-15 15:09:03,847 : DEBUG : an out-of-dictionary term "subtending"
2021-05-15 15:09:04,739 : DEBUG : an out-of-dictionary term "mostremarkable"
2021-05-15 15:09:05,028 : DEBUG : an out-of-dictionary term "polger"
2021-05-15 15:09:05,510 : DEBUG : an out-of-dictionary term "crispr"
2021-05-15 15:09:05,833 : DEBUG : an out-of-dictionary term "phenogenesis"
2021-05-15 15:09:05,971 : DEBUG : an out-of-dictionary term "reductionists"
2021-05-15 15:09:06,776 : DEBUG : an out-of-dictionary term "gintis"
2021-05-15 15:09:08,187 : DEBUG : an out-of-dictionary term "therole"
2021-05-15 15:09:10,291 : DEBUG : an out-of-dictionary term "measuringthe"
2021-05-15 15:09:11,925 : DEBUG : an out-of-dictionary term "ermer"
2021-05-15 15:09:12,063 : DEBUG : an out-of-dictionary term "litoiu"
2021-05-15 15:09:12,066 : DEBUG : an out-of-dictionary term "litterature"
2021-05-15 15:09:14,359 : DEBUG : an out-of-dictionary term "declerck"
2021-05-15 15:09:14,400 : DEBUG : an out-of-dictionary term "garrud"
2021-05-15 15:09:14,400 : DEBUG : an out-of-dictionary term "gebharter"
2021-05-15 15:09:14,400 : DEBUG : an out-of-dictionary term "harbecke"
2021-05-15 15:09:14,887 : DEBUG : an out-of-dictionary term "parizel"
2021-05-15 15:09:15,609 : DEBUG : an out-of-dictionary term "brunoy"
2021-05-15 15:09:18,065 : DEBUG : an out-of-dictionary term "situatedeness"
2021-05-15 15:09:18,346 : DEBUG : an out-of-dictionary term "startedto"
2021-05-15 15:09:19,384 : DEBUG : an out-of-dictionary term "ariew"
2021-05-15 15:09:20,244 : DEBUG : an out-of-dictionary term "forcehood"
2021-05-15 15:09:20,375 : DEBUG : an out-of-dictionary term "matthen"
2021-05-15 15:09:21,134 : DEBUG : an out-of-dictionary term "heuristicuse"
2021-05-15 15:09:21,181 : DEBUG : an out-of-dictionary term "lewens"
2021-05-15 15:09:21,182 : DEBUG : an out-of-dictionary term "mesodui"
2021-05-15 15:09:22,194 : DEBUG : an out-of-dictionary term "historicizing"
2021-05-15 15:09:23,581 : DEBUG : an out-of-dictionary term "interventionson"
2021-05-15 15:09:23,953 : DEBUG : an out-of-dictionary term "xenografted"
2021-05-15 15:09:25,462 : DEBUG : an out-of-dictionary term "isbringing"
2021-05-15 15:09:26,465 : DEBUG : an out-of-dictionary term "biopolitical"
2021-05-15 15:09:26,847 : DEBUG : an out-of-dictionary term "intrafamilial"
2021-05-15 15:09:26,848 : DEBUG : an out-of-dictionary term "ldlt"
2021-05-15 15:09:26,981 : DEBUG : an out-of-dictionary term "naturalizes"
2021-05-15 15:09:31,056 : DEBUG : an out-of-dictionary term "therelation"
2021-05-15 15:09:31,150 : DEBUG : an out-of-dictionary term "vitalistic"
2021-05-15 15:09:32,709 : DEBUG : an out-of-dictionary term "godffrey"
2021-05-15 15:09:32,849 : DEBUG : an out-of-dictionary term "pradeu"
2021-05-15 15:09:33,887 : DEBUG : an out-of-dictionary term "giere"
2021-05-15 15:09:34,110 : DEBUG : an out-of-dictionary term "markram"
2021-05-15 15:09:36,025 : DEBUG : an out-of-dictionary term "havehad"
2021-05-15 15:09:36,970 : DEBUG : an out-of-dictionary term "reweaving"
2021-05-15 15:09:37,059 : DEBUG : an out-of-dictionary term "selectionist"
2021-05-15 15:09:38,319 : DEBUG : an out-of-dictionary term "supportsthe"
2021-05-15 15:09:39,327 : DEBUG : an out-of-dictionary term "lemsip"
2021-05-15 15:09:40,790 : DEBUG : an out-of-dictionary term "dorinthea"
2021-05-15 15:09:40,974 : DEBUG : an out-of-dictionary term "glavinic"
2021-05-15 15:09:41,118 : DEBUG : an out-of-dictionary term "hereditable"
2021-05-15 15:09:41,625 : DEBUG : an out-of-dictionary term "morganist"
2021-05-15 15:09:41,721 : DEBUG : an out-of-dictionary term "ofmclaren"
2021-05-15 15:09:43,413 : DEBUG : an out-of-dictionary term "holist"
2021-05-15 15:09:45,540 : DEBUG : an out-of-dictionary term "contrafactual"
2021-05-15 15:09:46,549 : DEBUG : an out-of-dictionary term "diversifiable"
2021-05-15 15:09:46,815 : DEBUG : an out-of-dictionary term "presentin"
2021-05-15 15:09:49,777 : DEBUG : an out-of-dictionary term "fodorian"
2021-05-15 15:09:50,731 : DEBUG : an out-of-dictionary term "biosemiotics"
2021-05-15 15:09:51,157 : DEBUG : an out-of-dictionary term "mutterschos"
2021-05-15 15:09:51,250 : DEBUG : an out-of-dictionary term "plessner"
2021-05-15 15:09:52,006 : DEBUG : an out-of-dictionary term "damuth"
2021-05-15 15:09:52,511 : DEBUG : an out-of-dictionary term "multigroup"
2021-05-15 15:09:53,462 : DEBUG : an out-of-dictionary term "disenchanting"
2021-05-15 15:09:54,986 : DEBUG : an out-of-dictionary term "alienists"
2021-05-15 15:09:55,487 : DEBUG : an out-of-dictionary term "midlate"
2021-05-15 15:09:56,142 : DEBUG : an out-of-dictionary term "creationof"
2021-05-15 15:09:56,942 : DEBUG : an out-of-dictionary term "supercorals"
2021-05-15 15:09:58,323 : DEBUG : an out-of-dictionary term "bourgeoning"
2021-05-15 15:09:58,674 : DEBUG : an out-of-dictionary term "glennan"
2021-05-15 15:09:58,849 : DEBUG : an out-of-dictionary term "machamer"
2021-05-15 15:09:59,118 : DEBUG : an out-of-dictionary term "autopoietic"
2021-05-15 15:09:59,251 : DEBUG : an out-of-dictionary term "enactive"
2021-05-15 15:10:00,841 : DEBUG : an out-of-dictionary term "bringingabout"
2021-05-15 15:10:01,155 : DEBUG : an out-of-dictionary term "culturists"
2021-05-15 15:10:01,394 : DEBUG : an out-of-dictionary term "organoids"
2021-05-15 15:10:01,817 : DEBUG : an out-of-dictionary term "exaptation"
2021-05-15 15:10:04,212 : DEBUG : an out-of-dictionary term "hashilon"
2021-05-15 15:10:05,019 : DEBUG : an out-of-dictionary term "prainsack"
2021-05-15 15:10:05,798 : DEBUG : an out-of-dictionary term "thedevelopment"
2021-05-15 15:10:07,053 : DEBUG : an out-of-dictionary term "vsed"
2021-05-15 15:10:07,732 : DEBUG : an out-of-dictionary term "projectability"
2021-05-15 15:10:08,053 : DEBUG : an out-of-dictionary term "automatized"
2021-05-15 15:10:08,644 : DEBUG : an out-of-dictionary term "protomoral"
2021-05-15 15:10:11,712 : DEBUG : an out-of-dictionary term "lysø"
2021-05-15 15:10:12,774 : DEBUG : an out-of-dictionary term "genometype"
2021-05-15 15:10:14,821 : DEBUG : an out-of-dictionary term "goingbeyond"
2021-05-15 15:10:15,418 : DEBUG : an out-of-dictionary term "agiotensin"
2021-05-15 15:10:16,542 : DEBUG : an out-of-dictionary term "jararaca"
2021-05-15 15:10:16,586 : DEBUG : an out-of-dictionary term "ophidia"
2021-05-15 15:10:16,786 : DEBUG : an out-of-dictionary term "potentiating"
2021-05-15 15:10:18,257 : DEBUG : an out-of-dictionary term "ontogenic"
2021-05-15 15:10:18,258 : DEBUG : an out-of-dictionary term "ontogenically"
2021-05-15 15:10:18,661 : DEBUG : an out-of-dictionary term "evidenceof"
2021-05-15 15:10:19,329 : DEBUG : an out-of-dictionary term "framings"
2021-05-15 15:10:19,868 : DEBUG : an out-of-dictionary term "ampliative"
2021-05-15 15:10:19,920 : DEBUG : an out-of-dictionary term "bartelborth"
2021-05-15 15:10:19,920 : DEBUG : an out-of-dictionary term "braillard"
2021-05-15 15:10:20,189 : DEBUG : an out-of-dictionary term "malaterre"
2021-05-15 15:10:20,190 : DEBUG : an out-of-dictionary term "modeltheoretic"
2021-05-15 15:10:20,190 : DEBUG : an out-of-dictionary term "moulines"
2021-05-15 15:10:20,190 : DEBUG : an out-of-dictionary term "nomic"
2021-05-15 15:10:20,459 : DEBUG : an out-of-dictionary term "sneedian"
2021-05-15 15:10:21,195 : DEBUG : an out-of-dictionary term "stablishes"
2021-05-15 15:10:21,196 : DEBUG : an out-of-dictionary term "zeroforce"
2021-05-15 15:10:22,278 : DEBUG : an out-of-dictionary term "alphafold"
2021-05-15 15:10:22,420 : DEBUG : an out-of-dictionary term "deepmind"
2021-05-15 15:10:23,010 : DEBUG : an out-of-dictionary term "anthropogenesis"
2021-05-15 15:10:23,476 : DEBUG : an out-of-dictionary term "explananda"
2021-05-15 15:10:23,480 : DEBUG : an out-of-dictionary term "explanantia"
2021-05-15 15:10:23,713 : DEBUG : an out-of-dictionary term "normativity"
2021-05-15 15:10:24,331 : DEBUG : an out-of-dictionary term "animalcules"
2021-05-15 15:10:24,331 : DEBUG : an out-of-dictionary term "animalculism"
2021-05-15 15:10:24,473 : DEBUG : an out-of-dictionary term "epigenism"
2021-05-15 15:10:24,473 : DEBUG : an out-of-dictionary term "fecundated"
2021-05-15 15:10:24,473 : DEBUG : an out-of-dictionary term "fecundates"
2021-05-15 15:10:24,473 : DEBUG : an out-of-dictionary term "fecundation"
2021-05-15 15:10:24,797 : DEBUG : an out-of-dictionary term "ovism"
2021-05-15 15:10:25,303 : DEBUG : an out-of-dictionary term "toshow"
2021-05-15 15:10:25,637 : DEBUG : an out-of-dictionary term "embryoids"
2021-05-15 15:10:25,856 : DEBUG : an out-of-dictionary term "jiankui"
2021-05-15 15:10:25,907 : DEBUG : an out-of-dictionary term "nasem"
2021-05-15 15:10:26,859 : DEBUG : an out-of-dictionary term "somevery"
2021-05-15 15:10:26,859 : DEBUG : an out-of-dictionary term "standardly"
2021-05-15 15:10:26,859 : DEBUG : an out-of-dictionary term "teleosemantic"
2021-05-15 15:10:27,265 : DEBUG : an out-of-dictionary term "mcconwell"
2021-05-15 15:10:27,265 : DEBUG : an out-of-dictionary term "modally"
2021-05-15 15:10:27,452 : DEBUG : an out-of-dictionary term "travisano"
2021-05-15 15:10:27,737 : DEBUG : an out-of-dictionary term "fictionalism"
2021-05-15 15:10:27,737 : DEBUG : an out-of-dictionary term "fictionalist"
2021-05-15 15:10:27,737 : DEBUG : an out-of-dictionary term "fictionalists"
2021-05-15 15:10:28,305 : DEBUG : an out-of-dictionary term "seniorities"
2021-05-15 15:10:28,526 : DEBUG : an out-of-dictionary term "bruteness"
2021-05-15 15:10:28,530 : DEBUG : an out-of-dictionary term "correlatively"
2021-05-15 15:10:28,779 : DEBUG : an out-of-dictionary term "epistemically"
2021-05-15 15:10:28,781 : DEBUG : an out-of-dictionary term "fahrbach"
2021-05-15 15:10:29,285 : DEBUG : an out-of-dictionary term "vintiadis"
2021-05-15 15:10:30,052 : DEBUG : an out-of-dictionary term "denisovan"
2021-05-15 15:10:31,153 : DEBUG : an out-of-dictionary term "palaeogenomic"
2021-05-15 15:10:31,835 : DEBUG : an out-of-dictionary term "comparationis"
2021-05-15 15:10:32,139 : DEBUG : an out-of-dictionary term "willbe"
2021-05-15 15:10:34,463 : DEBUG : an out-of-dictionary term "westerncultures"
2021-05-15 15:10:35,320 : DEBUG : an out-of-dictionary term "aregion"
2021-05-15 15:10:35,641 : DEBUG : an out-of-dictionary term "genidentical"
2021-05-15 15:10:35,641 : DEBUG : an out-of-dictionary term "genidenticals"
2021-05-15 15:10:35,641 : DEBUG : an out-of-dictionary term "genidentity"
2021-05-15 15:10:35,641 : DEBUG : an out-of-dictionary term "holobionts"
2021-05-15 15:10:35,749 : DEBUG : an out-of-dictionary term "mcgs"
2021-05-15 15:10:36,079 : DEBUG : an out-of-dictionary term "axiological"
2021-05-15 15:10:36,768 : DEBUG : an out-of-dictionary term "nonformal"
2021-05-15 15:10:36,923 : DEBUG : an out-of-dictionary term "possibilist"
2021-05-15 15:10:39,729 : DEBUG : an out-of-dictionary term "ontologists"
2021-05-15 15:10:41,183 : DEBUG : an out-of-dictionary term "phytotrons"
2021-05-15 15:10:41,544 : DEBUG : an out-of-dictionary term "abscense"
2021-05-15 15:10:41,595 : DEBUG : an out-of-dictionary term "apropriate"
2021-05-15 15:10:41,640 : DEBUG : an out-of-dictionary term "charactersitic"
2021-05-15 15:10:41,785 : DEBUG : an out-of-dictionary term "conclusión"
2021-05-15 15:10:41,785 : DEBUG : an out-of-dictionary term "condictions"
2021-05-15 15:10:42,136 : DEBUG : an out-of-dictionary term "endosimbiotic"
2021-05-15 15:10:42,179 : DEBUG : an out-of-dictionary term "eucariotic"
2021-05-15 15:10:42,179 : DEBUG : an out-of-dictionary term "eukariotic"
2021-05-15 15:10:42,265 : DEBUG : an out-of-dictionary term "fallaciously"
2021-05-15 15:10:42,356 : DEBUG : an out-of-dictionary term "hgt"
2021-05-15 15:10:42,356 : DEBUG : an out-of-dictionary term "hibdirization"
2021-05-15 15:10:42,356 : DEBUG : an out-of-dictionary term "htg"
2021-05-15 15:10:42,443 : DEBUG : an out-of-dictionary term "impositive"
2021-05-15 15:10:42,671 : DEBUG : an out-of-dictionary term "laureated"
2021-05-15 15:10:42,786 : DEBUG : an out-of-dictionary term "mistakingly"
2021-05-15 15:10:42,928 : DEBUG : an out-of-dictionary term "ofméxico"
2021-05-15 15:10:42,972 : DEBUG : an out-of-dictionary term "phenomemon"
2021-05-15 15:10:43,241 : DEBUG : an out-of-dictionary term "subjetcts"
2021-05-15 15:10:43,620 : DEBUG : an out-of-dictionary term "allostery"
2021-05-15 15:10:44,003 : DEBUG : an out-of-dictionary term "enthalpic"
2021-05-15 15:10:44,457 : DEBUG : an out-of-dictionary term "motlagh"
2021-05-15 15:10:46,193 : DEBUG : an out-of-dictionary term "szathmáry"
2021-05-15 15:10:46,197 : DEBUG : an out-of-dictionary term "accountof"
2021-05-15 15:10:47,183 : DEBUG : an out-of-dictionary term "hadn"
2021-05-15 15:10:48,439 : DEBUG : an out-of-dictionary term "fraassen"
2021-05-15 15:10:48,487 : DEBUG : an out-of-dictionary term "knuuttila"
2021-05-15 15:10:49,773 : DEBUG : an out-of-dictionary term "adaptiveness"
2021-05-15 15:10:50,022 : DEBUG : an out-of-dictionary term "conduces"
2021-05-15 15:10:50,022 : DEBUG : an out-of-dictionary term "danieldennett"
2021-05-15 15:10:50,166 : DEBUG : an out-of-dictionary term "güth"
2021-05-15 15:10:50,615 : DEBUG : an out-of-dictionary term "skyrms"
2021-05-15 15:10:51,456 : DEBUG : an out-of-dictionary term "asthis"
2021-05-15 15:10:52,424 : DEBUG : an out-of-dictionary term "taysachs"
2021-05-15 15:10:53,038 : DEBUG : an out-of-dictionary term "genocentrism"
2021-05-15 15:10:53,558 : DEBUG : an out-of-dictionary term "synthese"
2021-05-15 15:10:54,190 : DEBUG : an out-of-dictionary term "underspecified"
2021-05-15 15:10:55,667 : DEBUG : an out-of-dictionary term "beseen"
2021-05-15 15:10:56,076 : DEBUG : an out-of-dictionary term "illari"
2021-05-15 15:10:56,738 : DEBUG : an out-of-dictionary term "xplanations"
2021-05-15 15:10:57,367 : DEBUG : an out-of-dictionary term "fitnesss"
2021-05-15 15:10:57,605 : DEBUG : an out-of-dictionary term "indivual"
2021-05-15 15:10:58,658 : DEBUG : an out-of-dictionary term "weseparate"
2021-05-15 15:10:59,376 : DEBUG : an out-of-dictionary term "canguilhem"
2021-05-15 15:10:59,599 : DEBUG : an out-of-dictionary term "niewöhner"
2021-05-15 15:11:00,680 : DEBUG : an out-of-dictionary term "differentlevels"
2021-05-15 15:11:00,978 : DEBUG : an out-of-dictionary term "bmcs"
2021-05-15 15:11:01,072 : DEBUG : an out-of-dictionary term "carboxysome"
2021-05-15 15:11:01,074 : DEBUG : an out-of-dictionary term "carboxysomes"
2021-05-15 15:11:02,125 : DEBUG : an out-of-dictionary term "accountsof"
2021-05-15 15:11:02,179 : DEBUG : an out-of-dictionary term "brigandt"
2021-05-15 15:11:02,396 : DEBUG : an out-of-dictionary term "hüttemann"
2021-05-15 15:11:02,538 : DEBUG : an out-of-dictionary term "laplane"
2021-05-15 15:11:02,539 : DEBUG : an out-of-dictionary term "leychkiz"
2021-05-15 15:11:02,770 : DEBUG : an out-of-dictionary term "stemness"
2021-05-15 15:11:02,770 : DEBUG : an out-of-dictionary term "zipori"
2021-05-15 15:11:02,936 : DEBUG : an out-of-dictionary term "interactionwith"
2021-05-15 15:11:03,789 : DEBUG : an out-of-dictionary term "formalizable"
2021-05-15 15:11:04,131 : DEBUG : an out-of-dictionary term "reexamines"
2021-05-15 15:11:05,490 : DEBUG : an out-of-dictionary term "adaptationist"
2021-05-15 15:11:06,241 : DEBUG : an out-of-dictionary term "lamarckist"
2021-05-15 15:11:06,331 : DEBUG : an out-of-dictionary term "pancultural"
2021-05-15 15:11:07,128 : DEBUG : an out-of-dictionary term "populational"
2021-05-15 15:11:08,724 : DEBUG : an out-of-dictionary term "contextualist"
2021-05-15 15:11:08,941 : DEBUG : an out-of-dictionary term "havean"
2021-05-15 15:11:09,081 : DEBUG : an out-of-dictionary term "omnipresentist"
2021-05-15 15:11:09,633 : DEBUG : an out-of-dictionary term "disconfirmation"
2021-05-15 15:11:10,112 : DEBUG : an out-of-dictionary term "krubitzer"
2021-05-15 15:11:11,660 : DEBUG : an out-of-dictionary term "realworld"
2021-05-15 15:11:11,801 : DEBUG : an out-of-dictionary term "dissociable"
2021-05-15 15:11:12,002 : DEBUG : an out-of-dictionary term "extensionally"
2021-05-15 15:11:12,096 : DEBUG : an out-of-dictionary term "mechanists"
2021-05-15 15:11:13,265 : DEBUG : an out-of-dictionary term "explicative"
2021-05-15 15:11:13,913 : DEBUG : an out-of-dictionary term "ofmetastatic"
2021-05-15 15:11:14,016 : DEBUG : an out-of-dictionary term "plutynski"
2021-05-15 15:11:15,210 : DEBUG : an out-of-dictionary term "selectedeffect"
2021-05-15 15:11:15,210 : DEBUG : an out-of-dictionary term "submechanisms"
2021-05-15 15:11:16,004 : DEBUG : an out-of-dictionary term "lepidopterology"
2021-05-15 15:11:16,735 : DEBUG : an out-of-dictionary term "teiso"
2021-05-15 15:11:16,777 : DEBUG : an out-of-dictionary term "tokuichi"
2021-05-15 15:11:16,918 : DEBUG : an out-of-dictionary term "biostatisical"
2021-05-15 15:11:16,918 : DEBUG : an out-of-dictionary term "biostatistical"
2021-05-15 15:11:16,918 : DEBUG : an out-of-dictionary term "boorse"
2021-05-15 15:11:17,615 : DEBUG : an out-of-dictionary term "adheredto"
2021-05-15 15:11:17,615 : DEBUG : an out-of-dictionary term "apomorphy"
2021-05-15 15:11:17,960 : DEBUG : an out-of-dictionary term "deductivist"
2021-05-15 15:11:18,236 : DEBUG : an out-of-dictionary term "homoplasies"
2021-05-15 15:11:18,237 : DEBUG : an out-of-dictionary term "homoplasy"
2021-05-15 15:11:18,238 : DEBUG : an out-of-dictionary term "homoplay"
2021-05-15 15:11:18,329 : DEBUG : an out-of-dictionary term "nomological"
2021-05-15 15:11:18,379 : DEBUG : an out-of-dictionary term "popperian"
2021-05-15 15:11:21,202 : DEBUG : an out-of-dictionary term "anonspecific"
2021-05-15 15:11:21,853 : DEBUG : an out-of-dictionary term "anatomisches"
2021-05-15 15:11:21,962 : DEBUG : an out-of-dictionary term "bioelectricity"
2021-05-15 15:11:22,252 : DEBUG : an out-of-dictionary term "elektrizität"
2021-05-15 15:11:22,481 : DEBUG : an out-of-dictionary term "grenzen"
2021-05-15 15:11:22,658 : DEBUG : an out-of-dictionary term "naturerkennens"
2021-05-15 15:11:22,658 : DEBUG : an out-of-dictionary term "organiques"
2021-05-15 15:11:23,076 : DEBUG : an out-of-dictionary term "tierische"
2021-05-15 15:11:23,524 : DEBUG : an out-of-dictionary term "justificatory"
2021-05-15 15:11:24,578 : DEBUG : an out-of-dictionary term "neontologists"
2021-05-15 15:11:24,619 : DEBUG : an out-of-dictionary term "paleobiologists"
2021-05-15 15:11:25,653 : DEBUG : an out-of-dictionary term "possibilia"
2021-05-15 15:11:26,519 : DEBUG : an out-of-dictionary term "recognizesand"
2021-05-15 15:11:26,714 : DEBUG : an out-of-dictionary term "vuss"
2021-05-15 15:11:26,714 : DEBUG : an out-of-dictionary term "anonymization"
2021-05-15 15:11:27,112 : DEBUG : an out-of-dictionary term "miethe"
2021-05-15 15:11:27,339 : DEBUG : an out-of-dictionary term "dechronization"
2021-05-15 15:11:28,017 : DEBUG : an out-of-dictionary term "koselleck"
2021-05-15 15:11:30,865 : DEBUG : an out-of-dictionary term "compatibilist"
2021-05-15 15:11:31,328 : DEBUG : an out-of-dictionary term "animalism"
2021-05-15 15:11:31,467 : DEBUG : an out-of-dictionary term "continuism"
2021-05-15 15:11:31,735 : DEBUG : an out-of-dictionary term "intoquestion"
2021-05-15 15:11:32,001 : DEBUG : an out-of-dictionary term "processualism"
2021-05-15 15:11:32,233 : DEBUG : an out-of-dictionary term "signalizing"
2021-05-15 15:11:32,464 : DEBUG : an out-of-dictionary term "tumorigenic"
2021-05-15 15:11:34,578 : DEBUG : an out-of-dictionary term "invokers"
2021-05-15 15:11:35,382 : DEBUG : an out-of-dictionary term "lakatosian"
2021-05-15 15:11:36,012 : DEBUG : an out-of-dictionary term "themodern"
2021-05-15 15:11:36,057 : DEBUG : an out-of-dictionary term "baratay"
2021-05-15 15:11:36,197 : DEBUG : an out-of-dictionary term "debtinger"
2021-05-15 15:11:36,602 : DEBUG : an out-of-dictionary term "leblan"
2021-05-15 15:11:36,927 : DEBUG : an out-of-dictionary term "pasteurian"
2021-05-15 15:11:37,153 : DEBUG : an out-of-dictionary term "schoefert"
2021-05-15 15:11:37,425 : DEBUG : an out-of-dictionary term "asminiaturized"
2021-05-15 15:11:37,469 : DEBUG : an out-of-dictionary term "defintions"
2021-05-15 15:11:37,470 : DEBUG : an out-of-dictionary term "delimitated"
2021-05-15 15:11:37,558 : DEBUG : an out-of-dictionary term "hierachical"
2021-05-15 15:11:37,559 : DEBUG : an out-of-dictionary term "hybridizations"
2021-05-15 15:11:37,559 : DEBUG : an out-of-dictionary term "incompletness"
2021-05-15 15:11:37,692 : DEBUG : an out-of-dictionary term "organoid"
2021-05-15 15:11:37,957 : DEBUG : an out-of-dictionary term "transferts"
2021-05-15 15:11:38,739 : DEBUG : an out-of-dictionary term "whiteheadian"
2021-05-15 15:11:40,163 : DEBUG : an out-of-dictionary term "umerez"
2021-05-15 15:11:41,269 : DEBUG : an out-of-dictionary term "nerlich"
2021-05-15 15:11:41,489 : DEBUG : an out-of-dictionary term "thepresent"
2021-05-15 15:11:43,252 : DEBUG : an out-of-dictionary term "isoften"
2021-05-15 15:11:43,753 : DEBUG : an out-of-dictionary term "ahteensuu"
2021-05-15 15:11:45,177 : DEBUG : an out-of-dictionary term "siipi"
2021-05-15 15:11:45,680 : DEBUG : an out-of-dictionary term "chanciness"
2021-05-15 15:11:45,820 : DEBUG : an out-of-dictionary term "equiprobability"
2021-05-15 15:11:45,820 : DEBUG : an out-of-dictionary term "equiprobable"
2021-05-15 15:11:47,214 : DEBUG : an out-of-dictionary term "huneman"
2021-05-15 15:11:47,445 : DEBUG : an out-of-dictionary term "worldness"
2021-05-15 15:11:47,822 : DEBUG : an out-of-dictionary term "pajamo"
2021-05-15 15:11:48,919 : DEBUG : an out-of-dictionary term "toolgen"
2021-05-15 15:11:49,037 : DEBUG : an out-of-dictionary term "casefrom"
2021-05-15 15:11:49,214 : DEBUG : an out-of-dictionary term "mmj"
2021-05-15 15:11:49,293 : DEBUG : an out-of-dictionary term "multiplemodels"
2021-05-15 15:11:50,438 : DEBUG : an out-of-dictionary term "portides"
2021-05-15 15:11:50,584 : DEBUG : an out-of-dictionary term "understandit"
2021-05-15 15:11:50,584 : DEBUG : an out-of-dictionary term "amrine"
2021-05-15 15:11:51,402 : DEBUG : an out-of-dictionary term "infraindividual"
2021-05-15 15:11:51,539 : DEBUG : an out-of-dictionary term "kielmeyer"
2021-05-15 15:11:52,016 : DEBUG : an out-of-dictionary term "perfoliate"
2021-05-15 15:11:52,433 : DEBUG : an out-of-dictionary term "teratological"
2021-05-15 15:11:52,433 : DEBUG : an out-of-dictionary term "theorybuilding"
2021-05-15 15:11:52,751 : DEBUG : an out-of-dictionary term "adaptationism"
2021-05-15 15:11:52,847 : DEBUG : an out-of-dictionary term "biologistsand"
2021-05-15 15:11:53,240 : DEBUG : an out-of-dictionary term "losos"
2021-05-15 15:11:53,377 : DEBUG : an out-of-dictionary term "orzack"
2021-05-15 15:11:54,480 : DEBUG : an out-of-dictionary term "thosefew"
2021-05-15 15:11:55,096 : DEBUG : an out-of-dictionary term "hasok"
2021-05-15 15:11:55,156 : DEBUG : an out-of-dictionary term "insulinwith"
2021-05-15 15:11:56,080 : DEBUG : an out-of-dictionary term "parfitian"
2021-05-15 15:11:56,311 : INFO : constructed a sparse term similarity matrix with 0.476038% density
