2021-05-15 14:32:14,639 : INFO : adding document #0 to Dictionary(0 unique tokens: [])
2021-05-15 14:32:14,642 : INFO : built Dictionary(960 unique tokens: ['agential', 'construction', 'niche', 'discovery', 'epistemic']...) from 233 documents (total 3130 corpus positions)
2021-05-15 14:32:14,650 : DEBUG : starting a new internal lifecycle event log for Dictionary
2021-05-15 14:32:14,650 : INFO : Dictionary lifecycle event {'msg': "built Dictionary(960 unique tokens: ['agential', 'construction', 'niche', 'discovery', 'epistemic']...) from 233 documents (total 3130 corpus positions)", 'datetime': '2021-05-15T14:32:14.642439', 'gensim': '4.0.1', 'python': '3.9.4 (default, Apr 20 2021, 15:51:38) \n[GCC 10.2.0]', 'platform': 'Linux-5.11.16-arch1-1-x86_64-with-glibc2.33', 'event': 'created'}
2021-05-15 14:32:14,652 : INFO : using autotuned alpha, starting with [0.0044444446, 0.0044444446, 0.0044444446, 0.0044444446, 0.0044444446, 0.0044444446, 0.0044444446, 0.0044444446, 0.0044444446, 0.0044444446, 0.0044444446, 0.0044444446, 0.0044444446, 0.0044444446, 0.0044444446, 0.0044444446, 0.0044444446, 0.0044444446, 0.0044444446, 0.0044444446, 0.0044444446, 0.0044444446, 0.0044444446, 0.0044444446, 0.0044444446, 0.0044444446, 0.0044444446, 0.0044444446, 0.0044444446, 0.0044444446, 0.0044444446, 0.0044444446, 0.0044444446, 0.0044444446, 0.0044444446, 0.0044444446, 0.0044444446, 0.0044444446, 0.0044444446, 0.0044444446, 0.0044444446, 0.0044444446, 0.0044444446, 0.0044444446, 0.0044444446, 0.0044444446, 0.0044444446, 0.0044444446, 0.0044444446, 0.0044444446, 0.0044444446, 0.0044444446, 0.0044444446, 0.0044444446, 0.0044444446, 0.0044444446, 0.0044444446, 0.0044444446, 0.0044444446, 0.0044444446, 0.0044444446, 0.0044444446, 0.0044444446, 0.0044444446, 0.0044444446, 0.0044444446, 0.0044444446, 0.0044444446, 0.0044444446, 0.0044444446, 0.0044444446, 0.0044444446, 0.0044444446, 0.0044444446, 0.0044444446, 0.0044444446, 0.0044444446, 0.0044444446, 0.0044444446, 0.0044444446, 0.0044444446, 0.0044444446, 0.0044444446, 0.0044444446, 0.0044444446, 0.0044444446, 0.0044444446, 0.0044444446, 0.0044444446, 0.0044444446, 0.0044444446, 0.0044444446, 0.0044444446, 0.0044444446, 0.0044444446, 0.0044444446, 0.0044444446, 0.0044444446, 0.0044444446, 0.0044444446, 0.0044444446, 0.0044444446, 0.0044444446, 0.0044444446, 0.0044444446, 0.0044444446, 0.0044444446, 0.0044444446, 0.0044444446, 0.0044444446, 0.0044444446, 0.0044444446, 0.0044444446, 0.0044444446, 0.0044444446, 0.0044444446, 0.0044444446, 0.0044444446, 0.0044444446, 0.0044444446, 0.0044444446, 0.0044444446, 0.0044444446, 0.0044444446, 0.0044444446, 0.0044444446, 0.0044444446, 0.0044444446, 0.0044444446, 0.0044444446, 0.0044444446, 0.0044444446, 0.0044444446, 0.0044444446, 0.0044444446, 0.0044444446, 0.0044444446, 0.0044444446, 0.0044444446, 0.0044444446, 0.0044444446, 0.0044444446, 0.0044444446, 0.0044444446, 0.0044444446, 0.0044444446, 0.0044444446, 0.0044444446, 0.0044444446, 0.0044444446, 0.0044444446, 0.0044444446, 0.0044444446, 0.0044444446, 0.0044444446, 0.0044444446, 0.0044444446, 0.0044444446, 0.0044444446, 0.0044444446, 0.0044444446, 0.0044444446, 0.0044444446, 0.0044444446, 0.0044444446, 0.0044444446, 0.0044444446, 0.0044444446, 0.0044444446, 0.0044444446, 0.0044444446, 0.0044444446, 0.0044444446, 0.0044444446, 0.0044444446, 0.0044444446, 0.0044444446, 0.0044444446, 0.0044444446, 0.0044444446, 0.0044444446, 0.0044444446, 0.0044444446, 0.0044444446, 0.0044444446, 0.0044444446, 0.0044444446, 0.0044444446, 0.0044444446, 0.0044444446, 0.0044444446, 0.0044444446, 0.0044444446, 0.0044444446, 0.0044444446, 0.0044444446, 0.0044444446, 0.0044444446, 0.0044444446, 0.0044444446, 0.0044444446, 0.0044444446, 0.0044444446, 0.0044444446, 0.0044444446, 0.0044444446, 0.0044444446, 0.0044444446, 0.0044444446, 0.0044444446, 0.0044444446, 0.0044444446, 0.0044444446, 0.0044444446, 0.0044444446, 0.0044444446, 0.0044444446, 0.0044444446, 0.0044444446, 0.0044444446, 0.0044444446, 0.0044444446, 0.0044444446, 0.0044444446, 0.0044444446]
2021-05-15 14:32:14,652 : INFO : using serial LDA version on this node
2021-05-15 14:32:14,670 : INFO : running online (multi-pass) LDA training, 225 topics, 10 passes over the supplied corpus of 233 documents, updating model once every 233 documents, evaluating perplexity every 233 documents, iterating 50x with a convergence threshold of 0.001000
2021-05-15 14:32:14,677 : DEBUG : bound: at document #0
2021-05-15 14:32:14,757 : INFO : -339.588 per-word bound, 1683748233465739609012980004973137292850717857632225220153332191316624620007658584232904230010152288256.0 perplexity estimate based on a held-out corpus of 233 documents with 3130 words
2021-05-15 14:32:14,757 : INFO : PROGRESS: pass 0, at document #233/233
2021-05-15 14:32:14,757 : DEBUG : performing inference on a chunk of 233 documents
2021-05-15 14:32:14,818 : DEBUG : 229/233 documents converged within 50 iterations
2021-05-15 14:32:14,820 : INFO : optimized alpha [0.0044472576, 0.004427911, 0.00440866, 0.0044280346, 0.004428003, 0.0044091856, 0.0044280146, 0.00440866, 0.0044280346, 0.00440866, 0.0044280253, 0.0044280146, 0.00440866, 0.00440866, 0.0044280253, 0.004427804, 0.00440866, 0.004427943, 0.00440866, 0.00440866, 0.0044872146, 0.004408663, 0.0044086752, 0.00440866, 0.00440866, 0.00440866, 0.0044089523, 0.00440866, 0.00440866, 0.0044280426, 0.0044473894, 0.00440866, 0.00440866, 0.0044279844, 0.0044280253, 0.00440866, 0.00440866, 0.0044279895, 0.004466699, 0.0044279955, 0.004427924, 0.0044280253, 0.00440866, 0.004428177, 0.00440866, 0.004428003, 0.00440866, 0.00440866, 0.00440866, 0.00440866, 0.0044473447, 0.00440866, 0.004428003, 0.004427988, 0.0044280146, 0.004428015, 0.00440866, 0.00440866, 0.00440866, 0.00440866, 0.004427886, 0.00440866, 0.0044666543, 0.004427946, 0.0044276994, 0.004427936, 0.0044666757, 0.00440866, 0.0044473684, 0.0044088834, 0.004408661, 0.0044280253, 0.00440866, 0.00440866, 0.00440866, 0.00440866, 0.004428109, 0.004466517, 0.00440866, 0.00440866, 0.00440866, 0.00440866, 0.0044472343, 0.00440866, 0.00440866, 0.00440866, 0.0044280346, 0.0044280146, 0.00440866, 0.00440866, 0.00440866, 0.00442799, 0.004447369, 0.004426267, 0.0044279755, 0.00440866, 0.0044472967, 0.0044089723, 0.0044087325, 0.0044279257, 0.0044667167, 0.00440866, 0.00440866, 0.00440866, 0.0044088033, 0.0044280346, 0.0044280146, 0.00440866, 0.0044279895, 0.00440866, 0.0044280603, 0.00440866, 0.0044473778, 0.004466625, 0.00440866, 0.00440866, 0.00440866, 0.00440866, 0.0044280346, 0.00440866, 0.00440866, 0.00440866, 0.004408662, 0.004427915, 0.0044280346, 0.0044280253, 0.00440866, 0.00440866, 0.00440866, 0.00440866, 0.00440866, 0.0044280146, 0.00440866, 0.004466701, 0.0044086813, 0.00440866, 0.00440866, 0.004428022, 0.0044280346, 0.00440866, 0.00440866, 0.004466582, 0.00440866, 0.00440866, 0.00440866, 0.00440866, 0.00440866, 0.00442838, 0.004428003, 0.0044667646, 0.004409135, 0.00440866, 0.00442805, 0.0044280025, 0.004409018, 0.00440866, 0.004447644, 0.00440866, 0.004428003, 0.00440866, 0.004428051, 0.0044473466, 0.00440866, 0.0044280253, 0.0044280346, 0.00440866, 0.004428003, 0.0044667763, 0.00440866, 0.00440866, 0.0044558574, 0.0044280146, 0.0044089276, 0.00440866, 0.0044280426, 0.0044086627, 0.00440866, 0.0044473405, 0.004428003, 0.00440866, 0.00440866, 0.00440866, 0.00440866, 0.0044087153, 0.00440866, 0.00440866, 0.0044091106, 0.004408924, 0.004428003, 0.00440866, 0.004428003, 0.0044279825, 0.00440866, 0.0044858493, 0.0044280346, 0.004447359, 0.00440866, 0.0044280426, 0.00440866, 0.0044474187, 0.0044086794, 0.0044086883, 0.0044666254, 0.00440866, 0.00440866, 0.004428015, 0.00440866, 0.004428052, 0.004428003, 0.00442801, 0.00440866, 0.00440866, 0.004447398, 0.00440866, 0.004447408, 0.004428003, 0.0044278777, 0.0044279047, 0.0044473894, 0.004408666, 0.0044280146, 0.00440866, 0.004408661, 0.004428003, 0.0044087777]
2021-05-15 14:32:14,821 : DEBUG : updating topics
2021-05-15 14:32:14,836 : INFO : topic #16 (0.004): 0.001*"failure" + 0.001*"crispr" + 0.001*"policy" + 0.001*"key" + 0.001*"ineffective" + 0.001*"guideline" + 0.001*"partial" + 0.001*"embryo" + 0.001*"1803–1854" + 0.001*"newport"
2021-05-15 14:32:14,836 : INFO : topic #213 (0.004): 0.001*"failure" + 0.001*"crispr" + 0.001*"policy" + 0.001*"key" + 0.001*"ineffective" + 0.001*"guideline" + 0.001*"partial" + 0.001*"embryo" + 0.001*"1803–1854" + 0.001*"newport"
2021-05-15 14:32:14,836 : INFO : topic #170 (0.004): 0.063*"synthesis" + 0.063*"protein" + 0.063*"experiment" + 0.063*"theory" + 0.063*"exploration" + 0.063*"construction" + 0.063*"pajamo" + 0.045*"genetics" + 0.043*"genomic" + 0.041*"cold"
2021-05-15 14:32:14,836 : INFO : topic #202 (0.004): 0.052*"biological" + 0.052*"etiological" + 0.052*"approach" + 0.052*"selectedeffect" + 0.052*"teleology" + 0.052*"regulation" + 0.052*"self" + 0.052*"organizational" + 0.047*"biology" + 0.038*"eliminativist"
2021-05-15 14:32:14,836 : INFO : topic #113 (0.004): 0.090*"genetic" + 0.045*"consumer" + 0.045*"direct" + 0.045*"debate" + 0.045*"extend" + 0.045*"dimension" + 0.045*"epistemological" + 0.045*"synthesis" + 0.045*"testing" + 0.045*"ancestry"
2021-05-15 14:32:14,837 : INFO : topic diff=218.994812, rho=1.000000
2021-05-15 14:32:14,852 : DEBUG : bound: at document #0
2021-05-15 14:32:14,910 : INFO : -44.073 per-word bound, 18505108007323.8 perplexity estimate based on a held-out corpus of 233 documents with 3130 words
2021-05-15 14:32:14,911 : INFO : PROGRESS: pass 1, at document #233/233
2021-05-15 14:32:14,911 : DEBUG : performing inference on a chunk of 233 documents
2021-05-15 14:32:14,953 : DEBUG : 233/233 documents converged within 50 iterations
2021-05-15 14:32:14,956 : INFO : optimized alpha [0.0044602654, 0.004418907, 0.0043777768, 0.004419042, 0.004429925, 0.0043782955, 0.0044079926, 0.0043777768, 0.004441123, 0.0043777768, 0.0044080084, 0.0044190125, 0.0043777768, 0.0043777768, 0.00446311, 0.004396651, 0.0043777768, 0.0043967897, 0.0043777768, 0.0043777768, 0.004522768, 0.0043777796, 0.0043777903, 0.0043777768, 0.0043777768, 0.0043777768, 0.0043780655, 0.0043777768, 0.0043777768, 0.004419087, 0.00443834, 0.0043777768, 0.0043777768, 0.004429931, 0.0044300896, 0.0043777768, 0.0043777768, 0.0044300575, 0.0044686077, 0.0044300747, 0.004396837, 0.00444115, 0.0043777768, 0.004441215, 0.0043777768, 0.004441034, 0.0043777768, 0.0043777768, 0.0043777768, 0.0043777768, 0.004449352, 0.0043777768, 0.0044190707, 0.004452045, 0.0045071742, 0.004430033, 0.0043777768, 0.0043777768, 0.0043777768, 0.0043777768, 0.004396731, 0.0043777768, 0.0044796485, 0.004408127, 0.0043965476, 0.0043967823, 0.0045464803, 0.0043777768, 0.0044715144, 0.0043779975, 0.0043777777, 0.0044190288, 0.0043777768, 0.0043777768, 0.0043777768, 0.0043777768, 0.004485239, 0.0044684047, 0.0043777768, 0.0043777768, 0.0043777768, 0.0043777768, 0.004427014, 0.0043777768, 0.0043777768, 0.0043777768, 0.004419042, 0.004496235, 0.0043777768, 0.0043777768, 0.0043777768, 0.0044520544, 0.0044494127, 0.004395137, 0.0045072106, 0.0043777768, 0.0044602016, 0.004378083, 0.004377848, 0.0043967715, 0.0044908533, 0.0043777768, 0.0043777768, 0.0043777768, 0.0043779183, 0.0044300947, 0.0044190125, 0.0043777768, 0.004407952, 0.0043777768, 0.0044300933, 0.0043777768, 0.004449386, 0.004479728, 0.0043777768, 0.0043777768, 0.0043777768, 0.0043777768, 0.004430029, 0.0043777768, 0.0043777768, 0.0043777768, 0.0043777786, 0.004396761, 0.004419042, 0.0044190288, 0.0043777768, 0.0043777768, 0.0043777768, 0.0043777768, 0.0043777768, 0.0044630007, 0.0043777768, 0.004535377, 0.004377798, 0.0043777768, 0.0043777768, 0.0044411253, 0.0044190423, 0.0043777768, 0.0043777768, 0.004457416, 0.0043777768, 0.0043777768, 0.0043777768, 0.0043777768, 0.0043777768, 0.004419385, 0.004429971, 0.0045021707, 0.004378246, 0.0043777768, 0.004408048, 0.004496238, 0.0043781283, 0.0043777768, 0.0044607446, 0.0043777768, 0.004430014, 0.0043777768, 0.004441121, 0.0045047626, 0.0043777768, 0.0044080084, 0.0044411235, 0.0043777768, 0.0044300817, 0.004491031, 0.0043777768, 0.0043777768, 0.004468904, 0.0044190125, 0.00437804, 0.0043777768, 0.004419055, 0.004377779, 0.0043777768, 0.0044381586, 0.004430014, 0.0043777768, 0.0043777768, 0.0043777768, 0.0043777768, 0.00437783, 0.0043777768, 0.0043777768, 0.0043782215, 0.004378035, 0.0044410746, 0.0043777768, 0.0044630338, 0.004396826, 0.0043777768, 0.0045212074, 0.00446313, 0.004438289, 0.0043777768, 0.0044080345, 0.0043777768, 0.0044715498, 0.0043777972, 0.0043778033, 0.004457273, 0.0043777768, 0.0043777768, 0.0044079926, 0.0043777768, 0.0044080634, 0.0044189943, 0.0044409665, 0.0043777768, 0.0043777768, 0.004460438, 0.0043777768, 0.0045047887, 0.0044630747, 0.0043967245, 0.0043967497, 0.004471582, 0.004377781, 0.0044521135, 0.0043777768, 0.0043777777, 0.004429957, 0.004377892]
2021-05-15 14:32:14,956 : DEBUG : updating topics
2021-05-15 14:32:14,972 : INFO : topic #121 (0.004): 0.001*"failure" + 0.001*"crispr" + 0.001*"policy" + 0.001*"key" + 0.001*"ineffective" + 0.001*"guideline" + 0.001*"partial" + 0.001*"embryo" + 0.001*"1803–1854" + 0.001*"newport"
2021-05-15 14:32:14,972 : INFO : topic #134 (0.004): 0.001*"failure" + 0.001*"crispr" + 0.001*"policy" + 0.001*"key" + 0.001*"ineffective" + 0.001*"guideline" + 0.001*"partial" + 0.001*"embryo" + 0.001*"1803–1854" + 0.001*"newport"
2021-05-15 14:32:14,972 : INFO : topic #20 (0.005): 0.045*"guideline" + 0.035*"environment" + 0.034*"property" + 0.022*"analysis" + 0.022*"embryo" + 0.022*"korea" + 0.022*"phytotrons" + 0.022*"south" + 0.022*"era" + 0.022*"rise"
2021-05-15 14:32:14,972 : INFO : topic #94 (0.005): 0.416*"biology" + 0.094*"engineering" + 0.094*"synthetic" + 0.092*"philosophy" + 0.056*"reductionists" + 0.055*"explanation" + 0.054*"genetic" + 0.000*"crispr" + 0.000*"embryo" + 0.000*"failure"
2021-05-15 14:32:14,972 : INFO : topic #133 (0.005): 0.134*"function" + 0.086*"law" + 0.072*"biology" + 0.048*"explanatory" + 0.047*"novel" + 0.040*"relation" + 0.033*"organ" + 0.033*"psychic" + 0.033*"gmo" + 0.033*"european"
2021-05-15 14:32:14,973 : INFO : topic diff=0.084217, rho=0.577350
2021-05-15 14:32:14,988 : DEBUG : bound: at document #0
2021-05-15 14:32:15,043 : INFO : -43.917 per-word bound, 16610751374160.0 perplexity estimate based on a held-out corpus of 233 documents with 3130 words
2021-05-15 14:32:15,043 : INFO : PROGRESS: pass 2, at document #233/233
2021-05-15 14:32:15,043 : DEBUG : performing inference on a chunk of 233 documents
2021-05-15 14:32:15,078 : DEBUG : 233/233 documents converged within 50 iterations
2021-05-15 14:32:15,081 : INFO : optimized alpha [0.0044714375, 0.0044111344, 0.00435136, 0.0044112788, 0.004431609, 0.004351871, 0.0043908064, 0.00435136, 0.0044523673, 0.00435136, 0.004390826, 0.004411239, 0.00435136, 0.00435136, 0.004493476, 0.004370005, 0.00435136, 0.0043701422, 0.00435136, 0.00435136, 0.0045535173, 0.004351362, 0.0043513733, 0.00435136, 0.00435136, 0.00435136, 0.004351645, 0.00435136, 0.00435136, 0.0044113263, 0.004430529, 0.00435136, 0.00435136, 0.004412537, 0.0044318195, 0.00435136, 0.00435136, 0.004431763, 0.004470201, 0.0044223373, 0.0043701897, 0.004452426, 0.00435136, 0.0044619846, 0.00435136, 0.0044522276, 0.00435136, 0.00435136, 0.00435136, 0.00435136, 0.004441361, 0.00435136, 0.004420774, 0.004472801, 0.0045958543, 0.0044221748, 0.00435136, 0.00435136, 0.00435136, 0.00435136, 0.0043700845, 0.00435136, 0.004490809, 0.004390932, 0.004369901, 0.0043701357, 0.004616278, 0.00435136, 0.0044923406, 0.004351577, 0.0043513607, 0.004411261, 0.00435136, 0.00435136, 0.00435136, 0.00435136, 0.0045639123, 0.0044700033, 0.00435136, 0.00435136, 0.00435136, 0.00435136, 0.0044096583, 0.00435136, 0.00435136, 0.00435136, 0.0044112783, 0.004546091, 0.00435136, 0.00435136, 0.00435136, 0.004472814, 0.004451126, 0.0043685106, 0.0045765312, 0.00435136, 0.0044617136, 0.0043516625, 0.004351429, 0.004370123, 0.004511677, 0.00435136, 0.00435136, 0.00435136, 0.0043514986, 0.004431822, 0.004411198, 0.00435136, 0.004390752, 0.00435136, 0.0044317995, 0.00435136, 0.0044510686, 0.0044909334, 0.00435136, 0.00435136, 0.00435136, 0.00435136, 0.004431731, 0.00435136, 0.00435136, 0.00435136, 0.004351361, 0.0043701143, 0.0044112783, 0.004411269, 0.00435136, 0.00435136, 0.00435136, 0.00435136, 0.00435136, 0.004493441, 0.00435136, 0.004595362, 0.0043513793, 0.00435136, 0.00435136, 0.0044523804, 0.0044112788, 0.00435136, 0.00435136, 0.004449451, 0.00435136, 0.00435136, 0.00435136, 0.00435136, 0.00435136, 0.004411619, 0.0044221077, 0.004523076, 0.0043518227, 0.00435136, 0.0043908777, 0.004555783, 0.0043517062, 0.00435136, 0.004471982, 0.00435136, 0.004431698, 0.00435136, 0.0044523445, 0.0045449873, 0.00435136, 0.004390826, 0.004452368, 0.00435136, 0.0044318447, 0.004511958, 0.00435136, 0.00435136, 0.004480113, 0.004411239, 0.00435162, 0.00435136, 0.004411296, 0.0043513617, 0.00435136, 0.0044302302, 0.004431698, 0.00435136, 0.00435136, 0.00435136, 0.00435136, 0.004351413, 0.00435136, 0.00435136, 0.0043517984, 0.004351615, 0.004452304, 0.00435136, 0.0044933893, 0.004370178, 0.00435136, 0.0045518083, 0.0045031547, 0.0044304566, 0.00435136, 0.004390861, 0.00435136, 0.004492401, 0.004351379, 0.0043513854, 0.0044492744, 0.00435136, 0.00435136, 0.0043908064, 0.00435136, 0.0043909065, 0.004411217, 0.0044521433, 0.00435136, 0.00435136, 0.0044716313, 0.00435136, 0.0045547225, 0.0044934275, 0.004370078, 0.0043701027, 0.0044924556, 0.004351363, 0.0044729044, 0.00435136, 0.0043513607, 0.0044220937, 0.004351473]
2021-05-15 14:32:15,081 : DEBUG : updating topics
2021-05-15 14:32:15,097 : INFO : topic #98 (0.004): 0.001*"failure" + 0.001*"crispr" + 0.001*"policy" + 0.001*"key" + 0.001*"ineffective" + 0.001*"guideline" + 0.001*"partial" + 0.001*"embryo" + 0.001*"1803–1854" + 0.001*"newport"
2021-05-15 14:32:15,097 : INFO : topic #42 (0.004): 0.001*"failure" + 0.001*"crispr" + 0.001*"policy" + 0.001*"key" + 0.001*"ineffective" + 0.001*"guideline" + 0.001*"partial" + 0.001*"embryo" + 0.001*"1803–1854" + 0.001*"newport"
2021-05-15 14:32:15,097 : INFO : topic #161 (0.005): 0.157*"causal" + 0.084*"analysis" + 0.084*"critical" + 0.084*"effects" + 0.060*"theory" + 0.060*"evolution" + 0.047*"select" + 0.047*"generalize" + 0.047*"belief" + 0.047*"debunker"
2021-05-15 14:32:15,097 : INFO : topic #76 (0.005): 0.409*"biological" + 0.053*"day" + 0.053*"clock" + 0.053*"synchronization" + 0.053*"twice" + 0.053*"calibration" + 0.053*"strategy" + 0.053*"clocks" + 0.053*"right" + 0.053*"break"
2021-05-15 14:32:15,097 : INFO : topic #54 (0.005): 0.342*"theory" + 0.169*"evidence" + 0.110*"sustainability" + 0.098*"practice" + 0.055*"science" + 0.055*"shaping" + 0.055*"engage" + 0.000*"review" + 0.000*"policy" + 0.000*"key"
2021-05-15 14:32:15,097 : INFO : topic diff=0.036846, rho=0.500000
2021-05-15 14:32:15,113 : DEBUG : bound: at document #0
2021-05-15 14:32:15,164 : INFO : -43.807 per-word bound, 15393199166294.7 perplexity estimate based on a held-out corpus of 233 documents with 3130 words
2021-05-15 14:32:15,164 : INFO : PROGRESS: pass 3, at document #233/233
2021-05-15 14:32:15,164 : DEBUG : performing inference on a chunk of 233 documents
2021-05-15 14:32:15,195 : DEBUG : 233/233 documents converged within 50 iterations
2021-05-15 14:32:15,198 : INFO : optimized alpha [0.0044813585, 0.0044042016, 0.0043279817, 0.0044043553, 0.0044501596, 0.0043284884, 0.004375553, 0.0043279817, 0.00446239, 0.0043279817, 0.0043755774, 0.0044043087, 0.0043279817, 0.0043279817, 0.004520619, 0.004346425, 0.0043279817, 0.0043465625, 0.0043279817, 0.0043279817, 0.0045810016, 0.004327983, 0.004327995, 0.0043279817, 0.0043279817, 0.0043279817, 0.0043282644, 0.0043279817, 0.0043279817, 0.0044044065, 0.004423561, 0.0043279817, 0.0043279817, 0.0043970896, 0.0044333218, 0.0043279817, 0.0043279817, 0.0044332445, 0.004471584, 0.004415341, 0.004346609, 0.004462439, 0.0043279817, 0.0044805016, 0.0043279817, 0.004462169, 0.0043279817, 0.0043279817, 0.0043279817, 0.0043279817, 0.004434232, 0.0043279817, 0.0044222926, 0.004491303, 0.0046762046, 0.004415165, 0.0043279817, 0.0043279817, 0.0043279817, 0.0043279817, 0.0043465043, 0.0043279817, 0.004500724, 0.0043756706, 0.0043463246, 0.004346556, 0.004679309, 0.0043279817, 0.0045109047, 0.004328197, 0.004327982, 0.0044043353, 0.0043279817, 0.0043279817, 0.0043279817, 0.0043279817, 0.0046351245, 0.0044713905, 0.0043279817, 0.0043279817, 0.0043279817, 0.0043279817, 0.0043942565, 0.0043279817, 0.0043279817, 0.0043279817, 0.0044043534, 0.0045996336, 0.0043279817, 0.0043279817, 0.0043279817, 0.0044913213, 0.0044526136, 0.0043449476, 0.004639101, 0.0043279817, 0.0044630226, 0.0043282807, 0.0043280507, 0.0043465435, 0.0045302385, 0.0043279817, 0.0043279817, 0.0043279817, 0.00432812, 0.0044248025, 0.0043957625, 0.0043279817, 0.0043754885, 0.0043279817, 0.004433284, 0.0043279817, 0.0044525294, 0.004500884, 0.0043279817, 0.0043279817, 0.0043279817, 0.0043279817, 0.0044332077, 0.0043279817, 0.0043279817, 0.0043279817, 0.004327982, 0.004346534, 0.0044043534, 0.004404341, 0.0043279817, 0.0043279817, 0.0043279817, 0.0043279817, 0.0043279817, 0.004511971, 0.0043279817, 0.00464935, 0.0043279994, 0.0043279817, 0.0043279817, 0.004462377, 0.0044043944, 0.0043279817, 0.0043279817, 0.0044423467, 0.0043279817, 0.0043279817, 0.0043279817, 0.0043279817, 0.0043279817, 0.0044046943, 0.004415093, 0.0045417105, 0.004328438, 0.0043279817, 0.0043756384, 0.004609381, 0.0043283245, 0.0043279817, 0.0044819578, 0.0043279817, 0.00443316, 0.0043279817, 0.0044623106, 0.004581027, 0.0043279817, 0.0043755774, 0.0044537396, 0.0043279817, 0.0044419095, 0.0045306105, 0.0043279817, 0.0043279817, 0.004490067, 0.0044043087, 0.004328239, 0.0043279817, 0.0044043753, 0.0043279827, 0.0043279817, 0.0044231596, 0.00443316, 0.0043279817, 0.0043279817, 0.0043279817, 0.0043279817, 0.004328034, 0.0043279817, 0.0043279817, 0.004328416, 0.004328234, 0.0044622794, 0.0043279817, 0.0045205583, 0.0043465965, 0.0043279817, 0.0045791604, 0.0045390194, 0.0044234707, 0.0043279817, 0.0043756166, 0.0043279817, 0.0045109885, 0.004327999, 0.004328006, 0.004442076, 0.0043279817, 0.0043279817, 0.004375553, 0.0043279817, 0.004375679, 0.0044042794, 0.004462085, 0.0043279817, 0.0043279817, 0.004481559, 0.0043279817, 0.004599569, 0.0045205588, 0.0043464983, 0.004346522, 0.0045110635, 0.004327984, 0.004482816, 0.0043279817, 0.004327982, 0.0044150804, 0.004328093]
2021-05-15 14:32:15,198 : DEBUG : updating topics
2021-05-15 14:32:15,213 : INFO : topic #51 (0.004): 0.001*"failure" + 0.001*"crispr" + 0.001*"policy" + 0.001*"key" + 0.001*"ineffective" + 0.001*"guideline" + 0.001*"partial" + 0.001*"embryo" + 0.001*"1803–1854" + 0.001*"newport"
2021-05-15 14:32:15,213 : INFO : topic #85 (0.004): 0.001*"failure" + 0.001*"crispr" + 0.001*"policy" + 0.001*"key" + 0.001*"ineffective" + 0.001*"guideline" + 0.001*"partial" + 0.001*"embryo" + 0.001*"1803–1854" + 0.001*"newport"
2021-05-15 14:32:15,213 : INFO : topic #54 (0.005): 0.360*"theory" + 0.179*"evidence" + 0.103*"sustainability" + 0.097*"practice" + 0.051*"science" + 0.051*"shaping" + 0.051*"engage" + 0.000*"review" + 0.000*"policy" + 0.000*"key"
2021-05-15 14:32:15,214 : INFO : topic #87 (0.005): 0.361*"animal" + 0.148*"perspective" + 0.101*"agency" + 0.062*"evolutionary" + 0.054*"robot" + 0.054*"moral" + 0.054*"humans" + 0.054*"responsibility" + 0.000*"baby" + 0.000*"policy"
2021-05-15 14:32:15,214 : INFO : topic #66 (0.005): 0.195*"explanation" + 0.100*"mechanistic" + 0.065*"molecular" + 0.065*"practice" + 0.065*"idealization" + 0.055*"fitness" + 0.038*"biology" + 0.035*"research" + 0.035*"abstraction" + 0.035*"complementary"
2021-05-15 14:32:15,214 : INFO : topic diff=0.024392, rho=0.447214
2021-05-15 14:32:15,230 : DEBUG : bound: at document #0
2021-05-15 14:32:15,282 : INFO : -43.709 per-word bound, 14377867934365.2 perplexity estimate based on a held-out corpus of 233 documents with 3130 words
2021-05-15 14:32:15,282 : INFO : PROGRESS: pass 4, at document #233/233
2021-05-15 14:32:15,282 : DEBUG : performing inference on a chunk of 233 documents
2021-05-15 14:32:15,312 : DEBUG : 233/233 documents converged within 50 iterations
2021-05-15 14:32:15,315 : INFO : optimized alpha [0.0044903574, 0.0043978915, 0.004306841, 0.004398051, 0.0044670426, 0.0043073436, 0.004361724, 0.004306841, 0.0044714496, 0.004306841, 0.004361754, 0.0043979967, 0.004306841, 0.004306841, 0.0045453813, 0.0043251044, 0.004306841, 0.0043252404, 0.004306841, 0.004306841, 0.0046060737, 0.0043068426, 0.004306855, 0.004306841, 0.004306841, 0.004306841, 0.004307121, 0.004306841, 0.004306841, 0.004398107, 0.004417217, 0.004306841, 0.004306841, 0.004383097, 0.0044346596, 0.004306841, 0.004306841, 0.004434563, 0.0044728136, 0.004408976, 0.004325289, 0.0044715246, 0.004306841, 0.00449737, 0.004306841, 0.0044711856, 0.004306841, 0.004306841, 0.004306841, 0.004306841, 0.004427746, 0.004306841, 0.004423645, 0.004508141, 0.0047503896, 0.004408785, 0.004306841, 0.004306841, 0.004306841, 0.004306841, 0.004325184, 0.004306841, 0.004509714, 0.0043618367, 0.004325007, 0.004325234, 0.004737288, 0.004306841, 0.0045278007, 0.004307055, 0.0043068416, 0.0043980284, 0.004306841, 0.004306841, 0.004306841, 0.004306841, 0.0047007054, 0.0044726203, 0.004306841, 0.004306841, 0.004306841, 0.004306841, 0.0043802923, 0.004306841, 0.004306841, 0.004306841, 0.00439805, 0.0046487753, 0.004306841, 0.004306841, 0.004306841, 0.004508166, 0.004453937, 0.004323642, 0.0046970565, 0.004306841, 0.0044641816, 0.0043071383, 0.0043069096, 0.004325224, 0.004547128, 0.004306841, 0.004306841, 0.004306841, 0.004306978, 0.0044184146, 0.0043817703, 0.004306841, 0.004361652, 0.004306841, 0.004434602, 0.004306841, 0.0044538286, 0.0045099123, 0.004306841, 0.004306841, 0.004306841, 0.004306841, 0.0044345194, 0.004306841, 0.004306841, 0.004306841, 0.0043068416, 0.004325215, 0.00439805, 0.004398035, 0.004306841, 0.004306841, 0.004306841, 0.004306841, 0.004306841, 0.004528836, 0.004306841, 0.0046989075, 0.0043068617, 0.004306841, 0.004306841, 0.0044714455, 0.004398092, 0.004306841, 0.004306841, 0.004435879, 0.004306841, 0.004306841, 0.004306841, 0.004306841, 0.004306841, 0.004398388, 0.004408708, 0.0045586685, 0.004307296, 0.004306841, 0.0043618246, 0.00465857, 0.0043071825, 0.004306841, 0.004491006, 0.004306841, 0.004434462, 0.004306841, 0.004471362, 0.0046139765, 0.004306841, 0.004361754, 0.0044550453, 0.004306841, 0.0044510444, 0.004547588, 0.004306841, 0.004306841, 0.004499096, 0.004397997, 0.004307098, 0.004306841, 0.0043980735, 0.004306842, 0.004306841, 0.004416722, 0.0044344626, 0.004306841, 0.004306841, 0.004306841, 0.004306841, 0.0043068943, 0.004306841, 0.004306841, 0.004307272, 0.0043070936, 0.004471334, 0.004306841, 0.004553237, 0.004325278, 0.004306841, 0.0046041105, 0.0045718146, 0.00441711, 0.004306841, 0.004361797, 0.004306841, 0.0045279046, 0.004306861, 0.004306869, 0.004435525, 0.004306841, 0.004306841, 0.0043617235, 0.004306841, 0.0043618716, 0.0043979655, 0.0044790823, 0.004306841, 0.004306841, 0.00449059, 0.004306841, 0.004640652, 0.004545408, 0.004325177, 0.0043252036, 0.004527998, 0.0043068444, 0.0044918056, 0.004306841, 0.0043068416, 0.004408699, 0.004306954]
2021-05-15 14:32:15,316 : DEBUG : updating topics
2021-05-15 14:32:15,331 : INFO : topic #135 (0.004): 0.001*"failure" + 0.001*"crispr" + 0.001*"policy" + 0.001*"key" + 0.001*"ineffective" + 0.001*"guideline" + 0.001*"partial" + 0.001*"embryo" + 0.001*"1803–1854" + 0.001*"newport"
2021-05-15 14:32:15,331 : INFO : topic #35 (0.004): 0.001*"failure" + 0.001*"crispr" + 0.001*"policy" + 0.001*"key" + 0.001*"ineffective" + 0.001*"guideline" + 0.001*"partial" + 0.001*"embryo" + 0.001*"1803–1854" + 0.001*"newport"
2021-05-15 14:32:15,331 : INFO : topic #54 (0.005): 0.368*"theory" + 0.183*"evidence" + 0.099*"sustainability" + 0.096*"practice" + 0.050*"science" + 0.050*"shaping" + 0.050*"engage" + 0.000*"review" + 0.000*"policy" + 0.000*"key"
2021-05-15 14:32:15,331 : INFO : topic #76 (0.005): 0.467*"biological" + 0.048*"day" + 0.048*"clock" + 0.048*"synchronization" + 0.048*"twice" + 0.048*"calibration" + 0.048*"strategy" + 0.048*"right" + 0.048*"clocks" + 0.048*"break"
2021-05-15 14:32:15,331 : INFO : topic #66 (0.005): 0.200*"explanation" + 0.101*"mechanistic" + 0.067*"molecular" + 0.067*"practice" + 0.067*"idealization" + 0.051*"fitness" + 0.037*"biology" + 0.035*"abstraction" + 0.035*"research" + 0.035*"complementary"
2021-05-15 14:32:15,332 : INFO : topic diff=0.020649, rho=0.408248
2021-05-15 14:32:15,348 : DEBUG : bound: at document #0
2021-05-15 14:32:15,398 : INFO : -43.620 per-word bound, 13518950347108.6 perplexity estimate based on a held-out corpus of 233 documents with 3130 words
2021-05-15 14:32:15,398 : INFO : PROGRESS: pass 5, at document #233/233
2021-05-15 14:32:15,398 : DEBUG : performing inference on a chunk of 233 documents
2021-05-15 14:32:15,429 : DEBUG : 233/233 documents converged within 50 iterations
2021-05-15 14:32:15,431 : INFO : optimized alpha [0.004498686, 0.0043920646, 0.004287438, 0.00439223, 0.0044827247, 0.0042879367, 0.0043490008, 0.004287438, 0.004479786, 0.004287438, 0.004349034, 0.0043921666, 0.004287438, 0.004287438, 0.004568292, 0.0043055364, 0.004287438, 0.004305673, 0.004287438, 0.004287438, 0.004629272, 0.004287439, 0.0042874506, 0.004287438, 0.004287438, 0.004287438, 0.004287717, 0.004287438, 0.004287438, 0.004392289, 0.004411357, 0.004287438, 0.004287438, 0.004370215, 0.0044358675, 0.004287438, 0.004287438, 0.004435753, 0.004474079, 0.0044030948, 0.004305721, 0.004479884, 0.004287438, 0.004512956, 0.004287438, 0.004479486, 0.004287438, 0.004287438, 0.004287438, 0.004287438, 0.0044217524, 0.004287438, 0.0044248677, 0.0045236857, 0.004819773, 0.0044028936, 0.004287438, 0.004287438, 0.004287438, 0.004287438, 0.004305614, 0.004287438, 0.0045179958, 0.0043491097, 0.0043054423, 0.0043056663, 0.004783557, 0.004287438, 0.0045433985, 0.0042876503, 0.0042874385, 0.004392204, 0.004287438, 0.004287438, 0.004287438, 0.004287438, 0.004761943, 0.00447373, 0.004287438, 0.004287438, 0.004287438, 0.004287438, 0.0043674475, 0.004287438, 0.004287438, 0.004287438, 0.0043922295, 0.0046945363, 0.004287438, 0.004287438, 0.004287438, 0.0045237173, 0.004455131, 0.004304087, 0.0047506886, 0.004287438, 0.0044652265, 0.004287731, 0.0042875065, 0.0043056575, 0.0045627193, 0.004287438, 0.004287438, 0.004287438, 0.0042875754, 0.0044125114, 0.004368899, 0.004287438, 0.00434892, 0.004287438, 0.004435795, 0.004287438, 0.0044550025, 0.004518221, 0.004287438, 0.004287438, 0.004287438, 0.004287438, 0.004435707, 0.004287438, 0.004287438, 0.004287438, 0.0042874385, 0.0043056477, 0.004392229, 0.0043922113, 0.004287438, 0.004287438, 0.004287438, 0.004287438, 0.004287438, 0.004544416, 0.004287438, 0.0047450154, 0.004287458, 0.004287438, 0.004287438, 0.004479803, 0.0043922686, 0.004287438, 0.004287438, 0.0044299057, 0.004287438, 0.004287438, 0.004287438, 0.004287438, 0.004287438, 0.004392562, 0.004402812, 0.004574324, 0.0042878883, 0.004287438, 0.0043491134, 0.004704334, 0.004287779, 0.004287438, 0.00449933, 0.004287438, 0.004435639, 0.004287438, 0.004479682, 0.0046445196, 0.004287438, 0.004349034, 0.004456145, 0.004287438, 0.0044594505, 0.004563261, 0.004287438, 0.004287438, 0.004507403, 0.004392167, 0.0042876955, 0.004287438, 0.004392253, 0.004287439, 0.004287438, 0.0044107777, 0.00443564, 0.004287438, 0.004287438, 0.004287438, 0.004287438, 0.004287493, 0.004287438, 0.004287438, 0.0042878655, 0.0042876904, 0.004479715, 0.004287438, 0.0045835604, 0.004305708, 0.004287438, 0.004627191, 0.0046022967, 0.004411237, 0.004287438, 0.004349084, 0.004287438, 0.00454352, 0.0042874576, 0.004287466, 0.004429475, 0.004287438, 0.004287438, 0.0043490008, 0.004287438, 0.00434917, 0.0043921345, 0.0044946284, 0.004287438, 0.004287438, 0.004498925, 0.004287438, 0.0046788063, 0.004568312, 0.0043056086, 0.0043056346, 0.0045436304, 0.004287441, 0.004500089, 0.004287438, 0.0042874385, 0.004402802, 0.004287552]
2021-05-15 14:32:15,432 : DEBUG : updating topics
2021-05-15 14:32:15,447 : INFO : topic #175 (0.004): 0.001*"failure" + 0.001*"crispr" + 0.001*"policy" + 0.001*"key" + 0.001*"ineffective" + 0.001*"guideline" + 0.001*"partial" + 0.001*"embryo" + 0.001*"1803–1854" + 0.001*"newport"
2021-05-15 14:32:15,447 : INFO : topic #85 (0.004): 0.001*"failure" + 0.001*"crispr" + 0.001*"policy" + 0.001*"key" + 0.001*"ineffective" + 0.001*"guideline" + 0.001*"partial" + 0.001*"embryo" + 0.001*"1803–1854" + 0.001*"newport"
2021-05-15 14:32:15,447 : INFO : topic #76 (0.005): 0.477*"biological" + 0.047*"day" + 0.047*"clock" + 0.047*"synchronization" + 0.047*"twice" + 0.047*"calibration" + 0.047*"strategy" + 0.047*"right" + 0.047*"clocks" + 0.047*"break"
2021-05-15 14:32:15,447 : INFO : topic #54 (0.005): 0.372*"theory" + 0.186*"evidence" + 0.097*"sustainability" + 0.095*"practice" + 0.049*"science" + 0.049*"shaping" + 0.049*"engage" + 0.000*"review" + 0.000*"policy" + 0.000*"key"
2021-05-15 14:32:15,448 : INFO : topic #94 (0.005): 0.468*"biology" + 0.095*"engineering" + 0.095*"synthetic" + 0.095*"philosophy" + 0.048*"reductionists" + 0.048*"explanation" + 0.048*"genetic" + 0.000*"crispr" + 0.000*"embryo" + 0.000*"failure"
2021-05-15 14:32:15,448 : INFO : topic diff=0.020437, rho=0.377964
2021-05-15 14:32:15,465 : DEBUG : bound: at document #0
2021-05-15 14:32:15,519 : INFO : -43.539 per-word bound, 12780229479206.5 perplexity estimate based on a held-out corpus of 233 documents with 3130 words
2021-05-15 14:32:15,519 : INFO : PROGRESS: pass 6, at document #233/233
2021-05-15 14:32:15,520 : DEBUG : performing inference on a chunk of 233 documents
2021-05-15 14:32:15,550 : DEBUG : 233/233 documents converged within 50 iterations
2021-05-15 14:32:15,553 : INFO : optimized alpha [0.00450639, 0.0043866257, 0.0042694323, 0.004386798, 0.0044972724, 0.0042699263, 0.0043371688, 0.0042694323, 0.0044875694, 0.0042694323, 0.0043372065, 0.004386727, 0.0042694323, 0.0042694323, 0.0045897067, 0.0042873784, 0.0042694323, 0.0042875144, 0.0042694323, 0.0042694323, 0.0046509537, 0.004269433, 0.004269444, 0.0042694323, 0.0042694323, 0.0042694323, 0.00426971, 0.0042694323, 0.0042694323, 0.0043868585, 0.0044058897, 0.0042694323, 0.0042694323, 0.004358235, 0.0044369726, 0.0042694323, 0.0042694323, 0.004436844, 0.004475089, 0.004397607, 0.0042875647, 0.004487661, 0.0042694323, 0.004527609, 0.0042694323, 0.004487207, 0.0042694323, 0.0042694323, 0.0042694323, 0.0042694323, 0.004416161, 0.0042694323, 0.0044259923, 0.004538189, 0.0048852805, 0.0043973946, 0.0042694323, 0.0042694323, 0.0042694323, 0.0042694323, 0.0042874543, 0.0042694323, 0.00452569, 0.004337274, 0.004287287, 0.0042875083, 0.0048271003, 0.0042694323, 0.0045579486, 0.0042696428, 0.0042694327, 0.0043867677, 0.0042694323, 0.0042694323, 0.0042694323, 0.0042694323, 0.0048197373, 0.0044747437, 0.0042694323, 0.0042694323, 0.0042694323, 0.0042694323, 0.0043555014, 0.0042694323, 0.0042694323, 0.0042694323, 0.0043867975, 0.004737491, 0.0042694323, 0.0042694323, 0.0042694323, 0.004538225, 0.0044562262, 0.0042859414, 0.004801164, 0.0042694323, 0.0044661807, 0.0042697215, 0.0042695, 0.004287501, 0.0045772674, 0.0042694323, 0.0042694323, 0.0042694323, 0.0042695687, 0.0044070063, 0.0043569296, 0.0042694323, 0.004337079, 0.0042694323, 0.004436883, 0.0042694323, 0.004456074, 0.0045259474, 0.0042694323, 0.0042694323, 0.0042694323, 0.0042694323, 0.0044367914, 0.0042694323, 0.0042694323, 0.0042694323, 0.0042694327, 0.004287492, 0.0043867975, 0.0043867757, 0.0042694323, 0.0042694323, 0.0042694323, 0.0042694323, 0.0042694323, 0.0045658294, 0.0042694323, 0.0047883396, 0.0042694537, 0.0042694323, 0.0042694323, 0.0044875736, 0.004387024, 0.0042694323, 0.0042694323, 0.004424332, 0.0042694323, 0.0042694323, 0.0042694323, 0.0042694323, 0.0042694323, 0.004387125, 0.004397324, 0.0045889267, 0.0042698802, 0.0042694323, 0.0043372936, 0.004747328, 0.0042697713, 0.0042694323, 0.004507071, 0.0042694323, 0.004436712, 0.0042694323, 0.004487425, 0.00467312, 0.0042694323, 0.0043372065, 0.0044571483, 0.0042694323, 0.004467305, 0.00457788, 0.0042694323, 0.0042694323, 0.0045151305, 0.0043867277, 0.0042696907, 0.0042694323, 0.004386821, 0.004269433, 0.0042694323, 0.004405231, 0.0044367127, 0.0042694323, 0.0042694323, 0.0042694323, 0.0042694323, 0.0042694877, 0.0042694323, 0.0042694323, 0.0042698556, 0.004269684, 0.004487461, 0.0042694323, 0.004611968, 0.004287551, 0.0042694323, 0.0046487646, 0.0046308585, 0.0044057555, 0.0042694323, 0.004337263, 0.0042694323, 0.0045580897, 0.0042694528, 0.004269462, 0.004423829, 0.0042694323, 0.0042694323, 0.0043371688, 0.0042694323, 0.0043373597, 0.0043866932, 0.004509137, 0.0042694323, 0.0042694323, 0.0045066797, 0.0042694323, 0.004714597, 0.004589719, 0.00428745, 0.004287478, 0.0045582154, 0.004269434, 0.0045077903, 0.0042694323, 0.0042694327, 0.004397301, 0.004269548]
2021-05-15 14:32:15,553 : DEBUG : updating topics
2021-05-15 14:32:15,571 : INFO : topic #155 (0.004): 0.001*"failure" + 0.001*"crispr" + 0.001*"policy" + 0.001*"key" + 0.001*"ineffective" + 0.001*"guideline" + 0.001*"partial" + 0.001*"embryo" + 0.001*"1803–1854" + 0.001*"newport"
2021-05-15 14:32:15,571 : INFO : topic #151 (0.004): 0.001*"failure" + 0.001*"crispr" + 0.001*"policy" + 0.001*"key" + 0.001*"ineffective" + 0.001*"guideline" + 0.001*"partial" + 0.001*"embryo" + 0.001*"1803–1854" + 0.001*"newport"
2021-05-15 14:32:15,571 : INFO : topic #66 (0.005): 0.208*"explanation" + 0.104*"mechanistic" + 0.069*"molecular" + 0.069*"practice" + 0.069*"idealization" + 0.042*"fitness" + 0.038*"biology" + 0.035*"abstraction" + 0.035*"complementary" + 0.035*"research"
2021-05-15 14:32:15,571 : INFO : topic #76 (0.005): 0.483*"biological" + 0.047*"day" + 0.047*"clock" + 0.047*"synchronization" + 0.047*"twice" + 0.047*"calibration" + 0.047*"strategy" + 0.047*"right" + 0.047*"break" + 0.047*"clocks"
2021-05-15 14:32:15,571 : INFO : topic #54 (0.005): 0.374*"theory" + 0.187*"evidence" + 0.096*"sustainability" + 0.095*"practice" + 0.048*"science" + 0.048*"shaping" + 0.048*"engage" + 0.000*"review" + 0.000*"policy" + 0.000*"key"
2021-05-15 14:32:15,572 : INFO : topic diff=0.021274, rho=0.353553
2021-05-15 14:32:15,588 : DEBUG : bound: at document #0
2021-05-15 14:32:15,639 : INFO : -43.469 per-word bound, 12178417326398.5 perplexity estimate based on a held-out corpus of 233 documents with 3130 words
2021-05-15 14:32:15,639 : INFO : PROGRESS: pass 7, at document #233/233
2021-05-15 14:32:15,639 : DEBUG : performing inference on a chunk of 233 documents
2021-05-15 14:32:15,669 : DEBUG : 233/233 documents converged within 50 iterations
2021-05-15 14:32:15,672 : INFO : optimized alpha [0.0045136167, 0.004381507, 0.0042525814, 0.004381687, 0.0045109545, 0.0042530727, 0.0043260753, 0.0042525814, 0.004494845, 0.0042525814, 0.0043261135, 0.0043816185, 0.0042525814, 0.0042525814, 0.004609885, 0.004270386, 0.0042525814, 0.0042705215, 0.0042525814, 0.0042525814, 0.004671382, 0.0042525833, 0.004252596, 0.0042525814, 0.0042525814, 0.0042525814, 0.0042528585, 0.0042525814, 0.0042525814, 0.0043817502, 0.0044007464, 0.0042525814, 0.0042525814, 0.004347001, 0.004437994, 0.0042525814, 0.0042525814, 0.00443785, 0.00447602, 0.004392443, 0.0042705717, 0.0044949576, 0.0042525814, 0.00454126, 0.0042525814, 0.0044944515, 0.0042525814, 0.0042525814, 0.0042525814, 0.0042525814, 0.0044109025, 0.0042525814, 0.004427026, 0.0045518293, 0.004947572, 0.004392221, 0.0042525814, 0.0042525814, 0.0042525814, 0.0042525814, 0.004270463, 0.0042525814, 0.004532909, 0.004326175, 0.004270296, 0.004270515, 0.0048683197, 0.0042525814, 0.004571633, 0.004252791, 0.0042525823, 0.004381652, 0.0042525814, 0.0042525814, 0.0042525814, 0.0042525814, 0.004874551, 0.004475678, 0.0042525814, 0.0042525814, 0.0042525814, 0.0042525814, 0.0043442994, 0.0042525814, 0.0042525814, 0.0042525814, 0.004381686, 0.004778219, 0.0042525814, 0.0042525814, 0.0042525814, 0.004551868, 0.0044572353, 0.0042689606, 0.004849007, 0.0042525814, 0.004467058, 0.0042528706, 0.0042526494, 0.0042705084, 0.0045909453, 0.0042525814, 0.0042525814, 0.0042525814, 0.0042527183, 0.004401824, 0.004345706, 0.0042525814, 0.0043259775, 0.0042525814, 0.0044378904, 0.0042525814, 0.004457063, 0.0045331954, 0.0042525814, 0.0042525814, 0.0042525814, 0.0042525814, 0.004437792, 0.0042525814, 0.0042525814, 0.0042525814, 0.0042525823, 0.0042704996, 0.004381686, 0.0043816594, 0.0042525814, 0.0042525814, 0.0042525814, 0.0042525814, 0.0042525814, 0.004586014, 0.0042525814, 0.004829349, 0.0042526056, 0.0042525814, 0.0042525814, 0.0044948566, 0.0043821773, 0.0042525814, 0.0042525814, 0.004419091, 0.0042525814, 0.0042525814, 0.0042525814, 0.0042525814, 0.0042525814, 0.004382011, 0.0043921466, 0.004602658, 0.004253029, 0.0042525814, 0.004326211, 0.0047880616, 0.0042529185, 0.0042525814, 0.0045143366, 0.0042525814, 0.004437702, 0.0042525814, 0.004494687, 0.0047001103, 0.0042525814, 0.0043261135, 0.0044580726, 0.0042525814, 0.004474645, 0.00459163, 0.0042525814, 0.0042525814, 0.0045223786, 0.004381612, 0.0042528394, 0.0042525814, 0.004381711, 0.0042525833, 0.0042525814, 0.0044000135, 0.004437703, 0.0042525814, 0.0042525814, 0.0042525814, 0.0042525814, 0.0042526373, 0.0042525814, 0.0042525814, 0.0042530023, 0.0042528333, 0.0044948426, 0.0042525814, 0.0046387976, 0.00427056, 0.0042525814, 0.00466909, 0.004657726, 0.0044006007, 0.0042525814, 0.004326176, 0.0042525814, 0.004571793, 0.004252605, 0.0042526135, 0.004418516, 0.0042525814, 0.0042525814, 0.0043260753, 0.0042525814, 0.0043262844, 0.004381571, 0.004522788, 0.0042525814, 0.0042525814, 0.0045139543, 0.0042525814, 0.004748425, 0.0046098894, 0.0042704567, 0.004270488, 0.004571931, 0.0042525856, 0.004515017, 0.0042525814, 0.0042525823, 0.0043921242, 0.0042526983]
2021-05-15 14:32:15,672 : DEBUG : updating topics
2021-05-15 14:32:15,692 : INFO : topic #213 (0.004): 0.001*"failure" + 0.001*"crispr" + 0.001*"policy" + 0.001*"key" + 0.001*"ineffective" + 0.001*"guideline" + 0.001*"partial" + 0.001*"embryo" + 0.001*"1803–1854" + 0.001*"newport"
2021-05-15 14:32:15,692 : INFO : topic #126 (0.004): 0.001*"failure" + 0.001*"crispr" + 0.001*"policy" + 0.001*"key" + 0.001*"ineffective" + 0.001*"guideline" + 0.001*"partial" + 0.001*"embryo" + 0.001*"1803–1854" + 0.001*"newport"
2021-05-15 14:32:15,692 : INFO : topic #76 (0.005): 0.487*"biological" + 0.046*"day" + 0.046*"clock" + 0.046*"synchronization" + 0.046*"twice" + 0.046*"calibration" + 0.046*"strategy" + 0.046*"right" + 0.046*"break" + 0.046*"clocks"
2021-05-15 14:32:15,693 : INFO : topic #66 (0.005): 0.210*"explanation" + 0.105*"mechanistic" + 0.070*"molecular" + 0.070*"practice" + 0.070*"idealization" + 0.040*"fitness" + 0.038*"biology" + 0.035*"abstraction" + 0.035*"complementary" + 0.035*"grounding"
2021-05-15 14:32:15,693 : INFO : topic #54 (0.005): 0.376*"theory" + 0.188*"evidence" + 0.096*"sustainability" + 0.095*"practice" + 0.048*"science" + 0.048*"shaping" + 0.048*"engage" + 0.000*"review" + 0.000*"policy" + 0.000*"key"
2021-05-15 14:32:15,693 : INFO : topic diff=0.022225, rho=0.333333
2021-05-15 14:32:15,709 : DEBUG : bound: at document #0
2021-05-15 14:32:15,761 : INFO : -43.405 per-word bound, 11645403377146.5 perplexity estimate based on a held-out corpus of 233 documents with 3130 words
2021-05-15 14:32:15,761 : INFO : PROGRESS: pass 8, at document #233/233
2021-05-15 14:32:15,761 : DEBUG : performing inference on a chunk of 233 documents
2021-05-15 14:32:15,792 : DEBUG : 233/233 documents converged within 50 iterations
2021-05-15 14:32:15,795 : INFO : optimized alpha [0.00452044, 0.004376662, 0.0042367093, 0.0043768473, 0.004523903, 0.0042371973, 0.004315606, 0.0042367093, 0.004501716, 0.0042367093, 0.004315645, 0.0043767756, 0.0042367093, 0.0042367093, 0.004629014, 0.0042543807, 0.0042367093, 0.0042545157, 0.0042367093, 0.0042367093, 0.004690748, 0.004236711, 0.0042367224, 0.0042367093, 0.0042367093, 0.0042367093, 0.004236985, 0.0042367093, 0.0042367093, 0.0043769157, 0.0043958775, 0.0042367093, 0.0042367093, 0.0043364023, 0.004438944, 0.0042367093, 0.0042367093, 0.0044387844, 0.004476884, 0.0043875566, 0.004254566, 0.004501847, 0.0042367093, 0.004554187, 0.0042367093, 0.00450129, 0.0042367093, 0.0042367093, 0.0042367093, 0.0042367093, 0.004405923, 0.0042367093, 0.0044279853, 0.004564738, 0.005007136, 0.0043873247, 0.0042367093, 0.0042367093, 0.0042367093, 0.0042367093, 0.0042544566, 0.0042367093, 0.0045397235, 0.0043157004, 0.0042542918, 0.0042545088, 0.0049074944, 0.0042367093, 0.0045845835, 0.004236918, 0.00423671, 0.004376811, 0.0042367093, 0.0042367093, 0.0042367093, 0.0042367093, 0.0049268953, 0.0044765444, 0.0042367093, 0.0042367093, 0.0042367093, 0.0042367093, 0.0043337294, 0.0042367093, 0.0042367093, 0.0042367093, 0.0043768464, 0.0048169494, 0.0042367093, 0.0042367093, 0.0042367093, 0.0045647784, 0.004458173, 0.004252966, 0.0049011935, 0.0042367093, 0.0044679143, 0.0042369957, 0.0042367773, 0.0042545022, 0.004603891, 0.0042367093, 0.0042367093, 0.0042367093, 0.0042368458, 0.004397005, 0.004335114, 0.0042367093, 0.004315499, 0.0042367093, 0.0044388263, 0.0042367093, 0.0044579827, 0.0045400374, 0.0042367093, 0.0042367093, 0.0042367093, 0.0042367093, 0.0044387225, 0.0042367093, 0.0042367093, 0.0042367093, 0.00423671, 0.004254495, 0.0043768464, 0.004376816, 0.0042367093, 0.0042367093, 0.0042367093, 0.0042367093, 0.0042367093, 0.004605152, 0.0042367093, 0.0048683975, 0.004236733, 0.0042367093, 0.0042367093, 0.0045017353, 0.0043774676, 0.0042367093, 0.0042367093, 0.004414128, 0.0042367093, 0.0042367093, 0.0042367093, 0.0042367093, 0.0042367093, 0.0043771695, 0.0043872483, 0.004615655, 0.004237153, 0.0042367093, 0.004315751, 0.0048268065, 0.0042370437, 0.0042367093, 0.0045211934, 0.0042367093, 0.004438623, 0.0042367093, 0.0045015444, 0.0047257366, 0.0042367093, 0.004315645, 0.004458931, 0.0042367093, 0.0044815755, 0.004604641, 0.0042367093, 0.0042367093, 0.0045292224, 0.0043767667, 0.004236966, 0.0042367093, 0.004376874, 0.004236711, 0.0042367093, 0.0043950733, 0.0044386243, 0.0042367093, 0.0042367093, 0.0042367093, 0.0042367093, 0.0042367643, 0.0042367093, 0.0042367093, 0.0042371275, 0.004236959, 0.0045018075, 0.0042367093, 0.004664261, 0.004254552, 0.0042367093, 0.0046883575, 0.004683313, 0.00439572, 0.0042367093, 0.004315713, 0.0042367093, 0.004584761, 0.0042367326, 0.0042367396, 0.004413488, 0.0042367093, 0.0042367093, 0.0043156054, 0.0042367093, 0.0043158317, 0.0043767225, 0.004535713, 0.0042367093, 0.0042367093, 0.0045208232, 0.0042367093, 0.004780592, 0.0046290117, 0.004254451, 0.0042544804, 0.004584912, 0.0042367135, 0.004521833, 0.0042367093, 0.00423671, 0.0043872246, 0.004236826]
2021-05-15 14:32:15,795 : DEBUG : updating topics
2021-05-15 14:32:15,810 : INFO : topic #222 (0.004): 0.001*"failure" + 0.001*"crispr" + 0.001*"policy" + 0.001*"key" + 0.001*"ineffective" + 0.001*"guideline" + 0.001*"partial" + 0.001*"embryo" + 0.001*"1803–1854" + 0.001*"newport"
2021-05-15 14:32:15,810 : INFO : topic #186 (0.004): 0.001*"failure" + 0.001*"crispr" + 0.001*"policy" + 0.001*"key" + 0.001*"ineffective" + 0.001*"guideline" + 0.001*"partial" + 0.001*"embryo" + 0.001*"1803–1854" + 0.001*"newport"
2021-05-15 14:32:15,811 : INFO : topic #94 (0.005): 0.473*"biology" + 0.094*"engineering" + 0.094*"synthetic" + 0.094*"philosophy" + 0.047*"reductionists" + 0.047*"explanation" + 0.047*"genetic" + 0.000*"crispr" + 0.000*"embryo" + 0.000*"failure"
2021-05-15 14:32:15,811 : INFO : topic #76 (0.005): 0.489*"biological" + 0.046*"day" + 0.046*"clock" + 0.046*"twice" + 0.046*"synchronization" + 0.046*"calibration" + 0.046*"strategy" + 0.046*"right" + 0.046*"break" + 0.046*"clocks"
2021-05-15 14:32:15,811 : INFO : topic #54 (0.005): 0.377*"theory" + 0.188*"evidence" + 0.096*"sustainability" + 0.095*"practice" + 0.048*"science" + 0.048*"shaping" + 0.048*"engage" + 0.000*"review" + 0.000*"policy" + 0.000*"key"
2021-05-15 14:32:15,811 : INFO : topic diff=0.022636, rho=0.316228
2021-05-15 14:32:15,827 : DEBUG : bound: at document #0
2021-05-15 14:32:15,879 : INFO : -43.346 per-word bound, 11177574317101.3 perplexity estimate based on a held-out corpus of 233 documents with 3130 words
2021-05-15 14:32:15,880 : INFO : PROGRESS: pass 9, at document #233/233
2021-05-15 14:32:15,880 : DEBUG : performing inference on a chunk of 233 documents
2021-05-15 14:32:15,921 : DEBUG : 233/233 documents converged within 50 iterations
2021-05-15 14:32:15,926 : INFO : optimized alpha [0.0045269146, 0.004372052, 0.0042216745, 0.0043722424, 0.0045362585, 0.0042221583, 0.004305671, 0.0042216745, 0.004508237, 0.0042216745, 0.0043057133, 0.004372165, 0.0042216745, 0.0042216745, 0.0046472405, 0.00423922, 0.0042216745, 0.0042393547, 0.0042216745, 0.0042216745, 0.0047092, 0.0042216773, 0.0042216885, 0.0042216745, 0.0042216745, 0.0042216745, 0.004221948, 0.0042216745, 0.0042216745, 0.004372326, 0.004391242, 0.0042216745, 0.0042216745, 0.004326345, 0.0044398317, 0.0042216745, 0.0042216745, 0.004439658, 0.004477691, 0.0043829065, 0.0042394046, 0.004508386, 0.0042216745, 0.004566498, 0.0042216745, 0.00450778, 0.0042216745, 0.0042216745, 0.0042216745, 0.0042216745, 0.0044011855, 0.0042216745, 0.004429077, 0.004577017, 0.0050643627, 0.004382666, 0.0042216745, 0.0042216745, 0.0042216745, 0.0042216745, 0.004239297, 0.0042216745, 0.0045461906, 0.004305761, 0.0042391326, 0.0042393478, 0.0049449746, 0.0042216745, 0.0045969035, 0.0042218817, 0.0042216755, 0.0043722033, 0.0042216745, 0.0042216745, 0.0042216745, 0.0042216745, 0.0049771103, 0.0044773547, 0.0042216745, 0.0042216745, 0.0042216745, 0.0042216745, 0.0043236995, 0.0042216745, 0.0042216745, 0.0042216745, 0.004372241, 0.004854033, 0.0042216745, 0.0042216745, 0.0042216745, 0.0045770598, 0.00445905, 0.0042378157, 0.0049512982, 0.0042216745, 0.0044686715, 0.00422196, 0.0042217416, 0.0042393417, 0.004616205, 0.0042216745, 0.0042216745, 0.0042216745, 0.0042218096, 0.004392336, 0.004325063, 0.0042216745, 0.0043055583, 0.0042216745, 0.0044397027, 0.0042216745, 0.0044588423, 0.0045465315, 0.0042216745, 0.0042216745, 0.0042216745, 0.0042216745, 0.004439594, 0.0042216745, 0.0042216745, 0.0042216745, 0.0042216755, 0.004239334, 0.004372241, 0.0043722093, 0.0042216745, 0.0042216745, 0.0042216745, 0.0042216745, 0.0042216745, 0.0046233903, 0.0042216745, 0.004905756, 0.0042216997, 0.0042216745, 0.0042216745, 0.0045082862, 0.0043728594, 0.0042216745, 0.0042216745, 0.0044094054, 0.0042216745, 0.0042216745, 0.0042216745, 0.0042216745, 0.0042216745, 0.004372563, 0.004382586, 0.0046280166, 0.0042221164, 0.0042216745, 0.004305825, 0.0048638755, 0.0042220075, 0.0042216745, 0.004527701, 0.0042216745, 0.004439484, 0.0042216745, 0.004508052, 0.0047501894, 0.0042216745, 0.0043057133, 0.0044597313, 0.0042216745, 0.0044881515, 0.0046170186, 0.0042216745, 0.0042216745, 0.0045357184, 0.004372156, 0.00422193, 0.0042216745, 0.0043722712, 0.0042216773, 0.0042216745, 0.0043903743, 0.0044394867, 0.0042216745, 0.0042216745, 0.0042216745, 0.0042216745, 0.00422173, 0.0042216745, 0.0042216745, 0.004222089, 0.004221923, 0.0045083184, 0.0042216745, 0.0046885614, 0.004239393, 0.0042216745, 0.0047067157, 0.0047077085, 0.004391074, 0.0042216745, 0.004305786, 0.0042216745, 0.0045970962, 0.004221699, 0.0042217067, 0.0044087297, 0.0042216745, 0.0042216745, 0.00430567, 0.0042216745, 0.004305912, 0.0043721115, 0.0045480104, 0.0042216745, 0.0042216745, 0.0045273425, 0.0042216745, 0.004811326, 0.004647231, 0.00423929, 0.004239321, 0.0045972615, 0.004221679, 0.004528305, 0.0042216745, 0.0042216755, 0.004382562, 0.0042217914]
2021-05-15 14:32:15,927 : DEBUG : updating topics
2021-05-15 14:32:15,948 : INFO : topic #9 (0.004): 0.001*"failure" + 0.001*"crispr" + 0.001*"policy" + 0.001*"key" + 0.001*"ineffective" + 0.001*"guideline" + 0.001*"partial" + 0.001*"embryo" + 0.001*"1803–1854" + 0.001*"newport"
2021-05-15 14:32:15,948 : INFO : topic #192 (0.004): 0.001*"failure" + 0.001*"crispr" + 0.001*"policy" + 0.001*"key" + 0.001*"ineffective" + 0.001*"guideline" + 0.001*"partial" + 0.001*"embryo" + 0.001*"1803–1854" + 0.001*"newport"
2021-05-15 14:32:15,948 : INFO : topic #76 (0.005): 0.490*"biological" + 0.046*"clock" + 0.046*"day" + 0.046*"twice" + 0.046*"synchronization" + 0.046*"calibration" + 0.046*"strategy" + 0.046*"right" + 0.046*"break" + 0.046*"clocks"
2021-05-15 14:32:15,948 : INFO : topic #133 (0.005): 0.172*"function" + 0.087*"law" + 0.074*"biology" + 0.058*"explanatory" + 0.058*"novel" + 0.029*"relation" + 0.029*"organ" + 0.029*"psychic" + 0.029*"gmo" + 0.029*"disturbance"
2021-05-15 14:32:15,949 : INFO : topic #54 (0.005): 0.377*"theory" + 0.189*"evidence" + 0.095*"sustainability" + 0.095*"practice" + 0.048*"science" + 0.048*"shaping" + 0.048*"engage" + 0.000*"review" + 0.000*"policy" + 0.000*"key"
2021-05-15 14:32:15,949 : INFO : topic diff=0.022290, rho=0.301511
2021-05-15 14:32:15,957 : DEBUG : starting a new internal lifecycle event log for LdaModel
2021-05-15 14:32:15,957 : INFO : LdaModel lifecycle event {'msg': 'trained LdaModel(num_terms=960, num_topics=225, decay=0.5, chunksize=2000) in 1.29s', 'datetime': '2021-05-15T14:32:15.957786', 'gensim': '4.0.1', 'python': '3.9.4 (default, Apr 20 2021, 15:51:38) \n[GCC 10.2.0]', 'platform': 'Linux-5.11.16-arch1-1-x86_64-with-glibc2.33', 'event': 'created'}
2021-05-15 14:32:16,032 : DEBUG : Setting topics to those of the model: LdaModel(num_terms=960, num_topics=225, decay=0.5, chunksize=2000)
2021-05-15 14:32:16,157 : INFO : COHERENCE: -16.37356069618172
2021-05-15 14:33:02,484 : INFO : MATCH PERCENT: 0.6051502145922747
