2021-05-15 14:29:01,264 : INFO : adding document #0 to Dictionary(0 unique tokens: [])
2021-05-15 14:29:01,269 : INFO : built Dictionary(960 unique tokens: ['agential', 'construction', 'niche', 'discovery', 'epistemic']...) from 233 documents (total 3130 corpus positions)
2021-05-15 14:29:01,283 : DEBUG : starting a new internal lifecycle event log for Dictionary
2021-05-15 14:29:01,283 : INFO : Dictionary lifecycle event {'msg': "built Dictionary(960 unique tokens: ['agential', 'construction', 'niche', 'discovery', 'epistemic']...) from 233 documents (total 3130 corpus positions)", 'datetime': '2021-05-15T14:29:01.269713', 'gensim': '4.0.1', 'python': '3.9.4 (default, Apr 20 2021, 15:51:38) \n[GCC 10.2.0]', 'platform': 'Linux-5.11.16-arch1-1-x86_64-with-glibc2.33', 'event': 'created'}
2021-05-15 14:29:01,286 : INFO : using autotuned alpha, starting with [0.01, 0.01, 0.01, 0.01, 0.01, 0.01, 0.01, 0.01, 0.01, 0.01, 0.01, 0.01, 0.01, 0.01, 0.01, 0.01, 0.01, 0.01, 0.01, 0.01, 0.01, 0.01, 0.01, 0.01, 0.01, 0.01, 0.01, 0.01, 0.01, 0.01, 0.01, 0.01, 0.01, 0.01, 0.01, 0.01, 0.01, 0.01, 0.01, 0.01, 0.01, 0.01, 0.01, 0.01, 0.01, 0.01, 0.01, 0.01, 0.01, 0.01, 0.01, 0.01, 0.01, 0.01, 0.01, 0.01, 0.01, 0.01, 0.01, 0.01, 0.01, 0.01, 0.01, 0.01, 0.01, 0.01, 0.01, 0.01, 0.01, 0.01, 0.01, 0.01, 0.01, 0.01, 0.01, 0.01, 0.01, 0.01, 0.01, 0.01, 0.01, 0.01, 0.01, 0.01, 0.01, 0.01, 0.01, 0.01, 0.01, 0.01, 0.01, 0.01, 0.01, 0.01, 0.01, 0.01, 0.01, 0.01, 0.01, 0.01]
2021-05-15 14:29:01,287 : INFO : using serial LDA version on this node
2021-05-15 14:29:01,299 : INFO : running online (multi-pass) LDA training, 100 topics, 10 passes over the supplied corpus of 233 documents, updating model once every 233 documents, evaluating perplexity every 233 documents, iterating 50x with a convergence threshold of 0.001000
2021-05-15 14:29:01,304 : DEBUG : bound: at document #0
2021-05-15 14:29:01,429 : INFO : -103.803 per-word bound, 17690317802059698704167546650624.0 perplexity estimate based on a held-out corpus of 233 documents with 3130 words
2021-05-15 14:29:01,429 : INFO : PROGRESS: pass 0, at document #233/233
2021-05-15 14:29:01,429 : DEBUG : performing inference on a chunk of 233 documents
2021-05-15 14:29:01,528 : DEBUG : 219/233 documents converged within 50 iterations
2021-05-15 14:29:01,531 : INFO : optimized alpha [0.009784076, 0.009916973, 0.009827005, 0.009695951, 0.009828603, 0.009740151, 0.009828269, 0.009740151, 0.00991664, 0.00974028, 0.009784747, 0.009739302, 0.0098726675, 0.009872967, 0.009695951, 0.009872947, 0.009739968, 0.009740378, 0.0098286355, 0.009828793, 0.009695951, 0.009784458, 0.0098275645, 0.009784238, 0.009739835, 0.009828234, 0.009740331, 0.009784295, 0.009872411, 0.009829123, 0.009739835, 0.00974022, 0.009828205, 0.009695951, 0.009735068, 0.009916801, 0.009917323, 0.009871875, 0.00974028, 0.009740145, 0.009828187, 0.00974042, 0.00974, 0.009961361, 0.009740377, 0.009961132, 0.009828438, 0.009828388, 0.009872184, 0.009784706, 0.009784758, 0.009784712, 0.009784398, 0.0098715965, 0.0097842375, 0.009739835, 0.010004609, 0.009917128, 0.009917365, 0.009871804, 0.009828727, 0.009739835, 0.009764612, 0.009695951, 0.009784263, 0.009784405, 0.009828382, 0.009828996, 0.009784105, 0.009828029, 0.009828666, 0.009873423, 0.00987295, 0.009784305, 0.009695951, 0.009784339, 0.009784397, 0.009827739, 0.009783954, 0.009828818, 0.009739835, 0.009784601, 0.009827972, 0.00982861, 0.009740492, 0.009784545, 0.00974022, 0.009916868, 0.009827894, 0.009872885, 0.009828165, 0.009740331, 0.009828344, 0.009739943, 0.00974028, 0.009828719, 0.009695951, 0.009961617, 0.009784087, 0.009784532]
2021-05-15 14:29:01,531 : DEBUG : updating topics
2021-05-15 14:29:01,541 : INFO : topic #14 (0.010): 0.001*"failure" + 0.001*"crispr" + 0.001*"policy" + 0.001*"key" + 0.001*"ineffective" + 0.001*"guideline" + 0.001*"partial" + 0.001*"embryo" + 0.001*"1803–1854" + 0.001*"newport"
2021-05-15 14:29:01,541 : INFO : topic #3 (0.010): 0.001*"failure" + 0.001*"crispr" + 0.001*"policy" + 0.001*"key" + 0.001*"ineffective" + 0.001*"guideline" + 0.001*"partial" + 0.001*"embryo" + 0.001*"1803–1854" + 0.001*"newport"
2021-05-15 14:29:01,541 : INFO : topic #97 (0.010): 0.063*"science" + 0.042*"selection" + 0.042*"sustainability" + 0.042*"natural" + 0.021*"engage" + 0.021*"metaethical" + 0.021*"immediate" + 0.021*"preserve" + 0.021*"darwinian" + 0.021*"shaping"
2021-05-15 14:29:01,541 : INFO : topic #56 (0.010): 0.061*"biology" + 0.046*"life" + 0.033*"role" + 0.023*"memory" + 0.023*"pcr" + 0.023*"realization" + 0.023*"transformation" + 0.023*"rna" + 0.023*"case" + 0.023*"image"
2021-05-15 14:29:01,541 : INFO : topic #43 (0.010): 0.046*"explanation" + 0.046*"research" + 0.023*"context" + 0.023*"property" + 0.023*"invention" + 0.023*"limit" + 0.023*"microbiota" + 0.023*"cell" + 0.023*"vanish" + 0.023*"hybridization"
2021-05-15 14:29:01,542 : INFO : topic diff=94.980064, rho=1.000000
2021-05-15 14:29:01,551 : DEBUG : bound: at document #0
2021-05-15 14:29:01,600 : INFO : -7.169 per-word bound, 143.9 perplexity estimate based on a held-out corpus of 233 documents with 3130 words
2021-05-15 14:29:01,600 : INFO : PROGRESS: pass 1, at document #233/233
2021-05-15 14:29:01,600 : DEBUG : performing inference on a chunk of 233 documents
2021-05-15 14:29:01,633 : DEBUG : 233/233 documents converged within 50 iterations
2021-05-15 14:29:01,635 : INFO : optimized alpha [0.009660289, 0.00988979, 0.009701746, 0.009525303, 0.009728612, 0.009592782, 0.009727852, 0.009592782, 0.00983886, 0.009592981, 0.009661088, 0.0095671285, 0.0097964415, 0.009796896, 0.009525303, 0.009796864, 0.009641048, 0.0095931245, 0.009728599, 0.00970374, 0.009525303, 0.009660656, 0.009702312, 0.009660516, 0.009592301, 0.009727924, 0.009593056, 0.009660484, 0.009770983, 0.0097292885, 0.009592301, 0.009592883, 0.009727882, 0.009525303, 0.009563038, 0.009864259, 0.009865514, 0.0097950855, 0.009592981, 0.009592924, 0.009727853, 0.00959319, 0.00959278, 0.009933868, 0.009593122, 0.009933515, 0.009728239, 0.009728163, 0.009770973, 0.00966103, 0.009661109, 0.0096610375, 0.009660559, 0.0097947, 0.009660312, 0.009592301, 0.009950573, 0.0098900655, 0.009865583, 0.009795227, 0.009728781, 0.009616372, 0.009616344, 0.009525303, 0.009660422, 0.009660757, 0.009752742, 0.0097292075, 0.009660107, 0.009703025, 0.009728589, 0.009797603, 0.009771742, 0.0096604135, 0.009525303, 0.009660468, 0.009660557, 0.009727166, 0.009659879, 0.00972882, 0.009592301, 0.009660864, 0.009727527, 0.009728593, 0.009593298, 0.009635866, 0.009592883, 0.009839655, 0.009702681, 0.009771689, 0.0097027635, 0.009593056, 0.009703039, 0.009592703, 0.009592981, 0.009728671, 0.009525303, 0.009934267, 0.00966008, 0.00966076]
2021-05-15 14:29:01,635 : DEBUG : updating topics
2021-05-15 14:29:01,644 : INFO : topic #20 (0.010): 0.001*"failure" + 0.001*"crispr" + 0.001*"policy" + 0.001*"key" + 0.001*"ineffective" + 0.001*"guideline" + 0.001*"partial" + 0.001*"embryo" + 0.001*"1803–1854" + 0.001*"newport"
2021-05-15 14:29:01,644 : INFO : topic #96 (0.010): 0.001*"failure" + 0.001*"crispr" + 0.001*"policy" + 0.001*"key" + 0.001*"ineffective" + 0.001*"guideline" + 0.001*"partial" + 0.001*"embryo" + 0.001*"1803–1854" + 0.001*"newport"
2021-05-15 14:29:01,644 : INFO : topic #1 (0.010): 0.076*"model" + 0.051*"selection" + 0.051*"selective" + 0.051*"change" + 0.040*"population" + 0.026*"phenotypic" + 0.026*"anything" + 0.026*"mechanism" + 0.026*"aesthetic" + 0.026*"ecology"
2021-05-15 14:29:01,644 : INFO : topic #56 (0.010): 0.057*"biology" + 0.050*"life" + 0.029*"role" + 0.025*"memory" + 0.025*"pcr" + 0.025*"realization" + 0.025*"transformation" + 0.025*"rna" + 0.025*"case" + 0.025*"image"
2021-05-15 14:29:01,645 : INFO : topic #43 (0.010): 0.046*"explanation" + 0.046*"research" + 0.023*"context" + 0.023*"property" + 0.023*"invention" + 0.023*"limit" + 0.023*"microbiota" + 0.023*"cell" + 0.023*"vanish" + 0.023*"hybridization"
2021-05-15 14:29:01,645 : INFO : topic diff=0.047401, rho=0.577350
2021-05-15 14:29:01,652 : DEBUG : bound: at document #0
2021-05-15 14:29:01,700 : INFO : -7.081 per-word bound, 135.4 perplexity estimate based on a held-out corpus of 233 documents with 3130 words
2021-05-15 14:29:01,700 : INFO : PROGRESS: pass 2, at document #233/233
2021-05-15 14:29:01,700 : DEBUG : performing inference on a chunk of 233 documents
2021-05-15 14:29:01,730 : DEBUG : 233/233 documents converged within 50 iterations
2021-05-15 14:29:01,732 : INFO : optimized alpha [0.00955544, 0.009865815, 0.009595661, 0.009381833, 0.00964353, 0.009468448, 0.009642418, 0.009468448, 0.009772313, 0.009468699, 0.00955634, 0.009422395, 0.0097312, 0.009731784, 0.009381833, 0.009731746, 0.00953615, 0.009468889, 0.009643479, 0.009597833, 0.009381833, 0.009555796, 0.009596244, 0.009555716, 0.009467832, 0.009642578, 0.00946879, 0.009534401, 0.009684693, 0.009644336, 0.009467832, 0.009468569, 0.009642525, 0.009381833, 0.009418431, 0.009818894, 0.009820767, 0.009729374, 0.009468699, 0.009468709, 0.009642488, 0.009468965, 0.009468571, 0.009909632, 0.009468885, 0.009909172, 0.009642982, 0.009642888, 0.009684863, 0.009556268, 0.009556363, 0.009556277, 0.00955566, 0.0097289, 0.009555349, 0.009467832, 0.00990393, 0.009866196, 0.009820853, 0.009729695, 0.0096437335, 0.009512061, 0.009491264, 0.009381833, 0.009555533, 0.009556018, 0.009687995, 0.009644289, 0.009555088, 0.009597157, 0.009643433, 0.0097327, 0.009685642, 0.009555481, 0.009381833, 0.00955555, 0.009555656, 0.0096416, 0.009554797, 0.009643728, 0.009467832, 0.009556055, 0.009642065, 0.0096434895, 0.009469106, 0.009510446, 0.009468569, 0.009773581, 0.009596752, 0.009685594, 0.009596576, 0.00946879, 0.009596924, 0.009468467, 0.009468699, 0.00964354, 0.009381833, 0.0099101495, 0.009555056, 0.009555924]
2021-05-15 14:29:01,732 : DEBUG : updating topics
2021-05-15 14:29:01,741 : INFO : topic #3 (0.009): 0.001*"failure" + 0.001*"crispr" + 0.001*"policy" + 0.001*"key" + 0.001*"ineffective" + 0.001*"guideline" + 0.001*"partial" + 0.001*"embryo" + 0.001*"1803–1854" + 0.001*"newport"
2021-05-15 14:29:01,741 : INFO : topic #63 (0.009): 0.001*"failure" + 0.001*"crispr" + 0.001*"policy" + 0.001*"key" + 0.001*"ineffective" + 0.001*"guideline" + 0.001*"partial" + 0.001*"embryo" + 0.001*"1803–1854" + 0.001*"newport"
2021-05-15 14:29:01,741 : INFO : topic #56 (0.010): 0.055*"biology" + 0.051*"life" + 0.028*"role" + 0.026*"memory" + 0.026*"pcr" + 0.026*"realization" + 0.026*"transformation" + 0.026*"rna" + 0.026*"case" + 0.026*"image"
2021-05-15 14:29:01,741 : INFO : topic #45 (0.010): 0.024*"paradigm" + 0.024*"dog" + 0.024*"russell" + 0.024*"synthesis" + 0.024*"sensationalizing" + 0.024*"plant" + 0.024*"playing" + 0.024*"stuart" + 0.024*"stance" + 0.024*"flexibility"
2021-05-15 14:29:01,741 : INFO : topic #97 (0.010): 0.063*"science" + 0.042*"selection" + 0.042*"sustainability" + 0.042*"natural" + 0.021*"engage" + 0.021*"metaethical" + 0.021*"immediate" + 0.021*"preserve" + 0.021*"darwinian" + 0.021*"shaping"
2021-05-15 14:29:01,742 : INFO : topic diff=0.025686, rho=0.500000
2021-05-15 14:29:01,749 : DEBUG : bound: at document #0
2021-05-15 14:29:01,795 : INFO : -7.034 per-word bound, 131.0 perplexity estimate based on a held-out corpus of 233 documents with 3130 words
2021-05-15 14:29:01,795 : INFO : PROGRESS: pass 3, at document #233/233
2021-05-15 14:29:01,795 : DEBUG : performing inference on a chunk of 233 documents
2021-05-15 14:29:01,825 : DEBUG : 233/233 documents converged within 50 iterations
2021-05-15 14:29:01,827 : INFO : optimized alpha [0.009463436, 0.009844056, 0.0095025925, 0.009256715, 0.009568577, 0.009359699, 0.009567163, 0.009359699, 0.009713419, 0.009359996, 0.009464422, 0.009296194, 0.009673441, 0.009674141, 0.009256715, 0.009674091, 0.0094441045, 0.009360218, 0.009568498, 0.00950491, 0.009256715, 0.009463782, 0.009503179, 0.009463747, 0.00935897, 0.009567401, 0.009360101, 0.0094241435, 0.009608703, 0.009569496, 0.00935897, 0.009359843, 0.009567343, 0.009256715, 0.009292332, 0.0097784335, 0.009780841, 0.009671219, 0.009359996, 0.00936006, 0.009567292, 0.009360307, 0.009359925, 0.009887629, 0.009360214, 0.009887084, 0.00956788, 0.009567774, 0.00960902, 0.009464334, 0.009464448, 0.009464343, 0.009463616, 0.009670666, 0.009463243, 0.00935897, 0.009862351, 0.009844532, 0.009780946, 0.009671688, 0.00956881, 0.009420519, 0.009381871, 0.009256715, 0.009463485, 0.009464107, 0.00963068, 0.009569478, 0.009462938, 0.009504272, 0.009568423, 0.009675234, 0.009609802, 0.009463403, 0.009256715, 0.009463481, 0.009463612, 0.0095662335, 0.009462587, 0.009568767, 0.00935897, 0.009464078, 0.009566787, 0.009568519, 0.009360474, 0.009400755, 0.009359843, 0.009715099, 0.009503808, 0.009609762, 0.009503413, 0.009360101, 0.0095038265, 0.009359809, 0.009359996, 0.009568542, 0.009256715, 0.009888255, 0.009462893, 0.009463927]
2021-05-15 14:29:01,827 : DEBUG : updating topics
2021-05-15 14:29:01,835 : INFO : topic #33 (0.009): 0.001*"failure" + 0.001*"crispr" + 0.001*"policy" + 0.001*"key" + 0.001*"ineffective" + 0.001*"guideline" + 0.001*"partial" + 0.001*"embryo" + 0.001*"1803–1854" + 0.001*"newport"
2021-05-15 14:29:01,836 : INFO : topic #14 (0.009): 0.001*"failure" + 0.001*"crispr" + 0.001*"policy" + 0.001*"key" + 0.001*"ineffective" + 0.001*"guideline" + 0.001*"partial" + 0.001*"embryo" + 0.001*"1803–1854" + 0.001*"newport"
2021-05-15 14:29:01,836 : INFO : topic #57 (0.010): 0.070*"genetic" + 0.047*"biology" + 0.046*"student" + 0.044*"engineering" + 0.024*"framework" + 0.024*"adaptiveness" + 0.024*"reductionists" + 0.024*"philosophy" + 0.024*"genotype" + 0.024*"explanation"
2021-05-15 14:29:01,836 : INFO : topic #43 (0.010): 0.046*"explanation" + 0.046*"research" + 0.023*"context" + 0.023*"property" + 0.023*"invention" + 0.023*"limit" + 0.023*"microbiota" + 0.023*"cell" + 0.023*"vanish" + 0.023*"hybridization"
2021-05-15 14:29:01,836 : INFO : topic #97 (0.010): 0.063*"science" + 0.042*"selection" + 0.042*"sustainability" + 0.042*"natural" + 0.021*"engage" + 0.021*"metaethical" + 0.021*"immediate" + 0.021*"darwinian" + 0.021*"preserve" + 0.021*"shaping"
2021-05-15 14:29:01,836 : INFO : topic diff=0.020593, rho=0.447214
2021-05-15 14:29:01,844 : DEBUG : bound: at document #0
2021-05-15 14:29:01,891 : INFO : -7.000 per-word bound, 128.0 perplexity estimate based on a held-out corpus of 233 documents with 3130 words
2021-05-15 14:29:01,892 : INFO : PROGRESS: pass 4, at document #233/233
2021-05-15 14:29:01,892 : DEBUG : performing inference on a chunk of 233 documents
2021-05-15 14:29:01,921 : DEBUG : 233/233 documents converged within 50 iterations
2021-05-15 14:29:01,923 : INFO : optimized alpha [0.009380852, 0.009823947, 0.009419071, 0.009145025, 0.009501072, 0.00926237, 0.009499393, 0.00926237, 0.009660162, 0.009262706, 0.0093819145, 0.00918355, 0.009621196, 0.009621996, 0.009145025, 0.009621941, 0.009361498, 0.009262959, 0.00950097, 0.009421515, 0.009145025, 0.00938119, 0.009419662, 0.009381201, 0.009261546, 0.009499701, 0.009262828, 0.009325483, 0.009540274, 0.009502087, 0.009261546, 0.009262539, 0.009499632, 0.009145025, 0.009179783, 0.009741605, 0.009744485, 0.00961862, 0.009262706, 0.009262823, 0.00949958, 0.009263063, 0.009262684, 0.009867302, 0.009262954, 0.00986667, 0.009500247, 0.009500124, 0.009540728, 0.009381818, 0.009381945, 0.009381827, 0.009380998, 0.009618002, 0.009380575, 0.009261546, 0.009824512, 0.009824505, 0.009744602, 0.00961923, 0.009501335, 0.0093383575, 0.009283974, 0.009145025, 0.009380869, 0.009381608, 0.009578835, 0.009502101, 0.00938023, 0.009420908, 0.009500864, 0.009623245, 0.009541513, 0.009380758, 0.009145025, 0.009380844, 0.0093809925, 0.009498371, 0.009379832, 0.009501257, 0.009261546, 0.009381522, 0.009498998, 0.009500999, 0.009263252, 0.0093025975, 0.009262539, 0.009662207, 0.009420398, 0.009541476, 0.009419807, 0.009262828, 0.0094202785, 0.00926256, 0.009262706, 0.009501004, 0.009145025, 0.009868018, 0.0093801785, 0.009381354]
2021-05-15 14:29:01,923 : DEBUG : updating topics
2021-05-15 14:29:01,931 : INFO : topic #20 (0.009): 0.001*"failure" + 0.001*"crispr" + 0.001*"policy" + 0.001*"key" + 0.001*"ineffective" + 0.001*"guideline" + 0.001*"partial" + 0.001*"embryo" + 0.001*"1803–1854" + 0.001*"newport"
2021-05-15 14:29:01,931 : INFO : topic #63 (0.009): 0.001*"failure" + 0.001*"crispr" + 0.001*"policy" + 0.001*"key" + 0.001*"ineffective" + 0.001*"guideline" + 0.001*"partial" + 0.001*"embryo" + 0.001*"1803–1854" + 0.001*"newport"
2021-05-15 14:29:01,932 : INFO : topic #1 (0.010): 0.076*"model" + 0.050*"selection" + 0.050*"selective" + 0.050*"change" + 0.049*"population" + 0.025*"phenotypic" + 0.025*"anything" + 0.025*"aesthetic" + 0.025*"mechanism" + 0.025*"ecology"
2021-05-15 14:29:01,932 : INFO : topic #43 (0.010): 0.046*"explanation" + 0.046*"research" + 0.023*"context" + 0.023*"property" + 0.023*"invention" + 0.023*"limit" + 0.023*"microbiota" + 0.023*"cell" + 0.023*"vanish" + 0.023*"hybridization"
2021-05-15 14:29:01,932 : INFO : topic #97 (0.010): 0.063*"science" + 0.042*"selection" + 0.042*"sustainability" + 0.042*"natural" + 0.021*"engage" + 0.021*"metaethical" + 0.021*"immediate" + 0.021*"darwinian" + 0.021*"preserve" + 0.021*"shaping"
2021-05-15 14:29:01,932 : INFO : topic diff=0.019981, rho=0.408248
2021-05-15 14:29:01,940 : DEBUG : bound: at document #0
2021-05-15 14:29:01,986 : INFO : -6.975 per-word bound, 125.8 perplexity estimate based on a held-out corpus of 233 documents with 3130 words
2021-05-15 14:29:01,986 : INFO : PROGRESS: pass 5, at document #233/233
2021-05-15 14:29:01,986 : DEBUG : performing inference on a chunk of 233 documents
2021-05-15 14:29:02,016 : DEBUG : 233/233 documents converged within 50 iterations
2021-05-15 14:29:02,018 : INFO : optimized alpha [0.009305561, 0.009805134, 0.00934293, 0.009043694, 0.009439339, 0.009173859, 0.009437427, 0.009173859, 0.009611287, 0.009174232, 0.009306692, 0.009081365, 0.0095732305, 0.009574128, 0.009043694, 0.009574063, 0.00928619, 0.009174514, 0.009439217, 0.009345489, 0.009043694, 0.009305888, 0.009343528, 0.009305944, 0.009172954, 0.00943779, 0.009174369, 0.009235774, 0.0094777085, 0.009440439, 0.009172954, 0.009174051, 0.009437715, 0.009043694, 0.009077678, 0.009707596, 0.009710908, 0.009570339, 0.009174232, 0.0091743935, 0.009437658, 0.009174629, 0.009174255, 0.009848284, 0.00917451, 0.009847573, 0.009438402, 0.009438261, 0.009478278, 0.009306578, 0.009306721, 0.009306588, 0.0093056755, 0.009569663, 0.009305204, 0.009172954, 0.009789585, 0.009805766, 0.009711033, 0.009571073, 0.009439629, 0.009263448, 0.009194957, 0.009043694, 0.009305552, 0.009306386, 0.009531239, 0.009440481, 0.0093048215, 0.009344916, 0.009439082, 0.009575512, 0.009479071, 0.009305407, 0.009043694, 0.009305504, 0.00930567, 0.009436315, 0.009304388, 0.00943952, 0.009172954, 0.009306255, 0.009437012, 0.009439252, 0.0091748405, 0.009213341, 0.009174051, 0.009613656, 0.009344359, 0.009479037, 0.009343593, 0.009174369, 0.009344116, 0.0091741225, 0.009174232, 0.009439238, 0.009043694, 0.009849082, 0.009304772, 0.009306067]
2021-05-15 14:29:02,019 : DEBUG : updating topics
2021-05-15 14:29:02,027 : INFO : topic #33 (0.009): 0.001*"failure" + 0.001*"crispr" + 0.001*"policy" + 0.001*"key" + 0.001*"ineffective" + 0.001*"guideline" + 0.001*"partial" + 0.001*"embryo" + 0.001*"1803–1854" + 0.001*"newport"
2021-05-15 14:29:02,028 : INFO : topic #63 (0.009): 0.001*"failure" + 0.001*"crispr" + 0.001*"policy" + 0.001*"key" + 0.001*"ineffective" + 0.001*"guideline" + 0.001*"partial" + 0.001*"embryo" + 0.001*"1803–1854" + 0.001*"newport"
2021-05-15 14:29:02,028 : INFO : topic #45 (0.010): 0.024*"paradigm" + 0.024*"dog" + 0.024*"synthesis" + 0.024*"russell" + 0.024*"plant" + 0.024*"sensationalizing" + 0.024*"playing" + 0.024*"cold" + 0.024*"stuart" + 0.024*"control"
2021-05-15 14:29:02,028 : INFO : topic #43 (0.010): 0.046*"explanation" + 0.046*"research" + 0.023*"context" + 0.023*"property" + 0.023*"invention" + 0.023*"limit" + 0.023*"microbiota" + 0.023*"cell" + 0.023*"hybridization" + 0.023*"vanish"
2021-05-15 14:29:02,028 : INFO : topic #97 (0.010): 0.063*"science" + 0.042*"selection" + 0.042*"sustainability" + 0.042*"natural" + 0.021*"engage" + 0.021*"metaethical" + 0.021*"immediate" + 0.021*"darwinian" + 0.021*"preserve" + 0.021*"shaping"
2021-05-15 14:29:02,028 : INFO : topic diff=0.020379, rho=0.377964
2021-05-15 14:29:02,035 : DEBUG : bound: at document #0
2021-05-15 14:29:02,084 : INFO : -6.957 per-word bound, 124.2 perplexity estimate based on a held-out corpus of 233 documents with 3130 words
2021-05-15 14:29:02,084 : INFO : PROGRESS: pass 6, at document #233/233
2021-05-15 14:29:02,084 : DEBUG : performing inference on a chunk of 233 documents
2021-05-15 14:29:02,114 : DEBUG : 233/233 documents converged within 50 iterations
2021-05-15 14:29:02,116 : INFO : optimized alpha [0.009236113, 0.00978736, 0.009272716, 0.008950651, 0.009382245, 0.009092418, 0.009380118, 0.009092418, 0.009565936, 0.009092826, 0.009237309, 0.008987544, 0.009528714, 0.009529695, 0.008950651, 0.009529626, 0.009216734, 0.009093127, 0.0093821, 0.009275377, 0.008950651, 0.0092364345, 0.00927332, 0.009236532, 0.009091439, 0.009380533, 0.009092975, 0.009153239, 0.009419851, 0.0093834195, 0.009091439, 0.009092629, 0.009380456, 0.008950651, 0.008983936, 0.009675862, 0.009679566, 0.009525535, 0.009092826, 0.009093027, 0.00938039, 0.009093255, 0.009092891, 0.009830325, 0.0090931235, 0.00982954, 0.009381201, 0.009381047, 0.009420526, 0.009237182, 0.009237341, 0.009237196, 0.0092362035, 0.009524804, 0.009235691, 0.009091439, 0.009757001, 0.009788066, 0.009679706, 0.009526381, 0.009382558, 0.00919436, 0.009113057, 0.008950651, 0.00923608, 0.009237008, 0.009487058, 0.009383488, 0.009235276, 0.009274826, 0.009381945, 0.009531208, 0.009421325, 0.009235911, 0.008950651, 0.009236018, 0.009236199, 0.009378929, 0.009234804, 0.009382419, 0.009091439, 0.009236836, 0.009379689, 0.009382148, 0.009093482, 0.009131219, 0.009092629, 0.009568603, 0.009274232, 0.009421295, 0.009273309, 0.009092975, 0.009273878, 0.009092747, 0.009092826, 0.009382117, 0.008950651, 0.009831196, 0.009235225, 0.009236626]
2021-05-15 14:29:02,116 : DEBUG : updating topics
2021-05-15 14:29:02,124 : INFO : topic #63 (0.009): 0.001*"failure" + 0.001*"crispr" + 0.001*"policy" + 0.001*"key" + 0.001*"ineffective" + 0.001*"guideline" + 0.001*"partial" + 0.001*"embryo" + 0.001*"1803–1854" + 0.001*"newport"
2021-05-15 14:29:02,124 : INFO : topic #3 (0.009): 0.001*"failure" + 0.001*"crispr" + 0.001*"policy" + 0.001*"key" + 0.001*"ineffective" + 0.001*"guideline" + 0.001*"partial" + 0.001*"embryo" + 0.001*"1803–1854" + 0.001*"newport"
2021-05-15 14:29:02,125 : INFO : topic #97 (0.010): 0.063*"science" + 0.042*"selection" + 0.042*"sustainability" + 0.042*"natural" + 0.021*"engage" + 0.021*"metaethical" + 0.021*"immediate" + 0.021*"darwinian" + 0.021*"preserve" + 0.021*"shaping"
2021-05-15 14:29:02,125 : INFO : topic #45 (0.010): 0.024*"paradigm" + 0.024*"dog" + 0.024*"synthesis" + 0.024*"russell" + 0.024*"plant" + 0.024*"sensationalizing" + 0.024*"playing" + 0.024*"stuart" + 0.024*"control" + 0.024*"cold"
2021-05-15 14:29:02,125 : INFO : topic #43 (0.010): 0.046*"explanation" + 0.046*"research" + 0.023*"context" + 0.023*"invention" + 0.023*"property" + 0.023*"microbiota" + 0.023*"cell" + 0.023*"limit" + 0.023*"hybridization" + 0.023*"vanish"
2021-05-15 14:29:02,125 : INFO : topic diff=0.020594, rho=0.353553
2021-05-15 14:29:02,132 : DEBUG : bound: at document #0
2021-05-15 14:29:02,178 : INFO : -6.943 per-word bound, 123.0 perplexity estimate based on a held-out corpus of 233 documents with 3130 words
2021-05-15 14:29:02,178 : INFO : PROGRESS: pass 7, at document #233/233
2021-05-15 14:29:02,178 : DEBUG : performing inference on a chunk of 233 documents
2021-05-15 14:29:02,209 : DEBUG : 233/233 documents converged within 50 iterations
2021-05-15 14:29:02,211 : INFO : optimized alpha [0.009171494, 0.009770465, 0.009207388, 0.008864426, 0.009328983, 0.009016802, 0.009326659, 0.009016802, 0.009523497, 0.009017237, 0.009172746, 0.008900612, 0.009487047, 0.009488106, 0.008864426, 0.009488034, 0.009152109, 0.009017561, 0.009328818, 0.009210144, 0.008864426, 0.009171812, 0.009207996, 0.00917194, 0.009015755, 0.009327123, 0.009017398, 0.009076618, 0.009365883, 0.009330225, 0.009015755, 0.009017028, 0.009327039, 0.008864426, 0.00889707, 0.009646021, 0.009650085, 0.009483605, 0.009017237, 0.009017473, 0.009326969, 0.0090176985, 0.009017342, 0.009813246, 0.009017558, 0.009812398, 0.00932784, 0.009327674, 0.009366657, 0.009172609, 0.0091727795, 0.009172622, 0.0091715595, 0.009482823, 0.009171009, 0.009015755, 0.009726363, 0.009771233, 0.009650237, 0.009484552, 0.0093293125, 0.009130073, 0.009037016, 0.008864426, 0.009171438, 0.00917245, 0.009445708, 0.009330318, 0.009170566, 0.009209614, 0.009328641, 0.009489735, 0.009367461, 0.009171247, 0.008864426, 0.00917136, 0.009171554, 0.009325397, 0.009170057, 0.009329151, 0.009015755, 0.009172238, 0.009326219, 0.009328874, 0.009017941, 0.009054976, 0.009017028, 0.009526435, 0.009208986, 0.009367433, 0.009207918, 0.009017398, 0.009208532, 0.009017188, 0.009017237, 0.009328825, 0.008864426, 0.009814192, 0.009170512, 0.009172015]
2021-05-15 14:29:02,212 : DEBUG : updating topics
2021-05-15 14:29:02,220 : INFO : topic #96 (0.009): 0.001*"failure" + 0.001*"crispr" + 0.001*"policy" + 0.001*"key" + 0.001*"ineffective" + 0.001*"guideline" + 0.001*"partial" + 0.001*"embryo" + 0.001*"1803–1854" + 0.001*"newport"
2021-05-15 14:29:02,220 : INFO : topic #14 (0.009): 0.001*"failure" + 0.001*"crispr" + 0.001*"policy" + 0.001*"key" + 0.001*"ineffective" + 0.001*"guideline" + 0.001*"partial" + 0.001*"embryo" + 0.001*"1803–1854" + 0.001*"newport"
2021-05-15 14:29:02,220 : INFO : topic #57 (0.010): 0.070*"genetic" + 0.047*"biology" + 0.047*"student" + 0.046*"engineering" + 0.024*"framework" + 0.024*"reductionists" + 0.024*"adaptiveness" + 0.024*"genotype" + 0.024*"philosophy" + 0.024*"explanation"
2021-05-15 14:29:02,220 : INFO : topic #43 (0.010): 0.046*"explanation" + 0.046*"research" + 0.023*"context" + 0.023*"invention" + 0.023*"property" + 0.023*"microbiota" + 0.023*"cell" + 0.023*"limit" + 0.023*"hybridization" + 0.023*"topological"
2021-05-15 14:29:02,220 : INFO : topic #97 (0.010): 0.063*"science" + 0.042*"selection" + 0.042*"sustainability" + 0.042*"natural" + 0.021*"engage" + 0.021*"metaethical" + 0.021*"darwinian" + 0.021*"preserve" + 0.021*"immediate" + 0.021*"shaping"
2021-05-15 14:29:02,220 : INFO : topic diff=0.020162, rho=0.333333
2021-05-15 14:29:02,229 : DEBUG : bound: at document #0
2021-05-15 14:29:02,285 : INFO : -6.933 per-word bound, 122.2 perplexity estimate based on a held-out corpus of 233 documents with 3130 words
2021-05-15 14:29:02,286 : INFO : PROGRESS: pass 8, at document #233/233
2021-05-15 14:29:02,286 : DEBUG : performing inference on a chunk of 233 documents
2021-05-15 14:29:02,320 : DEBUG : 233/233 documents converged within 50 iterations
2021-05-15 14:29:02,322 : INFO : optimized alpha [0.009110942, 0.009754309, 0.009146179, 0.0087839365, 0.009278952, 0.008946088, 0.00927645, 0.008946088, 0.009483522, 0.008946549, 0.009112244, 0.008819459, 0.009447794, 0.009448923, 0.0087839365, 0.009448844, 0.009091551, 0.008946894, 0.009278766, 0.00914902, 0.0087839365, 0.0091112545, 0.00914679, 0.009111412, 0.008944976, 0.009276956, 0.0089467205, 0.009004968, 0.009315195, 0.00928026, 0.008944976, 0.008946326, 0.009276869, 0.0087839365, 0.008815986, 0.0096177785, 0.009622176, 0.009444103, 0.008946549, 0.008946816, 0.009276792, 0.008947034, 0.008946686, 0.009796922, 0.008946889, 0.009796012, 0.009277717, 0.009277542, 0.009316063, 0.009112097, 0.009112278, 0.009112116, 0.009110983, 0.009443277, 0.009110401, 0.008944976, 0.009697376, 0.009755141, 0.009622339, 0.009445148, 0.009279298, 0.009069832, 0.00896591, 0.0087839365, 0.009110865, 0.009111951, 0.009406751, 0.009280373, 0.00910993, 0.009148513, 0.009278572, 0.009450657, 0.009316867, 0.009110649, 0.0087839365, 0.009110773, 0.009110979, 0.009275121, 0.009109386, 0.009279116, 0.008944976, 0.009111706, 0.009275994, 0.009278834, 0.008947294, 0.008983677, 0.008946326, 0.00948671, 0.00914785, 0.009316848, 0.009146653, 0.0089467205, 0.009147302, 0.008946523, 0.008946549, 0.009278767, 0.0087839365, 0.009797935, 0.00910987, 0.00911147]
2021-05-15 14:29:02,322 : DEBUG : updating topics
2021-05-15 14:29:02,330 : INFO : topic #3 (0.009): 0.001*"failure" + 0.001*"crispr" + 0.001*"policy" + 0.001*"key" + 0.001*"ineffective" + 0.001*"guideline" + 0.001*"partial" + 0.001*"embryo" + 0.001*"1803–1854" + 0.001*"newport"
2021-05-15 14:29:02,330 : INFO : topic #11 (0.009): 0.001*"biological" + 0.001*"legislation" + 0.001*"farming" + 0.001*"argumentation" + 0.001*"early" + 0.001*"salmon" + 0.001*"norwegian" + 0.001*"ineffective" + 0.001*"key" + 0.001*"review"
2021-05-15 14:29:02,330 : INFO : topic #97 (0.010): 0.063*"science" + 0.042*"selection" + 0.042*"sustainability" + 0.042*"natural" + 0.021*"engage" + 0.021*"metaethical" + 0.021*"darwinian" + 0.021*"immediate" + 0.021*"preserve" + 0.021*"shaping"
2021-05-15 14:29:02,331 : INFO : topic #45 (0.010): 0.024*"paradigm" + 0.024*"synthesis" + 0.024*"dog" + 0.024*"plant" + 0.024*"russell" + 0.024*"cold" + 0.024*"stuart" + 0.024*"playing" + 0.024*"behavior" + 0.024*"control"
2021-05-15 14:29:02,331 : INFO : topic #43 (0.010): 0.046*"explanation" + 0.046*"research" + 0.023*"invention" + 0.023*"context" + 0.023*"property" + 0.023*"microbiota" + 0.023*"cell" + 0.023*"limit" + 0.023*"hybridization" + 0.023*"topological"
2021-05-15 14:29:02,331 : INFO : topic diff=0.018991, rho=0.316228
2021-05-15 14:29:02,338 : DEBUG : bound: at document #0
2021-05-15 14:29:02,386 : INFO : -6.926 per-word bound, 121.6 perplexity estimate based on a held-out corpus of 233 documents with 3130 words
2021-05-15 14:29:02,386 : INFO : PROGRESS: pass 9, at document #233/233
2021-05-15 14:29:02,386 : DEBUG : performing inference on a chunk of 233 documents
2021-05-15 14:29:02,415 : DEBUG : 233/233 documents converged within 50 iterations
2021-05-15 14:29:02,417 : INFO : optimized alpha [0.009053875, 0.009738797, 0.009088497, 0.00870835, 0.009231699, 0.0088795675, 0.009229027, 0.0088795675, 0.009445662, 0.008880053, 0.009055224, 0.0087432545, 0.009410611, 0.009411804, 0.00870835, 0.009411724, 0.009034481, 0.008880414, 0.009231489, 0.009091419, 0.00870835, 0.009054184, 0.009089113, 0.009054368, 0.008878398, 0.009229576, 0.008880232, 0.008937574, 0.009267324, 0.009233061, 0.008878397, 0.008879819, 0.009229481, 0.00870835, 0.008739844, 0.009590914, 0.009595624, 0.009406693, 0.008880053, 0.008880351, 0.009229402, 0.008880562, 0.0088802185, 0.009781247, 0.00888041, 0.009780278, 0.009230377, 0.009230193, 0.009268278, 0.009055067, 0.009055261, 0.009055089, 0.009053895, 0.0094058225, 0.009053285, 0.008878397, 0.009669806, 0.009739685, 0.0095957965, 0.009407825, 0.009232059, 0.00901306, 0.008899027, 0.00870835, 0.009053776, 0.009054934, 0.009369847, 0.009233194, 0.009052786, 0.00909093, 0.00923128, 0.009413638, 0.009269086, 0.009053541, 0.00870835, 0.0090536745, 0.009053888, 0.009227637, 0.0090522105, 0.009231857, 0.008878398, 0.00905466, 0.009228558, 0.009231568, 0.008880838, 0.008916615, 0.008879819, 0.009449085, 0.009090237, 0.009269067, 0.009088919, 0.008880232, 0.009089604, 0.00888005, 0.008880053, 0.009231484, 0.00870835, 0.0097823255, 0.009052718, 0.0090544075]
2021-05-15 14:29:02,418 : DEBUG : updating topics
2021-05-15 14:29:02,427 : INFO : topic #63 (0.009): 0.001*"failure" + 0.001*"crispr" + 0.001*"policy" + 0.001*"key" + 0.001*"ineffective" + 0.001*"guideline" + 0.001*"partial" + 0.001*"embryo" + 0.001*"1803–1854" + 0.001*"newport"
2021-05-15 14:29:02,427 : INFO : topic #14 (0.009): 0.001*"failure" + 0.001*"crispr" + 0.001*"policy" + 0.001*"key" + 0.001*"ineffective" + 0.001*"guideline" + 0.001*"partial" + 0.001*"embryo" + 0.001*"1803–1854" + 0.001*"newport"
2021-05-15 14:29:02,427 : INFO : topic #57 (0.010): 0.070*"genetic" + 0.047*"biology" + 0.047*"student" + 0.047*"engineering" + 0.023*"framework" + 0.023*"reductionists" + 0.023*"philosophy" + 0.023*"genotype" + 0.023*"explanation" + 0.023*"adaptiveness"
2021-05-15 14:29:02,427 : INFO : topic #43 (0.010): 0.046*"explanation" + 0.046*"research" + 0.023*"invention" + 0.023*"context" + 0.023*"property" + 0.023*"microbiota" + 0.023*"cell" + 0.023*"limit" + 0.023*"hybridization" + 0.023*"vanish"
2021-05-15 14:29:02,427 : INFO : topic #45 (0.010): 0.024*"paradigm" + 0.024*"synthesis" + 0.024*"dog" + 0.024*"plant" + 0.024*"russell" + 0.024*"control" + 0.024*"playing" + 0.024*"behavior" + 0.024*"flaw" + 0.024*"cold"
2021-05-15 14:29:02,428 : INFO : topic diff=0.017201, rho=0.301511
2021-05-15 14:29:02,432 : DEBUG : starting a new internal lifecycle event log for LdaModel
2021-05-15 14:29:02,432 : INFO : LdaModel lifecycle event {'msg': 'trained LdaModel(num_terms=960, num_topics=100, decay=0.5, chunksize=2000) in 1.13s', 'datetime': '2021-05-15T14:29:02.432155', 'gensim': '4.0.1', 'python': '3.9.4 (default, Apr 20 2021, 15:51:38) \n[GCC 10.2.0]', 'platform': 'Linux-5.11.16-arch1-1-x86_64-with-glibc2.33', 'event': 'created'}
2021-05-15 14:29:02,450 : DEBUG : Setting topics to those of the model: LdaModel(num_terms=960, num_topics=100, decay=0.5, chunksize=2000)
2021-05-15 14:29:02,508 : INFO : COHERENCE: -15.84272956057593
2021-05-15 14:29:29,923 : INFO : MATCH PERCENT: 0.4613733905579399
